ply
format ascii 1.0
element vertex 162
property float x
property float y
property float z
property float nx
property float ny
property float nz
property uchar red
property uchar green
property uchar blue
property uchar alpha
element face 321
property list uchar int vertex_indices
end_header
0.107197999954223633 0.0053874598816037178 0.00353406998328864574 0.879059791564941406 -0.149812400341033936 0.452559590339660645 0 0 0 255
0.108164601027965546 0.00648686010390520096 0 0.999997913837432861 -0.000544564507436007261 0.00201766402460634708 0 0 0 255
0.104111000895500183 0.0136283598840236664 0 0.764119207859039307 0.645073115825653076 0.00160947802942246199 0 0 0 255
0.104864597320556641 0.00273325992748141289 0 0.751027703285217285 -0.660270810127258301 2.28489497544615006e-07 0 0 0 255
0.102818898856639862 0.0114941000938415527 0.0057641998864710331 0.609705984592437744 0.400791585445404053 0.683830976486206055 0 0 0 255
0.104864597320556641 0.00273325992748141289 0.00499793980270624161 0.597948670387268066 -0.502524614334106445 0.624440789222717285 0 0 0 255
0.102818898856639862 0.0114941000938415527 -0.0057641998864710331 0.610542595386505127 0.402174711227416992 -0.682270824909210205 0 0 0 255
0.107197999954223633 0.00538745010271668434 -0.00353406998328864574 0.881050229072570801 -0.152199804782867432 -0.447867900133132935 0 0 0 255
0.0998329371213912964 0.00654343981295824051 0.0079075302928686142 0.245075806975364685 -0.175741106271743774 0.953442692756652832 0 0 0 255
0.102531097829341888 7.9069999628700316e-05 0.00353407999500632286 0.333313494920730591 -0.839018583297729492 0.430058002471923828 0 0 0 255
0.0954518765211105347 0.0210441499948501587 0 0.606278777122497559 0.795250773429870605 0.00146782095544040203 0 0 0 255
0.0943537130951881409 0.0180415995419025421 -0.00717665022239089012 0.478968203067779541 0.526964724063873291 -0.702066779136657715 0 0 0 255
0.0943537130951881409 0.0180416107177734375 0.00717665022239089012 0.475762397050857544 0.525843977928161621 0.705080270767211914 0 0 0 255
0.0998329371213912964 0.00654343981295824051 -0.0079075302928686142 0.244242295622825623 -0.175393193960189819 -0.953720629215240479 0 0 0 255
0.104864597320556641 0.00273325992748141289 -0.00499793980270624161 0.601524293422698975 -0.505602478981018066 -0.618493914604187012 0 0 0 255
0.0918914228677749634 0.0111661497503519058 -0.00972072966396808624 0.177564501762390137 -0.104700200259685516 -0.978523790836334229 0 0 0 255
0.0970384404063224792 0.00188276998233050108 0.00541653018444776535 -0.11078750342130661 -0.737218677997589111 0.666509389877319336 0 0 0 255
0.101564601063728333 -0.00102034001611173153 0 0.230701401829719543 -0.973020672798156738 0.00274076801724731922 0 0 0 255
0.102531097829341888 7.9069999628700316e-05 -0.00353406998328864574 0.336616307497024536 -0.840763986110687256 -0.42403450608253479 0 0 0 255
0.0970384329557418823 0.00188276998233050108 -0.00541653018444776535 -0.11310189962387085 -0.738329172134399414 -0.664889514446258545 0 0 0 255
0.0959378331899642944 3.85099992854520679e-05 0 -0.256965786218643188 -0.966418683528900146 0.00189703004434704781 0 0 0 255
0.0918914228677749634 0.0111661599949002266 0.00972072966396808624 0.173640400171279907 -0.10338129848241806 0.97936779260635376 0 0 0 255
0.0897049829363822937 0.00483724987134337425 -0.00656206021085381508 -0.119974203407764435 -0.71920931339263916 -0.684356927871704102 0 0 0 255
0.0897049829363822937 0.00483724987134337425 0.00656206021085381508 -0.121683701872825623 -0.716476619243621826 0.686916470527648926 2 2 2 255
0.0888826698064804077 0.00238125002942979336 0 -0.243697494268417358 -0.969848990440368652 0.00212622107937932014 0 0 0 255
0.0827726274728775024 0.0250805206596851349 0.00903919991105794907 0.37688910961151123 0.588033616542816162 0.715661287307739258 0 0 0 255
0.0812501087784767151 0.0157968606799840927 0.012211809866130352 0.150948107242584229 -0.0703846290707588196 0.986032783985137939 0 0 0 255
0.0799515694379806519 0.00728810019791126251 0.00823672022670507431 -0.0737976133823394775 -0.7148398756980896 0.695383310317993164 0 0 0 255
0.079561479389667511 0.00397955020889639854 0 -0.17194800078868866 -0.985104620456695557 0.00168181897606700659 0 0 0 255
0.0799515694379806519 0.00728810019791126251 -0.00823672022670507431 -0.0770395472645759583 -0.716913282871246338 -0.692892670631408691 0 0 0 255
0.0833241567015647888 0.0293292198330163956 0 0.475732386112213135 0.879589378833770752 0.00108115002512931824 0 0 0 255
0.0812501087784767151 0.0157968495041131973 -0.0122117996215820312 0.149050593376159668 -0.0701208412647247314 -0.986340224742889404 0 0 0 255
0.0827726274728775024 0.0250805206596851349 -0.00903919991105794907 0.377279400825500488 0.590371608734130859 -0.7135276198387146 0 0 0 255
0.0682530999183654785 0.0308233704417943954 0.0102519402280449867 0.243506506085395813 0.638026714324951172 0.730497479438781738 5 5 5 255
0.0683070123195648193 0.0198383703827857971 0.0138306096196174622 0.0883092507719993591 -0.0414806082844734192 0.995229125022888184 2 2 2 255
0.0680735409259796143 0.00988273043185472488 0.0094151599332690239 -0.0776108726859092712 -0.705859720706939697 0.70408707857131958 2 2 2 255
0.0683127567172050476 0.00593277020379900932 0 -0.154672801494598389 -0.987965583801269531 0.000491418526507914066 2 2 2 255
0.0678455308079719543 0.036021791398525238 0 0.308319509029388428 0.951275110244750977 0.00385188497602939606 2 2 2 255
0.0680735409259796143 0.00988272018730640411 -0.00941514968872070312 -0.0804340168833732605 -0.707416892051696777 -0.702204883098602295 5 5 5 255
0.0683070123195648193 0.0198383703827857971 -0.0138306096196174622 0.0871137678623199463 -0.04329729825258255 -0.995257019996643066 0 0 0 255
0.0682530999183654785 0.0308233704417943954 -0.0102519495412707329 0.247743293642997742 0.638087213039398193 -0.729018509387969971 0 0 0 255
0.0517085082828998566 0.0347402803599834442 0.0109417801722884178 0.138148799538612366 0.669250190258026123 0.730081498622894287 8 8 8 255
0.0529758594930171967 0.0230145994573831558 0.0149187603965401649 0.0497242696583271027 -0.0250049997121095657 0.998449981212615967 5 5 5 255
0.0540540292859077454 0.0121216000989079475 0.0102026099339127541 -0.058021198958158493 -0.70428842306137085 0.707539021968841553 5 5 5 255
0.0548453293740749359 0.00777155999094247818 0 -0.11069449782371521 -0.993854403495788574 -0.000323646905599161983 2 2 2 255
0.0509937591850757599 0.0399653688073158264 0 0.167753994464874268 0.985818624496459961 0.00451266020536422729 10 10 10 255
0.0540540292859077454 0.0121215898543596268 -0.0102025996893644333 -0.0595409795641899109 -0.705247402191162109 -0.70645672082901001 5 5 5 255
0.0529758594930171967 0.0230145901441574097 -0.0149187603965401649 0.046979609876871109 -0.0287848599255084991 -0.99848097562789917 2 2 2 255
0.0517085082828998566 0.0347402691841125488 -0.0109417904168367386 0.137021496891975403 0.668831288814544678 -0.73067772388458252 2 2 2 255
0.0332518108189105988 0.036848999559879303 0.0112737398594617844 0.0385845117270946503 0.685259819030761719 0.72727590799331665 59 59 59 255
0.0355775207281112671 0.0249184109270572662 0.0154991596937179565 0.018929189071059227 -0.0152346398681402206 0.99970477819442749 24 24 24 255
0.0379388481378555298 0.0135997999459505081 0.0106312399730086327 -0.0190616492182016373 -0.702395915985107422 0.711531221866607666 29 29 29 255
0.0391054786741733551 0.00908328965306282043 0 -0.0418671406805515289 -0.999122977256774902 -0.000677209405694156885 45 45 45 255
0.0323083214461803436 0.0419573597609996796 0 0.0397408194839954376 0.999208509922027588 0.00177882402203977108 77 77 77 255
0.0379388481378555298 0.0135997999459505081 -0.0106312297284603119 -0.0193027500063180923 -0.702931404113769531 -0.710995674133300781 34 34 34 255
0.0355775207281112671 0.0249183997511863708 -0.0154991596937179565 0.0164192095398902893 -0.018088730052113533 -0.999701619148254395 26 26 26 255
0.0332518108189105988 0.036848999559879303 -0.0112737398594617844 0.0348842516541481018 0.685019373893737793 -0.727689206600189209 53 53 53 255
0.0249701607972383499 0.0247790496796369553 0.0154937999323010445 -0.000618353311438113451 -0.0308808907866477966 0.999522924423217773 53 53 53 255
0.022485390305519104 0.036611560732126236 0.0112533196806907654 -0.0159598793834447861 0.676485776901245117 0.736282825469970703 142 142 142 255
0.0277502704411745071 0.0135332895442843437 0.0106485998257994652 0.00559537811204791069 -0.708966374397277832 0.70522010326385498 93 93 93 255
0.0290234498679637909 0.00903842039406299591 0 0.0050905928947031498 -0.999986886978149414 -0.000619888771325349808 131 131 131 255
0.0215856190770864487 0.0417013801634311676 0 -0.0236479006707668304 0.999720394611358643 0.000207207194762304425 169 169 169 255
0.0277502704411745071 0.0135332802310585976 -0.0106485895812511444 0.00557355722412467003 -0.70930171012878418 -0.704882979393005371 102 102 102 255
0.0224853996187448502 0.036611560732126236 -0.0112533196806907654 -0.0158700402826070786 0.677096009254455566 -0.735723614692687988 123 123 123 255
0.0249701607972383499 0.0247790496796369553 -0.0154937999323010445 -0.000726157391909509897 -0.032063070684671402 -0.999485611915588379 53 53 53 255
0.01171898003667593 0.0363741293549537659 0.011232900433242321 -0.0300190802663564682 0.681225419044494629 0.731458008289337158 174 174 174 255
0.0143627896904945374 0.0246396902948617935 0.0154884401708841324 0.00923173315823078156 -0.0189399607479572296 0.99977797269821167 83 83 83 255
0.0175616908818483353 0.0134667800739407539 0.0106659596785902977 0.03624701127409935 -0.70215308666229248 0.711102783679962158 144 144 144 255
0.0108629204332828522 0.0414454005658626556 0 -0.0486007705330848694 0.998818278312683105 0.000107321502582635731 225 225 225 255
0.0189414191991090775 0.00899356044828891754 0 0.0430015511810779572 -0.999074816703796387 -0.000681149889715015888 228 228 228 255
0.0175616908818483353 0.0134667698293924332 -0.0106659503653645515 0.0361651293933391571 -0.70255047082901001 -0.710714399814605713 177 177 177 255
0.0143627999350428581 0.0246396902948617935 -0.0154884401708841324 0.00907450355589389801 -0.0200446192175149918 -0.999757885932922363 85 85 85 255
0.01171898003667593 0.0363741181790828705 -0.0112329097464680672 -0.0301552992314100266 0.681765973567962646 -0.730948507785797119 158 158 158 255
0.00187277002260088921 0.0236355103552341461 0.0156731493771076202 0.00262923003174364567 -0.0156347695738077164 0.999874413013458252 88 88 88 255
-0.000993849942460656166 0.035398431122303009 0.0113616399466991425 -0.0912377834320068359 0.675970315933227539 0.73125910758972168 142 142 142 255
0.00539657985791563988 0.0124553898349404335 0.0108261900022625923 0.0845887735486030579 -0.693682312965393066 0.71529698371887207 163 163 163 255
0.00686497986316680908 0.00795944966375827789 0 0.1156202033162117 -0.993293285369873047 -0.00070014182711020112 255 255 255 255
-0.00189611001405864954 0.0405238494277000427 0 -0.133668497204780579 0.991026103496551514 -1.61607804329833016e-05 195 195 195 255
0.00539657985791563988 0.0124553898349404335 -0.0108261797577142715 0.0846864581108093262 -0.694084525108337402 -0.714895009994506836 193 193 193 255
0.00187278003431856632 0.0236354991793632507 -0.0156731493771076202 0.00255238800309598446 -0.0164303891360759735 -0.999861776828765869 75 75 75 255
-0.000993849942460656166 0.035398431122303009 -0.0113616501912474632 -0.0914235785603523254 0.676412701606750488 -0.730826616287231445 136 136 136 255
-0.0136292800307273865 0.0329723507165908813 0.0112141901627182961 -0.165551304817199707 0.659347116947174072 0.733385384082794189 69 69 69 255
-0.010609540157020092 0.021466890349984169 0.015476839616894722 -0.0236520394682884216 -0.0266552399843931198 0.999364912509918213 56 56 56 255
-0.00684648985043168068 0.0105513501912355423 0.0107232397422194481 0.103229597210884094 -0.694675683975219727 0.711877286434173584 110 110 110 255
-0.00532511016353964806 0.00614196993410587311 0 0.154512897133827209 -0.987990617752075195 -0.0006882256711833179 158 158 158 255
-0.0145558202639222145 0.0380272902548313141 0 -0.23124009370803833 0.9728965163230896 0.000606608577072620392 104 104 104 255
-0.00684648007154464722 0.0105513501912355423 -0.0107232304289937019 0.102794602513313293 -0.694978177547454834 -0.711644887924194336 110 110 110 255
-0.0106095299124717712 0.0214668791741132736 -0.015476839616894722 -0.0236400403082370758 -0.0279462207108736038 -0.999329924583435059 51 51 51 255
-0.0136292800307273865 0.0329723507165908813 -0.0112141901627182961 -0.164541900157928467 0.659660279750823975 -0.733330905437469482 80 80 80 255
-0.0232431497424840927 0.0187109895050525665 0.0149497799575328827 -0.0352057591080665588 -0.0342669785022735596 0.998792529106140137 16 16 16 255
-0.026388099417090416 0.0296470094472169876 0.0108131598681211472 -0.19340960681438446 0.652698814868927002 0.73251420259475708 24 24 24 255
-0.0195709597319364548 0.00828158017247915268 0.010358019731938839 0.104555599391460419 -0.699611425399780273 0.706832528114318848 37 37 37 255
-0.0180146396160125732 0.00407683011144399643 0 0.161483198404312134 -0.986875176429748535 -0.000770465529058128595 56 56 56 255
-0.0274941697716712952 0.0343835391104221344 0 -0.269566714763641357 0.962980687618255615 0.00139114900957792997 34 34 34 255
-0.0195709504187107086 0.00828156992793083191 -0.0103580104187130928 0.104556098580360413 -0.699518978595733643 -0.706923782825469971 40 40 40 255
-0.0263880901038646698 0.0296470001339912415 -0.0108131598681211472 -0.193274393677711487 0.652441978454589844 -0.732778728008270264 18 18 18 255
-0.0232431404292583466 0.0187109801918268204 -0.0149497799575328827 -0.0349052511155605316 -0.0361632406711578369 -0.998736083507537842 5 5 5 255
-0.0391469001770019531 0.0263216700404882431 0.010412139818072319 -0.251670598983764648 0.643661320209503174 0.722746193408966064 2 2 2 255
-0.0358767583966255188 0.0159550905227661133 0.0144227100536227226 -0.0657786428928375244 -0.0339428186416625977 0.997256815433502197 5 5 5 255
-0.0322954393923282623 0.00601179990917444229 0.00999279040843248367 0.101926900446414948 -0.69849318265914917 0.70832061767578125 10 10 10 255
-0.0404325313866138458 0.0307397898286581039 0 -0.337472587823867798 0.941334724426269531 0.00105814100243151188 13 13 13 255
-0.030704159289598465 0.0020116900559514761 0 0.169213905930519104 -0.985579013824462891 -0.000827039708383381367 18 18 18 255
-0.0322954282164573669 0.00601179990917444229 -0.00999279040843248367 0.102040201425552368 -0.6984214186668396 -0.708375215530395508 5 5 5 255
-0.0358767583966255188 0.0159550793468952179 -0.0144227100536227226 -0.0655326470732688904 -0.0356661006808280945 -0.997212827205657959 2 2 2 255
-0.0391469001770019531 0.0263216607272624969 -0.010412139818072319 -0.252236008644104004 0.643288791179656982 -0.722880780696868896 8 8 8 255
-0.0467809587717056274 0.0126292603090405464 0.0132347801700234413 -0.0929842963814735413 -0.0532452017068862915 0.99424290657043457 2 2 2 255
-0.0498830601572990417 0.0219974704086780548 0.00954599026590585709 -0.307715505361557007 0.619239985942840576 0.722393989562988281 0 0 0 255
-0.0433999113738536835 0.00363007001578807831 0.00918581988662481308 0.100567199289798737 -0.70642697811126709 0.700604915618896484 5 5 5 255
-0.0418995283544063568 5.69999997424019966e-07 0 0.177827805280685425 -0.984061181545257568 -0.000927083194255828857 8 8 8 255
-0.0511052906513214111 0.0259916894137859344 0 -0.405695706605911255 0.914007902145385742 0.000755860528443008661 2 2 2 255
-0.0433999001979827881 0.00363007001578807831 -0.00918581988662481308 0.100539103150367737 -0.706497013568878174 -0.700538396835327148 2 2 2 255
-0.0498830489814281464 0.0219974704086780548 -0.00954599957913160324 -0.307663589715957642 0.619275093078613281 -0.722386002540588379 2 2 2 255
-0.0467809587717056274 0.0126292603090405464 -0.0132347801700234413 -0.0925547629594802856 -0.0547970682382583618 -0.994198620319366455 0 0 0 255
-0.060619208961725235 0.0176732800900936127 0.0086798500269651413 -0.409861207008361816 0.579575419425964355 0.70434802770614624 0 0 0 255
-0.0576851591467857361 0.00930344033986330032 0.01204685028642416 -0.176210403442382812 -0.0748368576169013977 0.981503725051879883 2 2 2 255
-0.0545043796300888062 0.0012483400059863925 0.0083788502961397171 0.0421898290514945984 -0.719481229782104492 0.693229377269744873 5 5 5 255
-0.0617780499160289764 0.0212435908615589142 0 -0.511978089809417725 0.858998417854309082 0.000382960890419781208 2 2 2 255
-0.0530949011445045471 -0.0020105498842895031 0 0.129104092717170715 -0.991630613803863525 -0.00102983205579221249 5 5 5 255
-0.0545043796300888062 0.0012483400059863925 -0.0083788502961397171 0.041698109358549118 -0.719495773315429688 -0.693243980407714844 0 0 0 255
-0.0576851516962051392 0.00930344033986330032 -0.0120468595996499062 -0.176790997385978699 -0.0765572935342788696 -0.981266498565673828 0 0 0 255
-0.0606192015111446381 0.0176732800900936127 -0.0086798500269651413 -0.410971999168395996 0.57896798849105835 -0.704200387001037598 2 2 2 255
-0.074461720883846283 0.00841758027672767639 0.00529919005930423737 -0.577645003795623779 0.470074206590652466 0.667350411415100098 0 0 0 255
-0.0725076273083686829 0.00348430010490119457 0.00735695986077189445 -0.316900014877319336 -0.141619697213172913 0.937826395034790039 0 0 0 255
-0.0705704465508460999 -0.00127201003488153219 0.00511312996968626976 -0.0638501793146133423 -0.74801558256149292 0.660602688789367676 0 0 0 255
-0.0697216764092445374 -0.00319937011227011681 0 0.0393995009362697601 -0.999222815036773682 -0.00125927000772207975 0 0 0 255
-0.075293712317943573 0.0105129396542906761 0 -0.68801039457321167 0.725700676441192627 -0.000350158399669453502 0 0 0 255
-0.0705704465508460999 -0.00127202004659920931 -0.00511312996968626976 -0.0625119507312774658 -0.747458696365356445 -0.661360621452331543 2 2 2 255
-0.0725076273083686829 0.00348430010490119457 -0.00735695986077189445 -0.316137105226516724 -0.142374396324157715 -0.937969624996185303 0 0 0 255
-0.074461720883846283 0.00841758027672767639 -0.00529919005930423737 -0.577837228775024414 0.469594389200210571 -0.667521774768829346 0 0 0 255
-0.0810960829257965088 0.00224932003766298294 0.00251924991607666016 -0.646997809410095215 0.417760401964187622 0.637863695621490479 0 0 0 255
-0.079961530864238739 0 0.00356276007369160652 -0.316676288843154907 -0.130456998944282532 0.939519703388214111 0 0 0 255
-0.0788269937038421631 -0.00224932003766298294 0.00251925992779433727 0.0388912186026573181 -0.725934386253356934 0.686663627624511719 2 2 2 255
-0.0783570408821105957 -0.00318102003075182438 0 0.174338206648826599 -0.98462378978729248 -0.0110544897615909576 2 2 2 255
-0.0815660208463668823 0.00318102003075182438 0 -0.776844322681427002 0.629690110683441162 -0.00185042305383831263 0 0 0 255
-0.0788269937038421631 -0.00224932003766298294 -0.00251924991607666016 0.00173944805283099413 -0.725991904735565186 -0.687700986862182617 2 2 2 255
-0.079961530864238739 0 -0.00356276007369160652 -0.342587798833847046 -0.142372995615005493 -0.928635299205780029 2 2 2 255
-0.0810960829257965088 0.00224932003766298294 -0.00251924991607666016 -0.655282497406005859 0.406949102878570557 -0.636394023895263672 2 2 2 255
-0.0853620320558547974 -0.00313122989609837532 0.00237517990171909332 -0.462647199630737305 0.207312300801277161 0.861962378025054932 2 2 2 255
-0.0864769518375396729 -0.00240301992744207382 0.000839749991428107023 -0.838316917419433594 0.458975702524185181 0.294221311807632446 2 2 2 255
-0.0836646780371665955 -0.00423985999077558517 0.00251924991607666016 0.149396196007728577 -0.214659199118614197 0.96519547700881958 2 2 2 255
-0.0823791623115539551 -0.00507949991151690483 0.00118758995085954666 0.664288580417633057 -0.573293387889862061 0.4796409010887146 2 2 2 255
-0.0863563269376754761 -0.00248180003836750984 -0.00118758995085954666 -0.802433371543884277 0.421927601099014282 -0.421992599964141846 2 2 2 255
-0.0822585523128509521 -0.00515828002244234085 -0.000839749991428107023 0.710342109203338623 -0.615671813488006592 -0.34111940860748291 2 2 2 255
-0.0850708112120628357 -0.0033214399591088295 -0.00251924991607666016 -0.374884605407714844 0.113193497061729431 -0.920135200023651123 2 2 2 255
-0.0833734571933746338 -0.00443007005378603935 -0.00237516989000141621 0.245093300938606262 -0.314697712659835815 -0.917003214359283447 2 2 2 255
-0.0881244689226150513 -0.0079713696613907814 0.00118758995085954666 -0.808598875999450684 0.39780879020690918 0.433492690324783325 2 2 2 255
-0.0882638096809387207 -0.00793473981320858002 -0.000839749991428107023 -0.858377516269683838 0.408111602067947388 -0.310858607292175293 2 2 2 255
-0.0866394564509391785 -0.00836160965263843536 0.00251924991607666016 -0.263154685497283936 0.261640012264251709 0.928597927093505859 2 2 2 255
-0.0869758725166320801 -0.0082732001319527626 -0.00237517990171909332 -0.387033998966217041 0.281045198440551758 -0.878190279006958008 2 2 2 255
-0.0846787020564079285 -0.00887687969952821732 0.00237517990171909332 0.463892489671707153 0.0835785269737243652 0.881940126419067383 2 2 2 255
-0.0833907574415206909 -0.0092153400182723999 0.000839749991428107023 0.946148216724395752 -0.0401120893657207489 0.3212394118309021 2 2 2 255
-0.0850151106715202332 -0.00878847017884254456 -0.00251924991607666016 0.342718511819839478 0.0902077779173851013 -0.935097098350524902 2 2 2 255
-0.0835301131010055542 -0.00917872041463851929 -0.00118758995085954666 0.900000214576721191 -0.0429877601563930511 -0.433764606714248657 2 2 2 255
-0.0896338224411010742 -0.0141476402059197426 0.00251924991607666016 -0.711816072463989258 -0.412511289119720459 0.568464875221252441 5 5 5 255
-0.0906271785497665405 -0.0138280401006340981 0 -0.936193883419036865 -0.351484000682830811 8.521854761056602e-05 5 5 5 255
-0.0872356072068214417 -0.0149192102253437042 0 -0.306269794702529907 -0.951944828033447266 -1.85774496230806108e-07 5 5 5 255
-0.0872356221079826355 -0.0149192102253437042 0.00356276007369160652 -0.163514792919158936 -0.562876522541046143 0.810205519199371338 5 5 5 255
-0.0896338224411010742 -0.0141476402059197426 -0.00251924991607666016 -0.711922407150268555 -0.412450313568115234 -0.568375885486602783 2 2 2 255
-0.0848374292254447937 -0.0156907793134450912 0.00251925992779433727 0.392094314098358154 -0.716910481452941895 0.576456010341644287 5 5 5 255
-0.0872356221079826355 -0.0149192102253437042 -0.00356276007369160652 -0.163631096482276917 -0.562767982482910156 -0.810257375240325928 5 5 5 255
-0.0838440731167793274 -0.0160103794187307358 0 0.414834409952163696 -0.909896910190582275 -0.000108004402136430144 2 2 2 255
-0.0848374292254447937 -0.0156907793134450912 -0.00251924991607666016 0.229378297924995422 -0.854033827781677246 -0.46691739559173584 5 5 5 255
3 0 1 2
3 0 3 1
3 0 2 4
3 5 3 0
3 5 0 4
3 1 6 2
3 1 3 7
3 1 7 6
3 5 4 8
3 9 3 5
3 9 5 8
3 4 2 10
3 2 6 11
3 2 11 10
3 8 4 12
3 4 10 12
3 7 13 6
3 7 3 14
3 7 14 13
3 6 15 11
3 6 13 15
3 9 8 16
3 17 3 9
3 17 9 16
3 14 3 18
3 18 3 17
3 14 19 13
3 14 18 19
3 18 17 20
3 17 16 20
3 18 20 19
3 16 8 21
3 8 12 21
3 13 19 22
3 13 22 15
3 20 16 23
3 16 21 23
3 19 20 24
3 19 24 22
3 20 23 24
3 21 12 25
3 23 21 26
3 21 25 26
3 24 23 27
3 23 26 27
3 22 24 28
3 24 27 28
3 15 22 29
3 22 28 29
3 12 30 25
3 12 10 30
3 15 29 31
3 11 15 31
3 10 11 32
3 10 32 30
3 11 31 32
3 26 25 33
3 27 26 34
3 26 33 34
3 28 27 35
3 27 34 35
3 29 28 36
3 28 35 36
3 25 30 37
3 25 37 33
3 31 29 38
3 29 36 38
3 32 31 39
3 31 38 39
3 30 32 40
3 30 40 37
3 32 39 40
3 34 33 41
3 35 34 42
3 34 41 42
3 36 35 43
3 35 42 43
3 38 36 44
3 36 43 44
3 33 37 45
3 33 45 41
3 39 38 46
3 38 44 46
3 40 39 47
3 39 46 47
3 37 40 48
3 37 48 45
3 40 47 48
3 42 41 49
3 43 42 50
3 42 49 50
3 44 43 51
3 43 50 51
3 46 44 52
3 44 51 52
3 41 45 53
3 41 53 49
3 47 46 54
3 46 52 54
3 48 47 55
3 47 54 55
3 45 48 56
3 45 56 53
3 48 55 56
3 51 50 57
3 50 49 58
3 50 58 57
3 52 51 59
3 51 57 59
3 54 52 60
3 52 59 60
3 49 53 61
3 49 61 58
3 55 54 62
3 54 60 62
3 53 56 63
3 53 63 61
3 56 55 64
3 55 62 64
3 56 64 63
3 57 58 65
3 59 57 66
3 57 65 66
3 60 59 67
3 59 66 67
3 58 61 68
3 58 68 65
3 62 60 69
3 60 67 69
3 64 62 70
3 62 69 70
3 63 64 71
3 64 70 71
3 61 63 72
3 61 72 68
3 63 71 72
3 67 66 73
3 66 65 74
3 66 74 73
3 69 67 75
3 67 73 75
3 70 69 76
3 69 75 76
3 65 68 77
3 65 77 74
3 71 70 78
3 70 76 78
3 72 71 79
3 71 78 79
3 68 72 80
3 68 80 77
3 72 79 80
3 73 74 81
3 75 73 82
3 73 81 82
3 76 75 83
3 75 82 83
3 78 76 84
3 76 83 84
3 74 77 85
3 74 85 81
3 79 78 86
3 78 84 86
3 80 79 87
3 79 86 87
3 77 80 88
3 77 88 85
3 80 87 88
3 83 82 89
3 82 81 90
3 82 90 89
3 84 83 91
3 83 89 91
3 86 84 92
3 84 91 92
3 81 85 93
3 81 93 90
3 87 86 94
3 86 92 94
3 85 88 95
3 85 95 93
3 88 87 96
3 87 94 96
3 88 96 95
3 89 90 97
3 91 89 98
3 89 97 98
3 92 91 99
3 91 98 99
3 90 93 100
3 90 100 97
3 94 92 101
3 92 99 101
3 96 94 102
3 94 101 102
3 95 96 103
3 96 102 103
3 93 95 104
3 93 104 100
3 95 103 104
3 99 98 105
3 98 97 106
3 98 106 105
3 101 99 107
3 99 105 107
3 102 101 108
3 101 107 108
3 97 100 109
3 97 109 106
3 103 102 110
3 102 108 110
3 100 104 111
3 100 111 109
3 104 103 112
3 103 110 112
3 104 112 111
3 105 106 113
3 107 105 114
3 105 113 114
3 108 107 115
3 107 114 115
3 106 109 116
3 106 116 113
3 110 108 117
3 108 115 117
3 112 110 118
3 110 117 118
3 111 112 119
3 112 118 119
3 109 111 120
3 109 120 116
3 111 119 120
3 114 113 121
3 115 114 122
3 114 121 122
3 117 115 123
3 115 122 123
3 118 117 124
3 117 123 124
3 113 116 125
3 113 125 121
3 119 118 126
3 118 124 126
3 120 119 127
3 119 126 127
3 116 120 128
3 116 128 125
3 120 127 128
3 122 121 129
3 123 122 130
3 122 129 130
3 124 123 131
3 123 130 131
3 126 124 132
3 124 131 132
3 121 125 133
3 121 133 129
3 127 126 134
3 126 132 134
3 128 127 135
3 127 134 135
3 125 128 136
3 125 136 133
3 128 135 136
3 131 130 137
3 130 129 138
3 130 138 137
3 132 131 139
3 131 137 139
3 134 132 140
3 132 139 140
3 129 133 141
3 129 141 138
3 135 134 142
3 134 140 142
3 133 136 143
3 133 143 141
3 136 135 144
3 135 142 144
3 136 144 143
3 139 137 145
3 137 138 146
3 137 146 145
3 140 139 147
3 139 145 147
3 138 141 148
3 138 148 146
3 142 140 149
3 140 147 149
3 144 142 150
3 142 149 150
3 141 143 151
3 141 151 148
3 143 144 152
3 144 150 152
3 143 152 151
3 145 153 147
3 146 154 145
3 145 154 153
3 155 153 154
3 147 153 156
3 147 156 149
3 155 156 153
3 146 157 154
3 148 157 146
3 155 154 157
3 149 156 158
3 149 158 150
3 155 158 156
3 148 159 157
3 151 159 148
3 155 157 159
3 150 158 160
3 150 160 152
3 155 160 158
3 151 161 159
3 152 161 151
3 155 159 161
3 152 160 161
3 155 161 160
3 155 161 160
