# Blender v2.81 (sub 16) OBJ File: 'lightbulb.blend'
# www.blender.org
mtllib lightbulb.mtl
o Sphere
v -0.000000 0.038952 -0.007990
v 0.000000 0.033046 -0.021939
v 0.000000 0.022080 -0.032834
v 0.000000 0.007754 -0.038730
v 0.000000 -0.007754 -0.038730
v 0.003058 0.038952 -0.007382
v 0.008396 0.033046 -0.020269
v 0.012565 0.022080 -0.030335
v 0.014822 0.007754 -0.035782
v 0.014822 -0.007754 -0.035782
v 0.012668 -0.021967 -0.030584
v 0.010414 -0.033258 -0.025141
v 0.005650 0.038952 -0.005650
v 0.015513 0.033046 -0.015513
v 0.023217 0.022080 -0.023217
v 0.027387 0.007754 -0.027387
v 0.027387 -0.007754 -0.027387
v 0.023408 -0.021967 -0.023408
v 0.019242 -0.033258 -0.019242
v 0.007382 0.038952 -0.003058
v 0.020269 0.033046 -0.008396
v 0.030335 0.022080 -0.012565
v 0.035782 0.007754 -0.014822
v 0.035782 -0.007754 -0.014822
v 0.030584 -0.021967 -0.012668
v 0.025141 -0.033258 -0.010414
v 0.007990 0.038952 0.000000
v 0.021939 0.033046 0.000000
v 0.032834 0.022080 0.000000
v 0.038730 0.007754 0.000000
v 0.038730 -0.007754 0.000000
v 0.033104 -0.021967 0.000000
v 0.027213 -0.033258 0.000000
v 0.007382 0.038952 0.003058
v 0.020269 0.033046 0.008396
v 0.030335 0.022080 0.012565
v 0.035782 0.007754 0.014822
v 0.035782 -0.007754 0.014822
v 0.030584 -0.021967 0.012669
v 0.025141 -0.033258 0.010414
v 0.005650 0.038952 0.005650
v 0.015513 0.033046 0.015513
v 0.023217 0.022080 0.023217
v 0.027387 0.007754 0.027387
v 0.027387 -0.007754 0.027387
v 0.023408 -0.021967 0.023408
v 0.019242 -0.033258 0.019242
v 0.003058 0.038952 0.007382
v 0.008396 0.033046 0.020269
v 0.012565 0.022080 0.030335
v 0.014822 0.007754 0.035782
v 0.014822 -0.007754 0.035782
v 0.012668 -0.021967 0.030584
v 0.010414 -0.033258 0.025141
v -0.000000 0.038952 0.007990
v 0.000000 0.033046 0.021939
v -0.000000 0.022080 0.032834
v -0.000000 0.007754 0.038730
v -0.000000 -0.007754 0.038730
v -0.000000 -0.021967 0.033104
v -0.000000 -0.033258 0.027213
v -0.003058 0.038952 0.007382
v -0.008396 0.033046 0.020269
v -0.012565 0.022080 0.030335
v -0.014822 0.007754 0.035782
v -0.014822 -0.007754 0.035782
v -0.012668 -0.021967 0.030584
v -0.010414 -0.033258 0.025141
v -0.000000 0.039903 0.000000
v -0.005650 0.038952 0.005650
v -0.015513 0.033046 0.015513
v -0.023217 0.022080 0.023217
v -0.027387 0.007754 0.027387
v -0.027387 -0.007754 0.027387
v -0.023408 -0.021967 0.023408
v -0.019242 -0.033258 0.019242
v -0.007382 0.038952 0.003058
v -0.020269 0.033046 0.008396
v -0.030335 0.022080 0.012565
v -0.035782 0.007754 0.014822
v -0.035782 -0.007754 0.014822
v -0.030584 -0.021967 0.012668
v -0.025141 -0.033258 0.010414
v -0.007990 0.038952 0.000000
v -0.021939 0.033046 0.000000
v -0.032834 0.022080 0.000000
v -0.038730 0.007754 0.000000
v -0.038730 -0.007754 0.000000
v -0.033104 -0.021967 0.000000
v -0.027213 -0.033258 0.000000
v -0.007382 0.038952 -0.003058
v -0.020269 0.033046 -0.008396
v -0.030335 0.022080 -0.012565
v -0.035782 0.007754 -0.014822
v -0.035782 -0.007754 -0.014822
v -0.030584 -0.021967 -0.012668
v -0.025141 -0.033258 -0.010414
v -0.005650 0.038952 -0.005650
v -0.015513 0.033046 -0.015513
v -0.023217 0.022080 -0.023217
v -0.027387 0.007754 -0.027387
v -0.027387 -0.007754 -0.027387
v -0.023408 -0.021967 -0.023408
v -0.019242 -0.033258 -0.019242
v -0.003058 0.038952 -0.007382
v -0.008396 0.033046 -0.020269
v -0.012565 0.022080 -0.030335
v -0.014821 0.007754 -0.035782
v -0.014821 -0.007754 -0.035782
v -0.012668 -0.021967 -0.030584
v -0.010414 -0.033258 -0.025141
v 0.000000 -0.021967 -0.033104
v 0.000000 -0.033258 -0.027213
v 0.008797 -0.045456 -0.021239
v 0.016255 -0.045456 -0.016255
v 0.021239 -0.045456 -0.008797
v 0.022989 -0.045456 0.000000
v 0.021239 -0.045456 0.008797
v 0.016255 -0.045456 0.016255
v 0.008797 -0.045456 0.021239
v -0.000000 -0.045456 0.022989
v -0.008797 -0.045456 0.021239
v -0.016255 -0.045456 0.016255
v -0.021239 -0.045456 0.008797
v -0.022989 -0.045456 0.000000
v -0.021239 -0.045456 -0.008797
v -0.016255 -0.045456 -0.016255
v -0.008797 -0.045456 -0.021239
v 0.000000 -0.045456 -0.022989
v 0.007603 -0.062735 -0.018356
v 0.014049 -0.062735 -0.014049
v 0.018356 -0.062735 -0.007603
v 0.019869 -0.062735 0.000000
v 0.018356 -0.062735 0.007603
v 0.014049 -0.062735 0.014049
v 0.007603 -0.062735 0.018356
v 0.000000 -0.062735 0.019869
v -0.007603 -0.062735 0.018356
v -0.014049 -0.062735 0.014049
v -0.018356 -0.062735 0.007603
v -0.019868 -0.062735 0.000000
v -0.018356 -0.062735 -0.007603
v -0.014049 -0.062735 -0.014049
v -0.007603 -0.062735 -0.018356
v 0.000000 -0.062735 -0.019868
v -0.017432 -0.084311 0.007220
v 0.007220 -0.084311 -0.017432
v -0.000000 -0.084311 0.018868
v -0.007220 -0.084311 -0.017432
v 0.017432 -0.084311 0.007220
v 0.013342 -0.084311 -0.013342
v -0.018868 -0.084311 0.000000
v -0.007220 -0.084311 0.017432
v 0.013342 -0.084311 0.013342
v -0.017432 -0.084311 -0.007220
v 0.017432 -0.084311 -0.007220
v -0.013342 -0.084311 0.013342
v 0.000000 -0.084311 -0.018868
v -0.013342 -0.084311 -0.013342
v 0.018868 -0.084311 0.000000
v 0.007220 -0.084311 0.017432
v 0.000000 -0.092855 -0.010126
v -0.003875 -0.092855 -0.009355
v -0.007160 -0.092855 -0.007160
v -0.009355 -0.092855 -0.003875
v -0.010126 -0.092855 0.000000
v -0.009355 -0.092855 0.003875
v -0.007160 -0.092855 0.007160
v -0.003875 -0.092855 0.009355
v 0.000000 -0.092855 0.010126
v 0.003875 -0.092855 0.009355
v 0.007160 -0.092855 0.007160
v 0.009355 -0.092855 0.003875
v 0.010126 -0.092855 0.000000
v 0.009355 -0.092855 -0.003875
v 0.007160 -0.092855 -0.007160
v 0.003875 -0.092855 -0.009355
v 0.000000 -0.092855 0.000000
vt 0.750000 0.562500
vt 0.750000 0.687500
vt 0.687500 0.687500
vt 0.687500 0.562500
vt 0.812500 0.687500
vt 0.812500 0.812500
vt 0.750000 0.812500
vt 0.750000 0.437500
vt 0.687500 0.437500
vt 0.750000 0.958333
vt 0.687500 0.958333
vt 0.687500 0.812500
vt 0.625000 0.562500
vt 0.625000 0.437500
vt 0.625000 0.251736
vt 0.562500 0.251736
vt 0.562500 0.208333
vt 0.625000 0.208333
vt 0.625000 0.317708
vt 0.687500 0.317708
vt 0.005208 0.145833
vt 0.000000 0.145833
vt 0.942708 0.145833
vt 0.942708 0.145833
vt 0.062500 0.251736
vt 0.125000 0.251736
vt 0.125000 0.317708
vt 0.062500 0.317708
vt 0.750000 0.208333
vt 0.750000 0.166667
vt 0.812500 0.166666
vt 0.812500 0.208333
vt 0.687500 0.251736
vt 0.500000 0.251736
vt 0.437500 0.251736
vt 0.437500 0.208333
vt 0.500000 0.208333
vt 0.750000 0.251736
vt 0.687500 0.208333
vt 0.687500 0.166667
vt 0.703125 1.000000
vt 0.687500 0.145833
vt 0.692708 0.145833
vt 0.755208 0.145833
vt 0.750000 0.145833
vt 0.562500 0.166667
vt 0.625000 0.166667
vt 0.562500 0.562500
vt 0.562500 0.687500
vt 0.500000 0.687500
vt 0.500000 0.562500
vt 0.500000 0.145833
vt 0.500000 0.166667
vt 0.437500 0.166667
vt 0.432292 0.145833
vt 0.375000 0.251736
vt 0.375000 0.208333
vt 0.437500 0.687500
vt 0.437500 0.562500
vt 0.625000 0.687500
vt 0.562500 0.437500
vt 0.562500 0.317708
vt 0.578125 1.000000
vt 0.562500 0.958333
vt 0.625000 0.958333
vt 0.500000 0.437500
vt 0.500000 0.317708
vt 0.375000 0.166667
vt 0.380208 0.145833
vt 0.437500 0.812500
vt 0.500000 0.812500
vt 0.500000 0.958333
vt 0.562500 0.812500
vt 0.437500 0.437500
vt 0.031250 0.145833
vt 0.515625 1.000000
vt 0.437500 0.958333
vt 0.130208 0.145833
vt 0.125000 0.145833
vt 0.062500 0.145833
vt 0.067708 0.145833
vt 0.968750 0.145833
vt 0.880208 0.145833
vt 0.156250 0.145833
vt 0.453125 1.000000
vt 0.375000 0.562500
vt 0.375000 0.437500
vt 0.093750 0.145833
vt 0.437500 0.317708
vt 0.250000 0.562500
vt 0.250000 0.437500
vt 0.312500 0.437500
vt 0.312500 0.562500
vt 0.312500 0.251736
vt 0.312500 0.208333
vt 0.312500 0.812500
vt 0.312500 0.687500
vt 0.375000 0.687500
vt 0.375000 0.812500
vt 0.375000 0.958333
vt 0.312500 0.166667
vt 0.312500 0.145833
vt 0.255208 0.145833
vt 0.250000 0.145833
vt 0.182292 0.145833
vt 0.192708 0.145833
vt 0.250000 0.251736
vt 0.187500 0.251736
vt 0.187500 0.208333
vt 0.250000 0.208333
vt 0.390625 1.000000
vt 0.250000 0.166667
vt 0.375000 0.317708
vt 0.255208 0.145833
vt 0.187500 0.166667
vt 0.187500 0.145833
vt 0.312500 0.958333
vt 0.125000 0.208333
vt 0.218750 0.145833
vt 0.328125 1.000000
vt 0.317708 0.145833
vt 0.250000 0.958333
vt 0.250000 0.812500
vt 0.265625 1.000000
vt 0.250000 0.317708
vt 0.312500 0.317708
vt 0.062500 0.208333
vt 0.250000 0.687500
vt 0.281250 0.145833
vt 0.125000 0.166667
vt 0.406250 0.145833
vt 0.380208 0.145833
vt 0.187500 0.437500
vt 0.187500 0.317708
vt 0.375000 0.145833
vt 0.062500 0.166667
vt 1.000000 0.251736
vt 1.000000 0.208333
vt 1.000000 0.166667
vt 1.000000 0.145833
vt 0.468750 0.145833
vt 0.442708 0.145833
vt 0.812500 0.437500
vt 0.812500 0.317708
vt 0.875000 0.317708
vt 0.875000 0.437500
vt 0.125000 0.437500
vt 0.062500 0.437500
vt 0.000000 0.251736
vt 0.937500 0.251736
vt 0.937500 0.208333
vt 0.000000 0.208333
vt 0.062500 0.958333
vt 0.062500 0.812500
vt 0.125000 0.812500
vt 0.125000 0.958333
vt 1.000000 0.437500
vt 1.000000 0.317708
vt 0.505208 0.145833
vt 0.567708 0.145833
vt 0.562500 0.145833
vt 0.437500 0.145833
vt 0.875000 0.251736
vt 0.875000 0.208333
vt 0.843750 0.145833
vt 0.817708 0.145833
vt 0.062500 0.687500
vt 0.062500 0.562500
vt 0.125000 0.562500
vt 0.125000 0.687500
vt 0.937500 0.166667
vt 0.875000 0.166667
vt 0.880208 0.145833
vt 0.531250 0.145833
vt 0.000000 0.166667
vt 0.937500 0.562500
vt 0.937500 0.437500
vt 0.000000 0.437500
vt 0.000000 0.562500
vt 0.812500 0.251736
vt 1.000000 0.687500
vt 1.000000 0.562500
vt 0.937500 0.958333
vt 0.937500 0.812500
vt 0.000000 0.812500
vt 0.002604 0.937500
vt 0.015625 1.000000
vt 0.997396 0.937500
vt 0.812500 0.145833
vt 0.000000 0.317708
vt 0.937500 0.317708
vt 0.937500 0.687500
vt 0.000000 0.687500
vt 0.630208 0.145833
vt 0.625000 0.145833
vt 0.875000 0.687500
vt 0.875000 0.812500
vt 0.875000 0.958333
vt 0.953126 1.000000
vt 0.656250 0.145833
vt 0.807292 0.145833
vt 0.625000 0.812500
vt 0.875000 0.562500
vt 0.593750 0.145833
vt 0.890625 1.000000
vt 0.718750 0.145833
vt 0.750000 0.317708
vt 0.812500 0.562500
vt 0.828125 1.000000
vt 0.812500 0.958333
vt 0.781250 0.145833
vt 0.640625 1.000000
vt 1.000000 0.812500
vt 0.187500 0.687500
vt 0.187500 0.812500
vt 0.187500 0.958333
vt 0.187500 0.562500
vt 0.109375 1.000000
vt 0.343750 0.145833
vt 0.078125 1.000000
vt 0.203125 1.000000
vt 0.734375 1.000000
vt 0.875000 0.145833
vt 0.937500 0.145833
vt 0.906250 0.145833
vn 0.0000 0.1895 -0.9819
vn 0.0000 0.5424 -0.8401
vn 0.3215 0.5424 -0.7761
vn 0.3757 0.1895 -0.9071
vn -0.3215 0.5424 -0.7761
vn -0.2205 0.8173 -0.5323
vn 0.0000 0.8173 -0.5762
vn 0.0000 -0.1832 -0.9831
vn 0.3762 -0.1832 -0.9082
vn 0.0000 0.9620 -0.2728
vn 0.1044 0.9620 -0.2521
vn 0.2205 0.8173 -0.5323
vn 0.6943 0.1895 -0.6943
vn 0.6951 -0.1832 -0.6951
vn 0.6482 -0.3994 -0.6482
vn 0.8470 -0.3994 -0.3508
vn 0.8932 -0.2556 -0.3699
vn 0.6836 -0.2556 -0.6836
vn 0.6438 -0.4134 -0.6438
vn 0.3484 -0.4134 -0.8412
vn -0.4164 -0.9092 0.0000
vn -0.9195 -0.3931 0.0000
vn -0.8495 -0.3931 -0.3518
vn -0.3847 -0.9092 -0.1593
vn -0.8470 -0.3994 0.3508
vn -0.6482 -0.3994 0.6482
vn -0.6438 -0.4134 0.6438
vn -0.8412 -0.4134 0.3484
vn 0.0000 -0.2556 -0.9668
vn 0.0000 -0.1132 -0.9936
vn -0.3802 -0.1132 -0.9179
vn -0.3699 -0.2556 -0.8932
vn 0.3508 -0.3994 -0.8470
vn 0.9168 -0.3994 0.0000
vn 0.8470 -0.3994 0.3508
vn 0.8932 -0.2556 0.3699
vn 0.9668 -0.2556 0.0000
vn 0.0000 -0.3994 -0.9168
vn 0.3699 -0.2556 -0.8932
vn 0.3802 -0.1132 -0.9179
vn 0.0000 1.0000 0.0000
vn 0.3518 -0.3931 -0.8495
vn 0.1593 -0.9092 -0.3847
vn 0.0000 -0.9092 -0.4164
vn 0.0000 -0.3931 -0.9195
vn 0.9179 -0.1132 -0.3802
vn 0.7025 -0.1132 -0.7025
vn 0.9071 0.1895 -0.3757
vn 0.7761 0.5424 -0.3215
vn 0.8401 0.5424 0.0000
vn 0.9819 0.1895 0.0000
vn 0.9195 -0.3931 0.0000
vn 0.9936 -0.1132 0.0000
vn 0.9179 -0.1132 0.3802
vn 0.8495 -0.3931 0.3518
vn 0.6482 -0.3994 0.6482
vn 0.6836 -0.2556 0.6836
vn 0.7761 0.5424 0.3215
vn 0.9071 0.1895 0.3757
vn 0.5940 0.5424 -0.5940
vn 0.9082 -0.1832 -0.3762
vn 0.8412 -0.4134 -0.3484
vn 0.2521 0.9620 -0.1044
vn 0.1929 0.9620 -0.1929
vn 0.9831 -0.1832 0.0000
vn 0.9105 -0.4134 0.0000
vn 0.7025 -0.1132 0.7025
vn 0.6502 -0.3931 0.6502
vn 0.5323 0.8173 0.2205
vn 0.5762 0.8173 0.0000
vn 0.2728 0.9620 0.0000
vn 0.5323 0.8173 -0.2205
vn 0.9082 -0.1832 0.3762
vn 0.0000 -1.0000 0.0000
vn 0.2521 0.9620 0.1044
vn -0.2944 -0.9092 0.2944
vn -0.6502 -0.3931 0.6502
vn -0.8495 -0.3931 0.3518
vn -0.3847 -0.9092 0.1593
vn -0.2944 -0.9092 -0.2944
vn 0.6943 0.1895 0.6943
vn 0.6951 -0.1832 0.6951
vn 0.8412 -0.4134 0.3484
vn 0.0000 0.1895 0.9819
vn 0.0000 -0.1832 0.9831
vn 0.3762 -0.1832 0.9082
vn 0.3757 0.1895 0.9071
vn 0.3508 -0.3994 0.8470
vn 0.3699 -0.2556 0.8932
vn 0.2205 0.8173 0.5323
vn 0.3215 0.5424 0.7761
vn 0.5940 0.5424 0.5940
vn 0.4074 0.8173 0.4074
vn 0.1929 0.9620 0.1929
vn 0.3802 -0.1132 0.9179
vn 0.3518 -0.3931 0.8495
vn 0.0000 -0.9092 0.4164
vn 0.0000 -0.3931 0.9195
vn -0.3518 -0.3931 0.8495
vn -0.1593 -0.9092 0.3847
vn 0.0000 -0.3994 0.9168
vn -0.3508 -0.3994 0.8470
vn -0.3699 -0.2556 0.8932
vn 0.0000 -0.2556 0.9668
vn 0.0000 -0.1132 0.9936
vn 0.6438 -0.4134 0.6438
vn -0.3802 -0.1132 0.9179
vn 0.1044 0.9620 0.2521
vn -0.6836 -0.2556 0.6836
vn 0.1593 -0.9092 0.3847
vn 0.0000 0.9620 0.2728
vn 0.0000 0.8173 0.5762
vn 0.0000 -0.4134 0.9105
vn 0.3484 -0.4134 0.8412
vn -0.8932 -0.2556 0.3699
vn 0.0000 0.5424 0.8401
vn -0.7025 -0.1132 0.7025
vn 0.2944 -0.9092 0.2944
vn -0.3762 -0.1832 0.9082
vn -0.3484 -0.4134 0.8412
vn -0.9179 -0.1132 0.3802
vn -0.9168 -0.3994 0.0000
vn -0.9668 -0.2556 0.0000
vn -0.9936 -0.1132 0.0000
vn 0.3847 -0.9092 0.1593
vn -0.3762 -0.1832 -0.9082
vn -0.3484 -0.4134 -0.8412
vn -0.6438 -0.4134 -0.6438
vn -0.6951 -0.1832 -0.6951
vn -0.6951 -0.1832 0.6951
vn -0.9082 -0.1832 0.3762
vn -0.8470 -0.3994 -0.3508
vn -0.8932 -0.2556 -0.3699
vn -0.2521 0.9620 0.1044
vn -0.5323 0.8173 0.2205
vn -0.4074 0.8173 0.4074
vn -0.1929 0.9620 0.1929
vn -0.9831 -0.1832 0.0000
vn -0.9105 -0.4134 0.0000
vn 0.4164 -0.9092 0.0000
vn 0.3847 -0.9092 -0.1593
vn 0.8495 -0.3931 -0.3518
vn -0.6482 -0.3994 -0.6482
vn -0.6836 -0.2556 -0.6836
vn -0.1593 -0.9092 -0.3847
vn -0.7761 0.5424 0.3215
vn -0.9071 0.1895 0.3757
vn -0.6943 0.1895 0.6943
vn -0.5940 0.5424 0.5940
vn -0.9179 -0.1132 -0.3802
vn -0.7025 -0.1132 -0.7025
vn -0.6502 -0.3931 -0.6502
vn -0.9071 0.1895 -0.3757
vn -0.9082 -0.1832 -0.3762
vn -0.9819 0.1895 0.0000
vn -0.3508 -0.3994 -0.8470
vn -0.8401 0.5424 0.0000
vn -0.2521 0.9620 -0.1044
vn -0.5323 0.8173 -0.2205
vn -0.5762 0.8173 0.0000
vn -0.2728 0.9620 0.0000
vn -0.3518 -0.3931 -0.8495
vn -0.8412 -0.4134 -0.3484
vn -0.7761 0.5424 -0.3215
vn 0.2944 -0.9092 -0.2944
vn 0.6502 -0.3931 -0.6502
vn -0.5940 0.5424 -0.5940
vn -0.4074 0.8173 -0.4074
vn -0.1929 0.9620 -0.1929
vn 0.4074 0.8173 -0.4074
vn -0.6943 0.1895 -0.6943
vn 0.0000 -0.4134 -0.9105
vn -0.3757 0.1895 -0.9071
vn -0.1044 0.9620 -0.2521
vn -0.3215 0.5424 0.7761
vn -0.2205 0.8173 0.5323
vn -0.1044 0.9620 0.2521
vn -0.3757 0.1895 0.9071
usemtl None
s 1
f 4/1/1 3/2/2 8/3/3 9/4/4
f 107/5/5 106/6/6 2/7/7 3/2/2
f 5/8/8 4/1/1 9/4/4 10/9/9
f 2/7/7 1/10/10 6/11/11 7/12/12
f 16/13/13 17/14/14 10/9/9 9/4/4
f 19/15/15 26/16/16 116/17/17 115/18/18
f 17/14/14 18/19/19 11/20/20 10/9/9
f 166/21/21 152/22/22 155/23/23 165/24/24
f 3/2/2 2/7/7 7/12/12 8/3/3
f 83/25/25 76/26/26 75/27/27 82/28/28
f 129/29/29 145/30/30 144/31/31 128/32/32
f 19/15/15 12/33/33 11/20/20 18/19/19
f 33/34/34 40/35/35 118/36/36 117/37/37
f 113/38/38 12/33/33 114/39/39 129/29/29
f 145/30/30 129/29/29 114/39/39 130/40/40
f 69/41/41 6/11/11 1/10/10
f 147/42/42 177/43/43 162/44/44 158/45/45
f 116/17/17 132/46/46 131/47/47 115/18/18
f 23/48/48 22/49/49 29/50/50 30/51/51
f 160/52/52 133/53/53 134/54/54 150/55/55
f 40/35/35 47/56/56 119/57/57 118/36/36
f 36/58/58 37/59/59 30/51/51 29/50/50
f 16/13/13 15/60/60 22/49/49 23/48/48
f 117/37/37 133/53/53 132/46/46 116/17/17
f 24/61/61 25/62/62 18/19/19 17/14/14
f 69/63/41 20/64/63 13/65/64
f 31/66/65 32/67/66 25/62/62 24/61/61
f 150/55/55 134/54/54 135/68/67 154/69/68
f 35/70/69 36/58/58 29/50/50 28/71/70
f 27/72/71 28/71/70 21/73/72 20/64/63
f 37/59/59 38/74/73 31/66/65 30/51/51
f 118/36/36 134/54/54 133/53/53 117/37/37
f 178/75/74 166/21/21 165/24/24
f 69/76/41 27/72/71 20/64/63
f 34/77/75 35/70/69 28/71/70 27/72/71
f 168/78/76 157/79/77 146/80/78 167/81/79
f 178/82/74 165/24/24 164/83/80
f 167/81/79 178/84/74 168/78/76
f 69/85/41 34/77/75 27/72/71
f 44/86/81 45/87/82 38/74/73 37/59/59
f 178/88/74 167/81/79 166/21/21
f 32/67/66 39/89/83 40/35/35 33/34/34
f 58/90/84 59/91/85 52/92/86 51/93/87
f 119/57/57 135/68/67 134/54/54 118/36/36
f 45/87/82 44/86/81 51/93/87 52/92/86
f 47/56/56 54/94/88 120/95/89 119/57/57
f 49/96/90 50/97/91 43/98/92 42/99/93
f 41/100/94 42/99/93 35/70/69 34/77/75
f 154/69/68 135/68/67 136/101/95 161/102/96
f 170/103/97 148/104/98 153/105/99 169/106/100
f 61/107/101 68/108/102 122/109/103 121/110/104
f 43/98/92 44/86/81 37/59/59 36/58/58
f 169/106/100 153/105/99 157/79/77 168/78/76
f 69/111/41 41/100/94 34/77/75
f 121/110/104 137/112/105 136/101/95 120/95/89
f 39/89/83 46/113/106 47/56/56 40/35/35
f 148/114/98 137/112/105 138/115/107 153/116/99
f 120/95/89 136/101/95 135/68/67 119/57/57
f 54/94/88 61/107/101 121/110/104 120/95/89
f 48/117/108 49/96/90 42/99/93 41/100/94
f 161/102/96 136/101/95 137/112/105 148/114/98
f 68/108/102 76/26/26 123/118/109 122/109/103
f 50/97/91 51/93/87 44/86/81 43/98/92
f 178/119/74 169/106/100 168/78/76
f 69/120/41 48/117/108 41/100/94
f 122/109/103 138/115/107 137/112/105 121/110/104
f 171/121/110 161/102/96 148/114/98 170/103/97
f 55/122/111 56/123/112 49/96/90 48/117/108
f 69/124/41 55/122/111 48/117/108
f 59/91/85 60/125/113 53/126/114 52/92/86
f 76/26/26 83/25/25 124/127/115 123/118/109
f 57/128/116 58/90/84 51/93/87 50/97/91
f 178/129/74 170/103/97 169/106/100
f 61/107/101 54/94/88 53/126/114 60/125/113
f 153/105/99 138/115/107 139/130/117 157/79/77
f 38/74/73 39/89/83 32/67/66 31/66/65
f 178/131/74 172/132/118 171/121/110
f 56/123/112 57/128/116 50/97/91 49/96/90
f 66/133/119 67/134/120 60/125/113 59/91/85
f 26/16/16 19/15/15 18/19/19 25/62/62
f 172/132/118 154/135/68 161/102/96 171/121/110
f 68/108/102 61/107/101 60/125/113 67/134/120
f 157/79/77 139/130/117 140/136/121 146/80/78
f 83/25/25 90/137/122 125/138/123 124/127/115
f 146/80/78 140/136/121 141/139/124 152/140/22
f 178/141/74 173/142/125 172/132/118
f 109/143/126 110/144/127 103/145/128 102/146/129
f 123/118/109 139/130/117 138/115/107 122/109/103
f 75/27/27 74/147/130 81/148/131 82/28/28
f 173/142/125 150/55/55 154/69/68 172/132/118
f 90/149/122 97/150/132 126/151/133 125/152/123
f 124/127/115 140/136/121 139/130/117 123/118/109
f 77/153/134 78/154/135 71/155/136 70/156/137
f 88/157/138 89/158/139 82/28/28 81/148/131
f 160/52/52 174/159/140 175/160/141 156/161/142
f 174/159/140 160/52/52 150/162/55 173/142/125
f 97/150/132 104/163/143 127/164/144 126/151/133
f 178/165/74 163/166/145 162/44/44
f 79/167/146 80/168/147 73/169/148 72/170/149
f 155/23/23 142/171/150 143/172/151 159/173/152
f 80/168/147 81/148/131 74/147/130 73/169/148
f 178/174/74 174/159/140 173/142/125
f 90/137/122 83/25/25 82/28/28 89/158/139
f 152/22/22 141/175/124 142/171/150 155/23/23
f 125/138/123 141/139/124 140/136/121 124/127/115
f 94/176/153 95/177/154 88/178/138 87/179/155
f 104/163/143 111/180/156 128/32/32 127/164/144
f 86/181/157 87/182/155 80/168/147 79/167/146
f 91/183/158 92/184/159 85/185/160 84/186/161
f 69/187/41 84/188/161 77/153/134
f 126/151/133 142/171/150 141/175/124 125/152/123
f 159/173/152 143/172/151 144/31/31 149/189/162
f 97/150/132 90/149/122 89/190/139 96/191/163
f 15/60/60 16/13/13 9/4/4 8/3/3
f 93/192/164 94/176/153 87/179/155 86/193/157
f 176/194/165 151/195/166 156/161/142 175/160/141
f 106/6/6 107/5/5 100/196/167 99/197/168
f 98/198/169 99/197/168 92/184/159 91/183/158
f 69/199/41 91/183/158 84/186/161
f 127/164/144 143/172/151 142/171/150 126/151/133
f 178/200/74 176/194/165 175/160/141
f 149/201/162 144/31/31 145/30/30 158/45/45
f 104/163/143 97/150/132 96/191/163 103/145/128
f 13/65/64 14/202/170 7/12/12 6/11/11
f 100/196/167 101/203/171 94/176/153 93/192/164
f 178/204/74 175/160/141 174/159/140
f 69/205/41 98/198/169 91/183/158
f 178/206/74 177/43/43 176/194/165
f 128/32/32 144/31/31 143/172/151 127/164/144
f 113/38/38 111/180/156 110/144/127 112/207/172
f 108/208/173 109/143/126 102/146/129 101/203/171
f 111/180/156 104/163/143 103/145/128 110/144/127
f 107/5/5 108/208/173 101/203/171 100/196/167
f 69/209/41 105/210/174 98/198/169
f 26/16/16 33/34/34 117/37/37 116/17/17
f 178/211/74 162/44/44 177/43/43
f 69/212/41 13/65/64 6/11/11
f 111/180/156 113/38/38 129/29/29 128/32/32
f 5/8/8 112/207/172 110/144/127 109/143/126
f 21/73/72 22/49/49 15/60/60 14/202/170
f 147/42/42 130/40/40 131/47/47 151/195/166
f 12/33/33 113/38/38 112/207/172 11/20/20
f 76/26/26 68/108/102 67/134/120 75/27/27
f 12/33/33 19/15/15 115/18/18 114/39/39
f 14/202/170 15/60/60 8/3/3 7/12/12
f 105/210/174 106/6/6 99/197/168 98/198/169
f 79/167/146 78/154/135 85/213/160 86/181/157
f 84/188/161 85/213/160 78/154/135 77/153/134
f 87/182/155 88/157/138 81/148/131 80/168/147
f 71/155/136 72/170/149 64/214/175 63/215/176
f 167/81/79 146/80/78 152/140/22 166/21/21
f 56/123/112 55/122/111 62/216/177 63/215/176
f 63/215/176 64/214/175 57/128/116 56/123/112
f 42/99/93 43/98/92 36/58/58 35/70/69
f 28/71/70 29/50/50 22/49/49 21/73/72
f 20/64/63 21/73/72 14/202/170 13/65/64
f 30/51/51 31/66/65 24/61/61 23/48/48
f 109/143/126 108/208/173 4/1/1 5/8/8
f 11/20/20 112/207/172 5/8/8 10/9/9
f 63/215/176 62/216/177 70/156/137 71/155/136
f 65/217/178 66/133/119 59/91/85 58/90/84
f 62/216/177 69/218/41 70/156/137
f 163/166/145 149/201/162 158/45/45 162/44/44
f 101/203/171 102/146/129 95/177/154 94/176/153
f 45/87/82 46/113/106 39/89/83 38/74/73
f 102/146/129 103/145/128 96/191/163 95/177/154
f 86/193/157 85/185/160 92/184/159 93/192/164
f 95/177/154 96/191/163 89/190/139 88/178/138
f 178/219/74 171/121/110 170/103/97
f 69/220/41 77/153/134 70/156/137
f 73/169/148 74/147/130 66/133/119 65/217/178
f 78/154/135 79/167/146 72/170/149 71/155/136
f 72/170/149 73/169/148 65/217/178 64/214/175
f 67/134/120 66/133/119 74/147/130 75/27/27
f 64/214/175 65/217/178 58/90/84 57/128/116
f 69/221/41 62/216/177 55/122/111
f 99/197/168 100/196/167 93/192/164 92/184/159
f 52/92/86 53/126/114 46/113/106 45/87/82
f 69/222/41 1/10/10 105/210/174
f 151/195/166 131/47/47 132/46/46 156/161/142
f 33/34/34 26/16/16 25/62/62 32/67/66
f 23/48/48 24/61/61 17/14/14 16/13/13
f 54/94/88 47/56/56 46/113/106 53/126/114
f 106/6/6 105/210/174 1/10/10 2/7/7
f 177/43/43 147/42/42 151/195/166 176/194/165
f 108/208/173 107/5/5 3/2/2 4/1/1
f 164/83/80 159/223/152 149/201/162 163/166/145
f 115/18/18 131/47/47 130/40/40 114/39/39
f 158/45/45 145/30/30 130/40/40 147/42/42
f 159/173/152 164/83/80 165/24/24 155/224/23
f 156/161/142 132/46/46 133/53/53 160/52/52
f 178/225/74 164/83/80 163/166/145
