ply
format ascii 1.0
element vertex 570
property float x
property float y
property float z
property float nx
property float ny
property float nz
property uchar red
property uchar green
property uchar blue
property uchar alpha
element face 1137
property list uchar int vertex_indices
end_header
0.0227109994739294052 -0.0851679965853691101 0.0227109994739294052 0.705683410167694092 0.0710037276148796082 0.70496058464050293 0 0 0 255
0.0225019995123147964 -0.0925630033016204834 0.0225019995123147964 0.678671181201934814 -0.149112999439239502 0.719145774841308594 0 0 0 255
0.0294000003486871719 -0.0925630033016204834 0.0121780000627040863 0.900529980659484863 -0.126188293099403381 0.416079610586166382 0 0 0 255
0.0296730007976293564 -0.0851679965853691101 0.0122910002246499062 0.921737790107727051 0.0710083320736885071 0.381257593631744385 0 0 0 255
0.0216659996658563614 -0.0771389976143836975 0.0216659996658563614 0.680399715900421143 0.278515487909317017 0.677853524684906006 0 0 0 255
0.0318230018019676208 -0.0925630033016204834 0 0.986135303974151611 -0.163476899266242981 0.0285051409155130386 0 0 0 255
0.0283080004155635834 -0.0771389976143836975 0.0117260003462433815 0.888010323047637939 0.278499007225036621 0.365890800952911377 0 0 0 255
0.0199839994311332703 -0.0712229982018470764 0.0199839994311332703 0.682518422603607178 0.253649294376373291 0.685441970825195312 0 0 0 255
0.0321180000901222229 -0.0851679965853691101 0 0.997473478317260742 0.0710376277565956116 -0.000519164488650858402 0 0 0 255
0.0294000003486871719 -0.0925630033016204834 -0.0121780000627040863 0.931076526641845703 -0.126171603798866272 -0.3423117995262146 0 0 0 255
0.0261109992861747742 -0.0712229982018470764 0.0108150001615285873 0.892881691455841064 0.253651201725006104 0.372052907943725586 0 0 0 255
0.0194359999150037766 -0.0653069987893104553 0.0194359999150037766 0.706915497779846191 0.016124330461025238 0.707114219665527344 0 0 0 255
0.0306400004774332047 -0.0771389976143836975 0 0.960439801216125488 0.278481990098953247 -0.001794990967027843 0 0 0 255
0.0296730007976293564 -0.0851679965853691101 -0.0122910002246499062 0.921360015869140625 0.0709987133741378784 -0.382171392440795898 0 0 0 255
0.0225019995123147964 -0.0925630033016204834 -0.0225019995123147964 0.700584471225738525 -0.135508894920349121 -0.700584471225738525 0 0 0 255
0.0253940001130104065 -0.0653069987893104553 0.0105180004611611366 0.923726320266723633 0.0161625593900680542 0.382712185382843018 0 0 0 255
0.0201169997453689575 -0.0555210001766681671 0.0201169997453689575 0.703706920146942139 -0.0979091525077819824 0.703711807727813721 0 0 0 255
0.0282620005309581757 -0.0712229982018470764 0 0.967290818691253662 0.253661811351776123 0.00205604406073689461 0 0 0 255
0.0283080004155635834 -0.0771389976143836975 -0.0117260003462433815 0.886651813983917236 0.278479814529418945 -0.369185090065002441 0 0 0 255
0.0262839999049901962 -0.0555210001766681671 0.0108869997784495354 0.919446110725402832 -0.0979106873273849487 0.380831092596054077 0 0 0 255
0.0207969993352890015 -0.0457350015640258789 0.0207969993352890015 0.703720211982727051 -0.0978837832808494568 0.703702211380004883 0 0 0 255
0.0274860002100467682 -0.0653069987893104553 0 0.999869287014007568 0.0161700602620840073 0.000113568501546978951 0 0 0 255
0.0271729994565248489 -0.0457350015640258789 0.0112560000270605087 0.919430375099182129 -0.0979217663407325745 0.380866289138793945 0 0 0 255
0.0214779991656541824 -0.0359489992260932922 0.0214779991656541824 0.703709602355957031 -0.097945772111415863 0.703704118728637695 0 0 0 255
0.0227109994739294052 -0.0851679965853691101 -0.0227109994739294052 0.702973484992980957 0.107965603470802307 -0.702973484992980957 0 0 0 255
0.0261109992861747742 -0.0712229982018470764 -0.0108150001615285873 0.894436120986938477 0.253695487976074219 -0.368269890546798706 0 0 0 255
0.0284490007907152176 -0.0555210001766681671 0 0.995194971561431885 -0.0979125574231147766 -2.62792200373951346e-05 0 0 0 255
0.0280629992485046387 -0.0359489992260932922 0.0116240000352263451 0.919425606727600098 -0.0979529619216918945 0.380869686603546143 0 0 0 255
0.0221590008586645126 -0.026163000613451004 0.0221590008586645126 0.70512092113494873 -0.073224976658821106 0.705296099185943604 0 0 0 255
0.0216659996658563614 -0.0771389976143836975 -0.0216659996658563614 0.672155916690826416 0.310504496097564697 -0.672155916690826416 0 0 0 255
0.0253940001130104065 -0.0653069987893104553 -0.0105180004611611366 0.92380911111831665 0.0161657296121120453 -0.382512092590332031 0 0 0 255
0.0294119995087385178 -0.0457350015640258789 0 0.995192110538482666 -0.0979429185390472412 -8.56988299346994609e-06 0 0 0 255
0.0289530009031295776 -0.026163000613451004 0.0119930002838373184 0.921351075172424316 -0.0732071623206138611 0.381776094436645508 0 0 0 255
0.022420000284910202 -0.0185599997639656067 0.022420000284910202 0.752108514308929443 -0.024178139865398407 0.658595681190490723 0 0 0 255
0.0199839994311332703 -0.0712229982018470764 -0.0199839994311332703 0.690937519073486328 0.212628200650215149 -0.690937519073486328 0 0 0 255
0.0262829996645450592 -0.0555210001766681671 -0.0108869997784495354 0.91944962739944458 -0.097933351993560791 -0.380816996097564697 0 0 0 255
0.0303750000894069672 -0.0359489992260932922 0 0.995192110538482666 -0.0979427322745323181 -8.09135144663741812e-06 0 0 0 255
0.0194359999150037766 -0.0653069987893104553 -0.0194359999150037766 0.706933975219726562 -0.022105630487203598 -0.706933975219726562 0 0 0 255
0.0271729994565248489 -0.0457350015640258789 -0.0112560000270605087 0.919436812400817871 -0.0979290604591369629 -0.380848914384841919 0 0 0 255
0.0201169997453689575 -0.0555210001766681671 -0.0201169997453689575 0.703709423542022705 -0.0979096367955207825 -0.703709423542022705 0 0 0 255
0.0292930006980895996 -0.0185599997639656067 0.012133999727666378 0.946893513202667236 -0.0241523999720811844 0.32063901424407959 0 0 0 255
0.0313379988074302673 -0.026163000613451004 0 0.997316181659698486 -0.0732143968343734741 0.000123563499073497951 0 0 0 255
0.0280629992485046387 -0.0359489992260932922 -0.0116240000352263451 0.919430077075958252 -0.0979528725147247314 -0.380858898162841797 0 0 0 255
0.0207969993352890015 -0.0457350015640258789 -0.0207969993352890015 0.70371091365814209 -0.0978884920477867126 -0.70371091365814209 0 0 0 255
0.0292930006980895996 -0.00979200005531311035 0.012133999727666378 0.923872113227844238 0 0.382701486349105835 0 0 0 255
0.022420000284910202 -0.00979200005531311035 0.022420000284910202 0.707106828689575195 0 0.707106709480285645 0 0 0 255
0.0292930006980895996 -0.00102399999741464853 0.012133999727666378 0.923872113227844238 0 0.382701486349105835 0 0 0 255
0.022420000284910202 -0.00102399999741464853 0.022420000284910202 0.707106828689575195 0 0.707106709480285645 0 0 0 255
0.0292930006980895996 0.00774399982765316963 0.012133999727666378 0.923872113227844238 0 0.382701486349105835 0 0 0 255
0.022420000284910202 0.00774399982765316963 0.022420000284910202 0.707106828689575195 0 0.707106709480285645 0 0 0 255
0.0292930006980895996 0.0165119990706443787 0.012133999727666378 0.923872113227844238 0 0.382701486349105835 0 0 0 255
0.022420000284910202 0.0165119990706443787 0.022420000284910202 0.707106828689575195 0 0.707106709480285645 0 0 0 255
0.0292930006980895996 0.0252800006419420242 0.012133999727666378 0.923871994018554688 0 0.382701486349105835 0 0 0 255
0.022420000284910202 0.0252800006419420242 0.022420000284910202 0.707106828689575195 0 0.707106709480285645 0 0 0 255
0.0292930006980895996 0.0340490005910396576 0.012133999727666378 0.896287620067596436 0.0233187507838010788 0.442860007286071777 0 0 0 255
0.022420000284910202 0.0340490005910396576 0.022420000284910202 0.658597886562347412 0.0233186595141887665 0.752133607864379883 0 0 0 255
0.0221229996532201767 0.0430289991199970245 0.0221229996532201767 0.700020015239715576 0.147801592946052551 0.698660612106323242 0 0 0 255
0.0289050005376338959 0.0430289991199970245 0.011973000131547451 0.914101779460906982 0.147814303636550903 0.37758299708366394 0 0 0 255
0.0209870003163814545 0.0493250004947185516 0.0209870003163814545 0.672793984413146973 0.311842113733291626 0.67089688777923584 0 0 0 255
0.0317069999873638153 0.0340490005910396576 0 0.997537076473236084 0.0233529992401599884 0.0661386996507644653 0 0 0 255
0.0317069999873638153 0.0252800006419420242 0 1 0 -2.53219800683268659e-09 0 0 0 255
0.0317069999873638153 0.0165119990706443787 0 1 0 2.53219800683268659e-09 0 0 0 255
0.0317069999873638153 0.00774399982765316963 0 1 0 0 0 0 0 255
0.0274209994822740555 0.0493250004947185516 0.0113580003380775452 0.878332078456878662 0.311831504106521606 0.362344890832901001 0 0 0 255
0.0181670002639293671 0.0591860003769397736 0.0181670002639293671 0.630106985569000244 0.459116607904434204 0.626240372657775879 0 0 0 255
0.0312860012054443359 0.0430289991199970245 0 0.989016115665435791 0.147805094718933105 -0.000969752611126750708 0 0 0 255
0.0292930006980895996 0.0340490005910396576 -0.012133999727666378 0.946911871433258057 0.0233366396278142929 -0.320645004510879517 0 0 0 255
0.0292930006980895996 0.0252800006419420242 -0.012133999727666378 0.923872113227844238 0 -0.382701486349105835 0 0 0 255
0.0237360000610351562 0.0591860003769397736 0.00983200035989284515 0.821797490119934082 0.459119588136672974 0.33742859959602356 0 0 0 255
0.0148170003667473793 0.0665870010852813721 0.0148170003667473793 0.616783201694488525 0.485530495643615723 0.619547128677368164 0 0 0 255
0.0296800006181001663 0.0493250004947185516 0 0.950142621994018555 0.311812788248062134 -0.00133311201352626085 0 0 0 255
0.0289050005376338959 0.0430289991199970245 -0.011973000131547451 0.913373827934265137 0.14778369665145874 -0.37935250997543335 0 0 0 255
0.019359000027179718 0.0665870010852813721 0.00801900029182434082 0.806925773620605469 0.485531896352767944 0.336347401142120361 0 0 0 255
0.0106929996982216835 0.0788350030779838562 0.0106929996982216835 0.648949325084686279 0.394838809967041016 0.650359272956848145 0 0 0 255
0.0256919991225004196 0.0591860003769397736 0 0.888366103172302246 0.459127694368362427 -0.00273733003996312618 0 0 0 255
0.0139709999784827232 0.0788350030779838562 0.00578700006008148193 0.856033504009246826 0.399752885103225708 0.327725887298583984 0 0 0 255
0.00852700043469667435 0.086796000599861145 0.00852700043469667435 0.659922420978546143 0.359201788902282715 0.659906387329101562 0 0 0 255
0.0292930006980895996 0.0165119990706443787 -0.012133999727666378 0.923872113227844238 0 -0.382701486349105835 0 0 0 255
0.022420000284910202 0.0340490005910396576 -0.022420000284910202 0.70691370964050293 0.0233708098530769348 -0.70691370964050293 0 0 0 255
0.0274209994822740555 0.0493250004947185516 -0.0113580003380775452 0.877293586730957031 0.311843186616897583 -0.364842087030410767 0 0 0 255
0.0209539998322725296 0.0665870010852813721 0 0.878208518028259277 0.4774932861328125 0.0273853093385696411 0 0 0 255
0.0111400000751018524 0.086796000599861145 0.00461499998345971107 0.862220704555511475 0.359216809272766113 0.357125699520111084 0 0 0 255
0.00635999999940395355 0.094755999743938446 0.00635999999940395355 0.689192116260528564 0.214596793055534363 0.692071199417114258 0 0 0 255
0.022420000284910202 0.0252800006419420242 -0.022420000284910202 0.707106828689575195 0 -0.707106709480285645 0 0 0 255
0.022420000284910202 0.0165119990706443787 -0.022420000284910202 0.707106828689575195 0 -0.707106709480285645 0 0 0 255
0.0292930006980895996 0.00774399982765316963 -0.012133999727666378 0.923872113227844238 0 -0.382701486349105835 0 0 0 255
0.022420000284910202 0.00774399982765316963 -0.022420000284910202 0.707106828689575195 0 -0.707106709480285645 0 0 0 255
0.0292930006980895996 -0.00102399999741464853 -0.012133999727666378 0.923872113227844238 0 -0.382701486349105835 0 0 0 255
0.022420000284910202 -0.00102399999741464853 -0.022420000284910202 0.707106828689575195 0 -0.707106709480285645 0 0 0 255
0.0317069999873638153 -0.00102399999741464853 0 1 0 0 0 0 0 255
0.0317069999873638153 -0.00979200005531311035 0 1 0 0 0 0 0 255
0.0292930006980895996 -0.00979200005531311035 -0.012133999727666378 0.923872113227844238 0 -0.382701486349105835 0 0 0 255
0.022420000284910202 -0.00979200005531311035 -0.022420000284910202 0.707106828689575195 0 -0.707106709480285645 0 0 0 255
0.0317069999873638153 -0.0185599997639656067 0 0.997517704963684082 -0.0241721998900175095 -0.0661376863718032837 0 0 0 255
0.0292930006980895996 -0.0185599997639656067 -0.012133999727666378 0.896263182163238525 -0.0241548102349042892 -0.442864388227462769 0 0 0 255
0.022420000284910202 -0.0185599997639656067 -0.022420000284910202 0.706898689270019531 -0.0242530200630426407 -0.706898808479309082 0 0 0 255
0.0221590008586645126 -0.026163000613451004 -0.0221590008586645126 0.705613791942596436 -0.0649492517113685608 -0.705613672733306885 0 0 0 255
0.0289530009031295776 -0.026163000613451004 -0.0119930002838373184 0.921434104442596436 -0.0732062831521034241 -0.381575912237167358 0 0 0 255
0.0214779991656541824 -0.0359489992260932922 -0.0214779991656541824 0.703706204891204834 -0.0979553163051605225 -0.703706204891204834 0 0 0 255
0.0119930002838373184 -0.026163000613451004 -0.0289530009031295776 0.381575912237167358 -0.0732062831521034241 -0.921434104442596436 0 0 0 255
0.0116240000352263451 -0.0359489992260932922 -0.0280629992485046387 0.380858898162841797 -0.0979528725147247314 -0.919430077075958252 0 0 0 255
0.0112560000270605087 -0.0457350015640258789 -0.0271729994565248489 0.380849003791809082 -0.0979290828108787537 -0.919436812400817871 0 0 0 255
0.0108869997784495354 -0.0555210001766681671 -0.0262829996645450592 0.380816996097564697 -0.097933351993560791 -0.91944962739944458 0 0 0 255
0.0105180004611611366 -0.0653069987893104553 -0.0253940001130104065 0.382512092590332031 0.0161657407879829407 -0.92380911111831665 0 0 0 255
0.0108150001615285873 -0.0712229982018470764 -0.0261109992861747742 0.368269890546798706 0.253695487976074219 -0.894436120986938477 0 0 0 255
0.0117260003462433815 -0.0771389976143836975 -0.0283080004155635834 0.369185090065002441 0.278479814529418945 -0.886651813983917236 0 0 0 255
0.0122910002246499062 -0.0851679965853691101 -0.0296730007976293564 0.382171303033828735 0.0709986984729766846 -0.9213600754737854 0 0 0 255
0 -0.0359489992260932922 -0.0303750000894069672 8.09894663689192384e-06 -0.0979427322745323181 -0.995192110538482666 0 0 0 255
0 -0.0457350015640258789 -0.0294119995087385178 8.56481983646517619e-06 -0.0979429110884666443 -0.995192110538482666 0 0 0 255
0 -0.0555210001766681671 -0.0284490007907152176 -2.70895293397188652e-06 -0.0979299396276473999 -0.995193421840667725 0 0 0 255
0 -0.0653069987893104553 -0.0274860002100467682 -0.000128646002849563956 0.0161872599273920059 -0.999868988990783691 0 0 0 255
0 -0.0712229982018470764 -0.0282620005309581757 -0.00205603893846273422 0.253661811351776123 -0.967290818691253662 0 0 0 255
0 -0.0771389976143836975 -0.0306400004774332047 0.00179499294608831406 0.278481990098953247 -0.960439801216125488 0 0 0 255
0 -0.026163000613451004 -0.0313379988074302673 -0.000123563499073497951 -0.0732143968343734741 -0.997316181659698486 0 0 0 255
-0.0116240000352263451 -0.0359489992260932922 -0.0280629992485046387 -0.380869805812835693 -0.0979529619216918945 -0.919425606727600098 0 0 0 255
-0.0112560000270605087 -0.0457350015640258789 -0.0271729994565248489 -0.380878686904907227 -0.0979527831077575684 -0.919421911239624023 0 0 0 255
-0.0108869997784495354 -0.0555210001766681671 -0.0262829996645450592 -0.380835294723510742 -0.0979096218943595886 -0.919444501399993896 0 0 0 255
-0.0105180004611611366 -0.0653069987893104553 -0.0253940001130104065 -0.382700413465499878 0.0161934606730937958 -0.923730611801147461 0 0 0 255
-0.0108150001615285873 -0.0712229982018470764 -0.0261109992861747742 -0.372052907943725586 0.253651201725006104 -0.892881810665130615 0 0 0 255
-0.0119930002838373184 -0.026163000613451004 -0.0289530009031295776 -0.381776213645935059 -0.073207169771194458 -0.921351015567779541 0 0 0 255
-0.0214779991656541824 -0.0359489992260932922 -0.0214779991656541824 -0.703704118728637695 -0.097945772111415863 -0.703709602355957031 0 0 0 255
-0.0221590008586645126 -0.026163000613451004 -0.0221590008586645126 -0.705296218395233154 -0.073224976658821106 -0.70512092113494873 0 0 0 255
-0.0207969993352890015 -0.0457350015640258789 -0.0207969993352890015 -0.703692615032196045 -0.0978980064392089844 -0.70372772216796875 0 0 0 255
-0.0201169997453689575 -0.0555210001766681671 -0.0201169997453689575 -0.703694999217987061 -0.097895398736000061 -0.703725695610046387 0 0 0 255
-0.0194359999150037766 -0.0653069987893104553 -0.0194359999150037766 -0.707114279270172119 0.0161243192851543427 -0.706915497779846191 0 0 0 255
-0.0199839994311332703 -0.0712229982018470764 -0.0199839994311332703 -0.685441970825195312 0.253649294376373291 -0.682518482208251953 0 0 0 255
-0.022420000284910202 -0.0185599997639656067 -0.022420000284910202 -0.658595681190490723 -0.024178139865398407 -0.752108514308929443 0 0 0 255
-0.0117260003462433815 -0.0771389976143836975 -0.0283080004155635834 -0.365890800952911377 0.278499007225036621 -0.888010323047637939 0 0 0 255
-0.0216659996658563614 -0.0771389976143836975 -0.0216659996658563614 -0.677853524684906006 0.278515487909317017 -0.680399715900421143 0 0 0 255
-0.012133999727666378 -0.0185599997639656067 -0.0292930006980895996 -0.32063901424407959 -0.0241523999720811844 -0.946893513202667236 0 0 0 255
-0.0122910002246499062 -0.0851679965853691101 -0.0296730007976293564 -0.381257593631744385 0.0710083171725273132 -0.921737790107727051 0 0 0 255
-0.0227109994739294052 -0.0851679965853691101 -0.0227109994739294052 -0.70496058464050293 0.0710037276148796082 -0.705683410167694092 0 0 0 255
0 -0.0851679965853691101 -0.0321180000901222229 0.000519164488650858402 0.0710376277565956116 -0.997473478317260742 0 0 0 255
-0.0121780000627040863 -0.0925630033016204834 -0.0294000003486871719 -0.416079610586166382 -0.126188293099403381 -0.900529980659484863 0 0 0 255
-0.0225019995123147964 -0.0925630033016204834 -0.0225019995123147964 -0.719145715236663818 -0.149112999439239502 -0.678671300411224365 0 0 0 255
0 -0.0925630033016204834 -0.0318230018019676208 -0.0285051502287387848 -0.163476899266242981 -0.986135303974151611 0 0 0 255
0.0121780000627040863 -0.0925630033016204834 -0.0294000003486871719 0.3423117995262146 -0.126171603798866272 -0.931076526641845703 0 0 0 255
-0.0106450002640485764 -0.103771999478340149 -0.0268500000238418579 -0.332085907459259033 -0.339340806007385254 -0.880094826221466064 0 0 0 255
0.0106450002640485764 -0.103771999478340149 -0.0268500000238418579 0.332101285457611084 -0.339381814002990723 -0.880073070526123047 0 0 0 255
-0.0214220006018877029 -0.100074999034404755 -0.0214220006018877029 -0.632812798023223877 -0.446201711893081665 -0.632812798023223877 0 0 0 255
-0.0268500000238418579 -0.103771999478340149 -0.0106450002640485764 -0.880094826221466064 -0.339340806007385254 -0.332085907459259033 0 0 0 255
-0.0294000003486871719 -0.0925630033016204834 -0.0121780000627040863 -0.931076526641845703 -0.126171603798866272 -0.3423117995262146 0 0 0 255
-0.0318230018019676208 -0.0925630033016204834 0 -0.986135303974151611 -0.163476899266242981 0.0285051409155130386 0 0 0 255
0.0214220006018877029 -0.100074999034404755 -0.0214220006018877029 0.632806599140167236 -0.446217387914657593 -0.632807910442352295 0 0 0 255
0.0268500000238418579 -0.103771999478340149 -0.0106450002640485764 0.880094826221466064 -0.339340806007385254 -0.332085907459259033 0 0 0 255
-0.0287810005247592926 -0.103771999478340149 0 -0.944949626922607422 -0.327216207981109619 0 0 0 0 255
-0.0268500000238418579 -0.103771999478340149 0.0106450002640485764 -0.880094826221466064 -0.339340806007385254 0.332085788249969482 0 0 0 255
-0.0294000003486871719 -0.0925630033016204834 0.0121780000627040863 -0.900529980659484863 -0.126188293099403381 0.416079610586166382 0 0 0 255
-0.0225019995123147964 -0.0925630033016204834 0.0225019995123147964 -0.69713360071182251 -0.167360305786132812 0.697133719921112061 0 0 0 255
-0.0264010000973939896 -0.109375998377799988 0 -0.856833875179290771 -0.515592575073242188 0 0 0 0 255
-0.0248540006577968597 -0.109375998377799988 -0.00723400013521313667 -0.72037351131439209 -0.605349421501159668 -0.338546991348266602 0 0 0 255
-0.0248540006577968597 -0.109375998377799988 0.00723400013521313667 -0.72037351131439209 -0.605349421501159668 0.338546991348266602 0 0 0 255
-0.0214220006018877029 -0.100074999034404755 0.0214220006018877029 -0.632812798023223877 -0.446201711893081665 0.632812798023223877 0 0 0 255
-0.0202089995145797729 -0.115744002163410187 0 -0.530091702938079834 -0.847940385341644287 0 0 0 0 255
-0.0187819991260766983 -0.10561399906873703 -0.0187819991260766983 -0.486093610525131226 -0.726240992546081543 -0.486093610525131226 0 0 0 255
-0.0196599997580051422 -0.115744002163410187 -0.00467000016942620277 -0.190894901752471924 -0.928455114364624023 -0.318638414144515991 0 0 0 255
-0.00723400013521313667 -0.109375998377799988 -0.0248540006577968597 -0.338546991348266602 -0.605349421501159668 -0.720373570919036865 0 0 0 255
-0.0196599997580051422 -0.115744002163410187 0.00467000016942620277 -0.190894901752471924 -0.928455114364624023 0.318638414144515991 0 0 0 255
-0.0187819991260766983 -0.10561399906873703 0.0187819991260766983 -0.486093610525131226 -0.726241111755371094 0.486093610525131226 0 0 0 255
-0.0150490002706646919 -0.115744002163410187 0 0.211168393492698669 -0.977449715137481689 0 0 0 0 255
-0.0139250000938773155 -0.108492001891136169 -0.0139250000938773155 -0.191266104578971863 -0.962722480297088623 -0.191266104578971863 0 0 0 255
-0.00467000016942620277 -0.115744002163410187 -0.0196599997580051422 -0.318638414144515991 -0.928455114364624023 -0.190894901752471924 0 0 0 255
-0.0153329996392130852 -0.115744002163410187 -0.00304299988783895969 0.426662713289260864 -0.864816129207611084 -0.264673590660095215 0 0 0 255
-0.0153329996392130852 -0.115744002163410187 0.00304299988783895969 0.426662713289260864 -0.864816129207611084 0.264673590660095215 0 0 0 255
-0.0139250000938773155 -0.108492001891136169 0.0139250000938773155 -0.191266104578971863 -0.962722480297088623 0.191266104578971863 0 0 0 255
-0.0100060002878308296 -0.111914001405239105 0 0.471670389175415039 -0.881775021553039551 0 0 0 0 255
-0.00723400013521313667 -0.109375998377799988 0.0248540006577968597 -0.338546991348266602 -0.605349421501159668 0.72037351131439209 0 0 0 255
-0.00467000016942620277 -0.115744002163410187 0.0196599997580051422 -0.318638414144515991 -0.928455114364624023 0.190894901752471924 0 0 0 255
-0.0106450002640485764 -0.103771999478340149 0.0268500000238418579 -0.332085907459259033 -0.339340806007385254 0.880094826221466064 0 0 0 255
-0.0103820003569126129 -0.109205000102519989 -0.0103820003569126129 0.0132578499615192413 -0.999824225902557373 0.0132578397169709206 0 0 0 255
-0.0107969995588064194 -0.111607000231742859 -0.00367300002835690975 0.311558693647384644 -0.921602725982666016 -0.231472805142402649 0 0 0 255
-0.00304299988783895969 -0.115744002163410187 -0.0153329996392130852 -0.264673590660095215 -0.864816129207611084 0.426662713289260864 0 0 0 255
-0.0107969995588064194 -0.111607000231742859 0.00367300002835690975 0.311558693647384644 -0.921602725982666016 0.231472805142402649 0 0 0 255
-0.0103820003569126129 -0.109205000102519989 0.0103820003569126129 0.0132578499615192413 -0.999824225902557373 -0.0132578397169709206 0 0 0 255
-0.00565099995583295822 -0.111472003161907196 0 0.151178404688835144 -0.988506495952606201 0 0 0 0 255
-0.00304299988783895969 -0.115744002163410187 0.0153329996392130852 -0.264673590660095215 -0.864816129207611084 -0.426662713289260864 0 0 0 255
-0.00683799991384148598 -0.109918996691703796 -0.00683799991384148598 -0.0996722280979156494 -0.990015625953674316 -0.0996722206473350525 0 0 0 255
-0.00329499994404613972 -0.110632002353668213 -0.00329499994404613972 -0.0149894002825021744 -0.999775290489196777 -0.0149894002825021744 0 0 0 255
0 -0.110225997865200043 0 -1.91597204768356733e-09 -1 0 0 0 0 255
-0.00367300002835690975 -0.111607000231742859 -0.0107969995588064194 -0.231472894549369812 -0.921602725982666016 0.311558693647384644 0 0 0 255
-0.00329499994404613972 -0.110632002353668213 0.00329499994404613972 -0.0149894002825021744 -0.999775290489196777 0.0149894002825021744 0 0 0 255
-0.00683799991384148598 -0.109918996691703796 0.00683799991384148598 -0.0996722280979156494 -0.990015625953674316 0.0996722206473350525 0 0 0 255
-0.00367300002835690975 -0.111607000231742859 0.0107969995588064194 -0.231472894549369812 -0.921602725982666016 -0.311558693647384644 0 0 0 255
0 -0.111472003161907196 -0.00565099995583295822 2.50458698225486387e-09 -0.988506495952606201 0.151178404688835144 0 0 0 255
0 -0.111914001405239105 -0.0100060002878308296 0 -0.881775021553039551 0.471670389175415039 0 0 0 255
0 -0.111472003161907196 0.00565099995583295822 0 -0.988506495952606201 -0.151178404688835144 0 0 0 255
0 -0.111914001405239105 0.0100060002878308296 0 -0.881775021553039551 -0.471670389175415039 0 0 0 255
0 -0.115744002163410187 -0.0150490002706646919 0 -0.977449715137481689 0.211168393492698669 0 0 0 255
0 -0.115744002163410187 0.0150490002706646919 0 -0.977449715137481689 -0.211168393492698669 0 0 0 255
0 -0.115744002163410187 -0.0202089995145797729 1.85871904250234365e-05 -0.847932517528533936 -0.530104279518127441 0 0 0 255
0 -0.115744002163410187 0.0202089995145797729 1.85871904250234365e-05 -0.847932517528533936 0.530104279518127441 0 0 0 255
0 -0.109375998377799988 -0.0264010000973939896 3.33570787915959954e-05 -0.515622913837432861 -0.856815695762634277 0 0 0 255
0 -0.109375998377799988 0.0264010000973939896 3.3359639928676188e-05 -0.515622913837432861 0.856815576553344727 0 0 0 255
0.00304299988783895969 -0.115744002163410187 -0.0153329996392130852 0.264673590660095215 -0.864816129207611084 0.426662713289260864 0 0 0 255
0.00467000016942620277 -0.115744002163410187 -0.0196599997580051422 0.318639993667602539 -0.928448975086212158 -0.190921902656555176 0 0 0 255
0.00723400013521313667 -0.109375998377799988 -0.0248530004173517227 0.338563114404678345 -0.605362772941589355 -0.720354795455932617 0 0 0 255
0.00367300002835690975 -0.111607000231742859 -0.0107969995588064194 0.231472805142402649 -0.921602725982666016 0.311558693647384644 0 0 0 255
0.00329499994404613972 -0.110632002353668213 -0.00329499994404613972 0.0149894002825021744 -0.999775290489196777 -0.0149894002825021744 0 0 0 255
0 -0.103771999478340149 -0.0287810005247592926 0 -0.327216088771820068 -0.944949626922607422 0 0 0 255
0.0187819991260766983 -0.10561399906873703 -0.0187819991260766983 0.48608320951461792 -0.726234912872314453 -0.486113190650939941 0 0 0 255
0.0139250000938773155 -0.108492001891136169 -0.0139250000938773155 0.191266104578971863 -0.962722480297088623 -0.191266104578971863 0 0 0 255
0.0248540006577968597 -0.109375998377799988 -0.00723400013521313667 0.72037351131439209 -0.605349421501159668 -0.338546991348266602 0 0 0 255
0.0103820003569126129 -0.109205000102519989 -0.0103820003569126129 -0.0132578397169709206 -0.999824225902557373 0.0132578499615192413 0 0 0 255
0.0196599997580051422 -0.115744002163410187 -0.00467000016942620277 0.190894901752471924 -0.928455114364624023 -0.318638414144515991 0 0 0 255
0.00683799991384148598 -0.109918996691703796 -0.00683799991384148598 0.0996722206473350525 -0.990015625953674316 -0.0996722280979156494 0 0 0 255
0.0153329996392130852 -0.115744002163410187 -0.00304299988783895969 -0.426662713289260864 -0.864816129207611084 -0.264673590660095215 0 0 0 255
0.0107969995588064194 -0.111607000231742859 -0.00367300002835690975 -0.311558693647384644 -0.921602725982666016 -0.231472894549369812 0 0 0 255
0.00565099995583295822 -0.111472003161907196 0 -0.151178404688835144 -0.988506495952606201 0 0 0 0 255
0.0100060002878308296 -0.111914001405239105 0 -0.471670389175415039 -0.881775021553039551 0 0 0 0 255
0.0150490002706646919 -0.115744002163410187 0 -0.211168393492698669 -0.977449715137481689 0 0 0 0 255
0.0202089995145797729 -0.115744002163410187 0 0.530091583728790283 -0.847940385341644287 0 0 0 0 255
0.00329499994404613972 -0.110632002353668213 0.00329499994404613972 0.0149894002825021744 -0.999775290489196777 0.0149894002825021744 0 0 0 255
0.0107969995588064194 -0.111607000231742859 0.00367300002835690975 -0.311558693647384644 -0.921602725982666016 0.231472894549369812 0 0 0 255
0.0153329996392130852 -0.115744002163410187 0.00304299988783895969 -0.426662713289260864 -0.864816129207611084 0.264673590660095215 0 0 0 255
0.00367300002835690975 -0.111607000231742859 0.0107969995588064194 0.231472805142402649 -0.921602725982666016 -0.311558693647384644 0 0 0 255
0.00683799991384148598 -0.109918996691703796 0.00683799991384148598 0.0996722280979156494 -0.990015625953674316 0.0996722206473350525 0 0 0 255
0.0103820003569126129 -0.109205000102519989 0.0103820003569126129 -0.0132578499615192413 -0.999824225902557373 -0.0132578499615192413 0 0 0 255
0.00304299988783895969 -0.115744002163410187 0.0153329996392130852 0.264673590660095215 -0.864816129207611084 -0.426662713289260864 0 0 0 255
0.0196599997580051422 -0.115744002163410187 0.00467000016942620277 0.190894901752471924 -0.928455114364624023 0.318638414144515991 0 0 0 255
0.0139250000938773155 -0.108492001891136169 0.0139250000938773155 0.191266104578971863 -0.962722480297088623 0.191266104578971863 0 0 0 255
0.00467000016942620277 -0.115744002163410187 0.0196599997580051422 0.318639904260635376 -0.928448975086212158 0.190921902656555176 0 0 0 255
0.0187819991260766983 -0.10561399906873703 0.0187819991260766983 0.48608320951461792 -0.726234912872314453 0.486113190650939941 0 0 0 255
0.00723400013521313667 -0.109375998377799988 0.0248530004173517227 0.338563114404678345 -0.60536271333694458 0.720354795455932617 0 0 0 255
0.0248540006577968597 -0.109375998377799988 0.00723400013521313667 0.72037351131439209 -0.605349421501159668 0.338546991348266602 0 0 0 255
0.0214220006018877029 -0.100074999034404755 0.0214220006018877029 0.632806599140167236 -0.446217507123947144 0.632807910442352295 0 0 0 255
0.0106450002640485764 -0.103771999478340149 0.0268500000238418579 0.332101285457611084 -0.339381903409957886 0.880073070526123047 0 0 0 255
0.0264010000973939896 -0.109375998377799988 0 0.856833875179290771 -0.515592694282531738 0 0 0 0 255
0.0268500000238418579 -0.103771999478340149 0.0106450002640485764 0.880094826221466064 -0.339340806007385254 0.332085907459259033 0 0 0 255
0.0287810005247592926 -0.103771999478340149 0 0.944949626922607422 -0.327216088771820068 0 0 0 0 255
0.0121780000627040863 -0.0925630033016204834 0.0294000003486871719 0.3423117995262146 -0.126171603798866272 0.931076526641845703 0 0 0 255
0 -0.103771999478340149 0.0287810005247592926 0 -0.327216088771820068 0.944949626922607422 0 0 0 255
0 -0.0925630033016204834 0.0318230018019676208 -0.0285051409155130386 -0.163476899266242981 0.986135303974151611 0 0 0 255
-0.0121780000627040863 -0.0925630033016204834 0.0294000003486871719 -0.416079610586166382 -0.126188293099403381 0.900529980659484863 0 0 0 255
-0.0227109994739294052 -0.0851679965853691101 0.0227109994739294052 -0.706699609756469727 0.0339364893734455109 0.706699371337890625 0 0 0 255
-0.0122910002246499062 -0.0851679965853691101 0.0296730007976293564 -0.381257593631744385 0.0710083320736885071 0.921737790107727051 0 0 0 255
-0.0296730007976293564 -0.0851679965853691101 0.0122910002246499062 -0.921737790107727051 0.0710083320736885071 0.381257593631744385 0 0 0 255
-0.0216659996658563614 -0.0771389976143836975 0.0216659996658563614 -0.685342609882354736 0.246192902326583862 0.685342729091644287 0 0 0 255
0 -0.0851679965853691101 0.0321180000901222229 0.00051916192751377821 0.0710376277565956116 0.997473478317260742 0 0 0 255
-0.0321180000901222229 -0.0851679965853691101 0 -0.997473478317260742 0.0710376277565956116 -0.00051916192751377821 0 0 0 255
-0.0283080004155635834 -0.0771389976143836975 0.0117260003462433815 -0.888010323047637939 0.278499007225036621 0.365890800952911377 0 0 0 255
-0.0117260003462433815 -0.0771389976143836975 0.0283080004155635834 -0.365890800952911377 0.278499007225036621 0.888010323047637939 0 0 0 255
0.0122910002246499062 -0.0851679965853691101 0.0296730007976293564 0.382171392440795898 0.0709987133741378784 0.921360015869140625 0 0 0 255
-0.0296730007976293564 -0.0851679965853691101 -0.0122910002246499062 -0.921360015869140625 0.0709987133741378784 -0.382171392440795898 0 0 0 255
0 -0.0771389976143836975 0.0306400004774332047 0.00179499294608831406 0.278481990098953247 0.960439801216125488 0 0 0 255
0.0117260003462433815 -0.0771389976143836975 0.0283080004155635834 0.369185090065002441 0.278479814529418945 0.886651813983917236 0 0 0 255
-0.0199839994311332703 -0.0712229982018470764 0.0199839994311332703 -0.675815582275390625 0.294188201427459717 0.675815582275390625 0 0 0 255
-0.0306400004774332047 -0.0771389976143836975 0 -0.960439801216125488 0.278481990098953247 -0.001794990967027843 0 0 0 255
-0.0283080004155635834 -0.0771389976143836975 -0.0117260003462433815 -0.886651813983917236 0.278479814529418945 -0.369185090065002441 0 0 0 255
-0.0108150001615285873 -0.0712229982018470764 0.0261109992861747742 -0.372052907943725586 0.253651201725006104 0.892881810665130615 0 0 0 255
0 -0.0712229982018470764 0.0282620005309581757 -0.00205603893846273422 0.253661811351776123 0.967290818691253662 0 0 0 255
0.0108150001615285873 -0.0712229982018470764 0.0261109992861747742 0.368269890546798706 0.253695487976074219 0.894436120986938477 0 0 0 255
-0.0261109992861747742 -0.0712229982018470764 0.0108150001615285873 -0.892881810665130615 0.253651201725006104 0.372052907943725586 0 0 0 255
-0.0282620005309581757 -0.0712229982018470764 0 -0.967290818691253662 0.253661811351776123 0.00205604103393852711 0 0 0 255
-0.0261109992861747742 -0.0712229982018470764 -0.0108150001615285873 -0.894436120986938477 0.253695487976074219 -0.368269890546798706 0 0 0 255
-0.0194359999150037766 -0.0653069987893104553 0.0194359999150037766 -0.706062495708465576 0.0543288104236125946 0.706062495708465576 0 0 0 255
-0.0105180004611611366 -0.0653069987893104553 0.0253940001130104065 -0.382700413465499878 0.0161934606730937958 0.923730611801147461 0 0 0 255
0.0105180004611611366 -0.0653069987893104553 0.0253940001130104065 0.382512092590332031 0.0161657296121120453 0.92380911111831665 0 0 0 255
0 -0.0653069987893104553 0.0274860002100467682 -0.000128653700812719762 0.0161872692406177521 0.999868988990783691 0 0 0 255
-0.0253940001130104065 -0.0653069987893104553 0.0105180004611611366 -0.923726320266723633 0.0161625593900680542 0.382712185382843018 0 0 0 255
-0.0253940001130104065 -0.0653069987893104553 -0.0105180004611611366 -0.92380911111831665 0.0161657296121120453 -0.382512092590332031 0 0 0 255
-0.0274860002100467682 -0.0653069987893104553 0 -0.999869287014007568 0.0161700602620840073 0.000113570997200440615 0 0 0 255
0.0108869997784495354 -0.0555210001766681671 0.0262829996645450592 0.380816906690597534 -0.097933351993560791 0.91944962739944458 0 0 0 255
0 -0.0555210001766681671 0.0284490007907152176 -2.71401700047135819e-06 -0.097929932177066803 0.995193421840667725 0 0 0 255
-0.0201169997453689575 -0.0555210001766681671 0.0201169997453689575 -0.703692615032196045 -0.0978949069976806641 0.703728199005126953 0 0 0 255
-0.0108869997784495354 -0.0555210001766681671 0.0262829996645450592 -0.380835205316543579 -0.0979096293449401855 0.919444501399993896 0 0 0 255
-0.0262839999049901962 -0.0555210001766681671 0.0108869997784495354 -0.919446170330047607 -0.0979106873273849487 0.380831092596054077 0 0 0 255
-0.0284490007907152176 -0.0555210001766681671 0 -0.995194971561431885 -0.0979125574231147766 -2.62792200373951346e-05 0 0 0 255
0.0112560000270605087 -0.0457350015640258789 0.0271729994565248489 0.380848914384841919 -0.0979290604591369629 0.919436812400817871 0 0 0 255
0 -0.0457350015640258789 0.0294119995087385178 8.56481983646517619e-06 -0.0979429110884666443 0.995192110538482666 0 0 0 255
-0.0207969993352890015 -0.0457350015640258789 0.0207969993352890015 -0.703701913356781006 -0.0978932976722717285 0.703719079494476318 0 0 0 255
-0.0112560000270605087 -0.0457350015640258789 0.0271729994565248489 -0.380878686904907227 -0.0979527831077575684 0.919421911239624023 0 0 0 255
0.0116240000352263451 -0.0359489992260932922 0.0280629992485046387 0.380858898162841797 -0.0979528725147247314 0.919430077075958252 0 0 0 255
-0.0271729994565248489 -0.0457350015640258789 0.0112560000270605087 -0.919430375099182129 -0.0979217588901519775 0.380866289138793945 0 0 0 255
0 -0.0359489992260932922 0.0303750000894069672 8.08882123237708583e-06 -0.097942739725112915 0.995192110538482666 0 0 0 255
-0.0214779991656541824 -0.0359489992260932922 0.0214779991656541824 -0.703707516193389893 -0.0979362428188323975 0.703707516193389893 0 0 0 255
-0.0116240000352263451 -0.0359489992260932922 0.0280629992485046387 -0.380869686603546143 -0.0979529470205307007 0.919425606727600098 0 0 0 255
0.0119930002838373184 -0.026163000613451004 0.0289530009031295776 0.381575912237167358 -0.0732062831521034241 0.921433985233306885 0 0 0 255
0 -0.026163000613451004 0.0313379988074302673 -0.000123560996144078672 -0.0732143968343734741 0.997316181659698486 0 0 0 255
-0.0119930002838373184 -0.026163000613451004 0.0289530009031295776 -0.381776094436645508 -0.073207169771194458 0.921351015567779541 0 0 0 255
-0.0221590008586645126 -0.026163000613451004 0.0221590008586645126 -0.704754829406738281 -0.0814952701330184937 0.704754829406738281 0 0 0 255
-0.0280629992485046387 -0.0359489992260932922 0.0116240000352263451 -0.919425606727600098 -0.0979529470205307007 0.380869686603546143 0 0 0 255
0.012133999727666378 -0.0185599997639656067 0.0292930006980895996 0.442864388227462769 -0.0241548102349042892 0.896263182163238525 0 0 0 255
0 -0.0185599997639656067 0.0317069999873638153 0.0661376863718032837 -0.0241721998900175095 0.997517704963684082 0 0 0 255
0.012133999727666378 -0.00979200005531311035 0.0292930006980895996 0.382701486349105835 0 0.923872113227844238 0 0 0 255
-0.012133999727666378 -0.0185599997639656067 0.0292930006980895996 -0.32063901424407959 -0.0241523999720811844 0.946893513202667236 0 0 0 255
0.012133999727666378 -0.00102399999741464853 0.0292930006980895996 0.382701486349105835 0 0.923872113227844238 0 0 0 255
0 -0.00979200005531311035 0.0317069999873638153 0 0 1 0 0 0 255
-0.022420000284910202 -0.0185599997639656067 0.022420000284910202 -0.706899404525756836 -0.0242202505469322205 0.706899285316467285 0 0 0 255
-0.012133999727666378 -0.00979200005531311035 0.0292930006980895996 -0.382701486349105835 0 0.923872113227844238 0 0 0 255
-0.022420000284910202 -0.00979200005531311035 0.022420000284910202 -0.707106709480285645 0 0.707106828689575195 0 0 0 255
0.012133999727666378 0.00774399982765316963 0.0292930006980895996 0.382701486349105835 0 0.923872113227844238 0 0 0 255
0 -0.00102399999741464853 0.0317069999873638153 0 0 1 0 0 0 255
-0.012133999727666378 -0.00102399999741464853 0.0292930006980895996 -0.382701486349105835 0 0.923872113227844238 0 0 0 255
-0.022420000284910202 -0.00102399999741464853 0.022420000284910202 -0.707106709480285645 0 0.707106828689575195 0 0 0 255
0.012133999727666378 0.0165119990706443787 0.0292930006980895996 0.382701486349105835 0 0.923872113227844238 0 0 0 255
0 0.00774399982765316963 0.0317069999873638153 0 0 1 0 0 0 255
-0.012133999727666378 0.00774399982765316963 0.0292930006980895996 -0.382701486349105835 0 0.923872113227844238 57 185 8 255
-0.022420000284910202 0.00774399982765316963 0.022420000284910202 -0.707106709480285645 0 0.707106828689575195 0 0 0 255
0.012133999727666378 0.0252800006419420242 0.0292930006980895996 0.382701486349105835 0 0.923871994018554688 0 0 0 255
0 0.0165119990706443787 0.0317069999873638153 2.53219800683268659e-09 0 1 0 0 0 255
-0.012133999727666378 0.0165119990706443787 0.0292930006980895996 -0.382701486349105835 0 0.923872113227844238 0 0 0 255
-0.022420000284910202 0.0165119990706443787 0.022420000284910202 -0.707106709480285645 0 0.707106828689575195 0 0 0 255
0 0.0252800006419420242 0.0317069999873638153 2.53219800683268659e-09 0 1 0 0 0 255
-0.012133999727666378 0.0252800006419420242 0.0292930006980895996 -0.382701486349105835 0 0.923871994018554688 0 0 0 255
-0.022420000284910202 0.0252800006419420242 0.022420000284910202 -0.707106709480285645 0 0.707106828689575195 0 0 0 255
0.012133999727666378 0.0340490005910396576 0.0292930006980895996 0.320644885301589966 0.0233366396278142929 0.946911871433258057 0 0 0 255
0 0.0340490005910396576 0.0317069999873638153 -0.0661387071013450623 0.0233529992401599884 0.997537195682525635 0 0 0 255
-0.012133999727666378 0.0340490005910396576 0.0292930006980895996 -0.442860007286071777 0.0233187507838010788 0.896287620067596436 0 0 0 255
-0.022420000284910202 0.0340490005910396576 0.022420000284910202 -0.70691382884979248 0.0233678705990314484 0.70691370964050293 0 0 0 255
0.011973000131547451 0.0430289991199970245 0.0289050005376338959 0.37935250997543335 0.147783607244491577 0.913373827934265137 0 0 0 255
0 0.0430289991199970245 0.0312860012054443359 0.000969744985923171043 0.147805094718933105 0.989016115665435791 0 0 0 255
-0.011973000131547451 0.0430289991199970245 0.0289050005376338959 -0.37758299708366394 0.147814199328422546 0.914101779460906982 0 0 0 255
0.0113580003380775452 0.0493250004947185516 0.0274209994822740555 0.364842206239700317 0.311843186616897583 0.877293586730957031 0 0 0 255
0 0.0493250004947185516 0.0296800006181001663 0.00133311201352626085 0.311812788248062134 0.950142621994018555 0 0 0 255
0.00983200035989284515 0.0591860003769397736 0.0237360000610351562 0.342496693134307861 0.459125906229019165 0.819694817066192627 0 0 0 255
-0.0221229996532201767 0.0430289991199970245 0.0221229996532201767 -0.702485620975494385 0.114140301942825317 0.702485620975494385 0 0 0 255
-0.0113580003380775452 0.0493250004947185516 0.0274209994822740555 -0.362344890832901001 0.311831414699554443 0.878332078456878662 0 0 0 255
0 0.0591860003769397736 0.0256919991225004196 0.00273733306676149368 0.459127694368362427 0.888366103172302246 0 0 0 255
0.00801900029182434082 0.0665870010852813721 0.019359000027179718 0.332751989364624023 0.485514402389526367 0.808425486087799072 0 0 0 255
-0.0292930006980895996 0.0340490005910396576 0.012133999727666378 -0.896287620067596436 0.0233187507838010788 0.442860007286071777 0 0 0 255
-0.0209870003163814545 0.0493250004947185516 0.0209870003163814545 -0.692382216453552246 0.30257868766784668 0.655021429061889648 0 0 0 255
-0.00983200035989284515 0.0591860003769397736 0.0237360000610351562 -0.33742859959602356 0.459119588136672974 0.821797490119934082 0 0 0 255
0 0.0665870010852813721 0.0209539998322725296 -0.00197423598729074001 0.485515207052230835 0.874225974082946777 0 0 0 255
0.00578700006008148193 0.0788350030779838562 0.0139709999784827232 0.350718885660171509 0.394878387451171875 0.84915691614151001 0 0 0 255
-0.0292930006980895996 0.0252800006419420242 0.012133999727666378 -0.923872113227844238 0 0.382701486349105835 0 0 0 255
-0.0181670002639293671 0.0591860003769397736 0.0181670002639293671 -0.607524394989013672 0.442245393991470337 0.659797906875610352 0 0 0 255
-0.00801900029182434082 0.0665870010852813721 0.019359000027179718 -0.336347401142120361 0.485531896352767944 0.806925773620605469 0 0 0 255
0 0.0788350030779838562 0.015123000368475914 -0.000977766001597046852 0.394883692264556885 0.918730676174163818 0 0 0 255
0.00461499998345971107 0.086796000599861145 0.0111400000751018524 0.357074707746505737 0.359175711870193481 0.862258970737457275 0 0 0 255
-0.0148170003667473793 0.0665870010852813721 0.0148170003667473793 -0.610873520374298096 0.503653883934020996 0.610873401165008545 0 0 0 255
-0.00578700006008148193 0.0788350030779838562 0.0139709999784827232 -0.352506786584854126 0.394834905862808228 0.848436474800109863 0 0 0 255
0 0.086796000599861145 0.0120580000802874565 5.14006387675181031e-05 0.359235703945159912 0.933246910572052002 0 0 0 255
0.00344199989922344685 0.094755999743938446 0.00831000041216611862 0.371771812438964844 0.21452079713344574 0.903198003768920898 0 0 0 255
-0.0237360000610351562 0.0591860003769397736 0.00983200035989284515 -0.79682767391204834 0.458328098058700562 0.393701791763305664 0 0 0 255
-0.0106929996982216835 0.0788350030779838562 0.0106929996982216835 -0.646017014980316162 0.406600892543792725 0.646017014980316162 0 0 0 255
-0.00461499998345971107 0.086796000599861145 0.0111400000751018524 -0.357125699520111084 0.359216809272766113 0.862220704555511475 0 0 0 255
0 0.094755999743938446 0.00899400003254413605 -0.00208169990219175816 0.214484706521034241 0.976725220680236816 0 0 0 255
0.0033440000843256712 0.0987029969692230225 0.0080739995464682579 0.320425897836685181 -0.690566420555114746 0.64841771125793457 0 0 0 255
0.00617899978533387184 0.0987029969692230225 0.00617899978533387184 0.544153928756713867 -0.690537512302398682 0.476502299308776855 0 0 0 255
-0.019359000027179718 0.0665870010852813721 0.00801900029182434082 -0.806925773620605469 0.485531896352767944 0.336347401142120361 0 0 0 255
-0.00852700043469667435 0.086796000599861145 0.00852700043469667435 -0.659914910793304443 0.359200090169906616 0.659914910793304443 0 0 0 255
-0.00344199989922344685 0.094755999743938446 0.00831000041216611862 -0.375693202018737793 0.214552000164985657 0.901566386222839355 0 0 0 255
0 0.0987029969692230225 0.00873900018632411957 0.0478033013641834259 -0.690602302551269531 0.721653223037719727 0 0 0 255
0.0045360000804066658 0.0987029969692230225 0.010950000025331974 0.233138605952262878 -0.686731815338134766 0.688509821891784668 0 0 0 255
0.00838099978864192963 0.0987029969692230225 0.00838099978864192963 0.478896111249923706 -0.686690270900726318 0.546913981437683105 0 0 0 255
-0.0139709999784827232 0.0788350030779838562 0.00578700006008148193 -0.848436415195465088 0.394834995269775391 0.352506786584854126 0 0 0 255
-0.00635999999940395355 0.094755999743938446 0.00635999999940395355 -0.682040691375732422 0.263895899057388306 0.682040691375732422 0 0 0 255
-0.0033440000843256712 0.0987029969692230225 0.0080739995464682579 -0.231943801045417786 -0.690599918365478516 0.685035586357116699 0 0 0 255
0 0.0987029969692230225 0.0118519999086856842 -0.0481117106974124908 -0.686764895915985107 0.725285708904266357 0 0 0 255
0.00444700010120868683 0.101765997707843781 0.0107359997928142548 0.382740586996078491 -0.0255930591374635696 0.923501312732696533 0 0 0 255
0.00821700040251016617 0.101765997707843781 0.00821700040251016617 0.70697861909866333 -0.0256246104836463928 0.706770718097686768 0 0 0 255
-0.0111400000751018524 0.086796000599861145 0.00461499998345971107 -0.862220704555511475 0.359216809272766113 0.357125699520111084 0 0 0 255
-0.00617899978533387184 0.0987029969692230225 0.00617899978533387184 -0.645786285400390625 -0.40733298659324646 0.645786285400390625 0 0 0 255
-0.0045360000804066658 0.0987029969692230225 0.010950000025331974 -0.321992397308349609 -0.686699092388153076 0.651740312576293945 0 0 0 255
0 0.101765997707843781 0.0116210002452135086 0.00014898000517860055 -0.0256801396608352661 0.999670207500457764 0 0 0 255
0.00480000022798776627 0.108997002243995667 0.0115870004519820213 0.382603287696838379 -0.00502246478572487831 0.92389911413192749 0 0 0 255
0.00886899977922439575 0.108997002243995667 0.00886899977922439575 0.707067787647247314 -0.00502127315849065781 0.707127988338470459 0 0 0 255
-0.00831000041216611862 0.094755999743938446 0.00344199989922344685 -0.901566505432128906 0.214552000164985657 0.375693202018737793 0 0 0 255
-0.00838099978864192963 0.0987029969692230225 0.00838099978864192963 -0.320180505514144897 -0.891610324382781982 0.320180505514144897 0 0 0 255
-0.00444700010120868683 0.101765997707843781 0.0107359997928142548 -0.382400214672088623 -0.0256693605333566666 0.923640191555023193 0 0 0 255
0 0.108997002243995667 0.0125420000404119492 -1.39122003020020202e-05 -0.00497700786218047142 0.999987602233886719 0 0 0 255
0.0045360000804066658 0.114878997206687927 0.010950000025331974 0.372508794069290161 0.249824002385139465 0.893770217895507812 0 0 0 255
0.00838099978864192963 0.114878997206687927 0.00838099978864192963 0.686208724975585938 0.250015288591384888 0.683088481426239014 0 0 0 255
-0.0080739995464682579 0.0987029969692230225 0.0033440000843256712 -0.685035586357116699 -0.690599918365478516 0.231943801045417786 0 0 0 255
-0.00821700040251016617 0.101765997707843781 0.00821700040251016617 -0.70708310604095459 0.00819019414484500885 0.70708310604095459 0 0 0 255
-0.00480000022798776627 0.108997002243995667 0.0115870004519820213 -0.382695496082305908 -0.00499599101021885872 0.923861026763916016 0 0 0 255
0 0.114878997206687927 0.0118519999086856842 0.00218688207678496838 0.249745398759841919 0.968309104442596436 0 0 0 255
0.00440400000661611557 0.11571899801492691 0.0106330001726746559 0.250514805316925049 0.819529712200164795 0.5153769850730896 0 0 0 255
0.00813800003379583359 0.11571899801492691 0.00813800003379583359 0.428640604019165039 0.81956779956817627 0.380231291055679321 0 0 0 255
-0.010950000025331974 0.0987029969692230225 0.0045360000804066658 -0.651740312576293945 -0.686699092388153076 0.321992397308349609 0 0 0 255
-0.00886899977922439575 0.108997002243995667 0.00886899977922439575 -0.706366002559661865 -0.0457607507705688477 0.706366121768951416 0 0 0 255
-0.0045360000804066658 0.114878997206687927 0.010950000025331974 -0.368499785661697388 0.249927505850791931 0.895401716232299805 0 0 0 255
0 0.11571899801492691 0.0115090003237128258 0.0342207998037338257 0.819417715072631836 0.572174489498138428 0 0 0 255
-0.0107359997928142548 0.101765997707843781 0.00444700010120868683 -0.923640191555023193 -0.0256693605333566666 0.382400214672088623 0 0 0 255
-0.00838099978864192963 0.114878997206687927 0.00838099978864192963 -0.691985189914703369 0.205701202154159546 0.691985189914703369 0 0 0 255
-0.00440400000661611557 0.11571899801492691 0.0106330001726746559 -0.187291696667671204 0.819467782974243164 0.541658997535705566 0 0 0 255
-0.0115870004519820213 0.108997002243995667 0.00480000022798776627 -0.923861026763916016 -0.00499599287286400795 0.382695496082305908 0 0 0 255
-0.00813800003379583359 0.11571899801492691 0.00813800003379583359 -0.456838697195053101 0.764614880084991455 0.454601585865020752 0 0 0 255
-0.010950000025331974 0.114878997206687927 0.0045360000804066658 -0.89540177583694458 0.249927401542663574 0.368499696254730225 0 0 0 255
0 0.116024002432823181 0.00498299999162554741 0.00185726303607225418 0.999605774879455566 0.0280160699039697647 0 0 0 255
-0.00190699996892362833 0.116024002432823181 0.00460299989208579063 -0.00900942645967006683 0.999605715274810791 0.0265946295112371445 0 0 0 255
0 0.116024002432823181 0 0 1 0 0 0 0 255
0.00190699996892362833 0.116024002432823181 0.00460299989208579063 0.0124411797150969505 0.999605774879455566 0.0251704808324575424 0 0 0 255
-0.00352300005033612251 0.116024002432823181 0.00352300005033612251 -0.0184970106929540634 0.999605774879455566 0.0211241096258163452 0 0 0 255
0.00352300005033612251 0.116024002432823181 0.00352300005033612251 0.0211241096258163452 0.999605774879455566 0.0184970106929540634 0 0 0 255
0.0106330001726746559 0.11571899801492691 0.00440400000661611557 0.541658997535705566 0.819467723369598389 0.187291696667671204 0 0 0 255
-0.00460299989208579063 0.116024002432823181 0.00190699996892362833 -0.0251704808324575424 0.999605774879455566 0.0124411797150969505 0 0 0 255
-0.0106330001726746559 0.11571899801492691 0.00440400000661611557 -0.543002188205718994 0.819357991218566895 0.183850795030593872 0 0 0 255
0.00460299989208579063 0.116024002432823181 0.00190699996892362833 0.0265946295112371445 0.999605715274810791 0.0090094245970249176 0 0 0 255
0.00498299999162554741 0.116024002432823181 0 0.0280160699039697647 0.999605774879455566 -0.00185726303607225418 0 0 0 255
-0.00498299999162554741 0.116024002432823181 0 -0.0280160699039697647 0.999605774879455566 0.00185726303607225418 0 0 0 255
0.0115090003237128258 0.11571899801492691 0 0.572174489498138428 0.819417715072631836 -0.0342207998037338257 0 0 0 255
-0.0118519999086856842 0.114878997206687927 0 -0.968309104442596436 0.249745398759841919 -0.00218688207678496838 0 0 0 255
-0.0115090003237128258 0.11571899801492691 0 -0.572098076343536377 0.819308102130889893 -0.0379226915538311005 0 0 0 255
-0.0125420000404119492 0.108997002243995667 0 -0.999987602233886719 -0.00497700599953532219 1.39198500619386323e-05 0 0 0 255
-0.00460299989208579063 0.116024002432823181 -0.00190699996892362833 -0.0265946295112371445 0.999605715274810791 -0.00900942645967006683 0 0 0 255
-0.0116210002452135086 0.101765997707843781 0 -0.999670207500457764 -0.0256801396608352661 -0.000148977400385774672 0 0 0 255
-0.0118519999086856842 0.0987029969692230225 0 -0.725285589694976807 -0.686764776706695557 0.0481117106974124908 0 0 0 255
-0.00873900018632411957 0.0987029969692230225 0 -0.721653223037719727 -0.690602302551269531 -0.0478033088147640228 0 0 0 255
-0.00899400003254413605 0.094755999743938446 0 -0.976725101470947266 0.214484706521034241 0.00208169501274824142 0 0 0 255
-0.0120580000802874565 0.086796000599861145 0 -0.933246910572052002 0.359235703945159912 -5.13981212861835957e-05 0 0 0 255
-0.015123000368475914 0.0788350030779838562 0 -0.918730616569519043 0.394883692264556885 0.000977763556875288486 0 0 0 255
-0.0209539998322725296 0.0665870010852813721 0 -0.874225974082946777 0.485515296459197998 0.00197423598729074001 0 0 0 255
-0.0256919991225004196 0.0591860003769397736 0 -0.886832475662231445 0.458335012197494507 0.0587961487472057343 0 0 0 255
-0.0274209994822740555 0.0493250004947185516 0.0113580003380775452 -0.900139212608337402 0.311213791370391846 0.304787606000900269 0 0 0 255
-0.0289050005376338959 0.0430289991199970245 0.011973000131547451 -0.914101779460906982 0.147814303636550903 0.37758299708366394 0 0 0 255
-0.0317069999873638153 0.0340490005910396576 0 -0.997537076473236084 0.0233529992401599884 0.0661386996507644653 0 0 0 255
-0.0312860012054443359 0.0430289991199970245 0 -0.989016115665435791 0.147805094718933105 -0.000969750224612653255 0 0 0 255
-0.0296800006181001663 0.0493250004947185516 0 -0.948263823986053467 0.311196208000183105 -0.0628699511289596558 0 0 0 255
-0.0237360000610351562 0.0591860003769397736 -0.00983200035989284515 -0.84183049201965332 0.45833200216293335 -0.285049498081207275 0 0 0 255
-0.019359000027179718 0.0665870010852813721 -0.00801900029182434082 -0.808425605297088623 0.485514402389526367 -0.332751989364624023 0 0 0 255
-0.0139709999784827232 0.0788350030779838562 -0.00578700006008148193 -0.84915691614151001 0.394878387451171875 -0.35071900486946106 0 0 0 255
-0.0111400000751018524 0.086796000599861145 -0.00461499998345971107 -0.8622589111328125 0.359175711870193481 -0.357074707746505737 0 0 0 255
-0.00831000041216611862 0.094755999743938446 -0.00344199989922344685 -0.903198003768920898 0.214520692825317383 -0.371771812438964844 0 0 0 255
-0.0080739995464682579 0.0987029969692230225 -0.0033440000843256712 -0.64841771125793457 -0.690566301345825195 -0.320425897836685181 0 0 0 255
-0.010950000025331974 0.0987029969692230225 -0.0045360000804066658 -0.688509881496429443 -0.686731815338134766 -0.233138695359230042 0 0 0 255
-0.0107359997928142548 0.101765997707843781 -0.00444700010120868683 -0.923501312732696533 -0.0255930591374635696 -0.382740586996078491 0 0 0 255
-0.0115870004519820213 0.108997002243995667 -0.00480000022798776627 -0.92389911413192749 -0.00502247316762804985 -0.382603287696838379 0 0 0 255
-0.010950000025331974 0.114878997206687927 -0.0045360000804066658 -0.893770217895507812 0.249824002385139465 -0.372508794069290161 0 0 0 255
-0.0106330001726746559 0.11571899801492691 -0.00440400000661611557 -0.513893008232116699 0.819420814514160156 -0.253897011280059814 0 0 0 255
-0.00352300005033612251 0.116024002432823181 -0.00352300005033612251 -0.0211241096258163452 0.999605774879455566 -0.0184970106929540634 0 0 0 255
-0.00635999999940395355 0.094755999743938446 -0.00635999999940395355 -0.692071199417114258 0.214596793055534363 -0.689192116260528564 0 0 0 255
-0.00617899978533387184 0.0987029969692230225 -0.00617899978533387184 -0.476502299308776855 -0.690537512302398682 -0.544153928756713867 0 0 0 255
-0.00852700043469667435 0.086796000599861145 -0.00852700043469667435 -0.659906327724456787 0.359201788902282715 -0.659922480583190918 0 0 0 255
-0.00838099978864192963 0.0987029969692230225 -0.00838099978864192963 -0.546913981437683105 -0.686690270900726318 -0.478896111249923706 0 0 0 255
-0.0106929996982216835 0.0788350030779838562 -0.0106929996982216835 -0.650359272956848145 0.394838690757751465 -0.648949325084686279 0 0 0 255
-0.00821700040251016617 0.101765997707843781 -0.00821700040251016617 -0.706770718097686768 -0.0256246104836463928 -0.70697861909866333 0 0 0 255
-0.0148170003667473793 0.0665870010852813721 -0.0148170003667473793 -0.619547128677368164 0.485530495643615723 -0.616783201694488525 0 0 0 255
-0.00886899977922439575 0.108997002243995667 -0.00886899977922439575 -0.707127988338470459 -0.00502127315849065781 -0.707067787647247314 0 0 0 255
-0.00838099978864192963 0.114878997206687927 -0.00838099978864192963 -0.683088481426239014 0.250015288591384888 -0.686208724975585938 0 0 0 255
-0.00813800003379583359 0.11571899801492691 -0.00813800003379583359 -0.377566099166870117 0.819458484649658203 -0.431198000907897949 0 0 0 255
-0.0181670002639293671 0.0591860003769397736 -0.0181670002639293671 -0.668669521808624268 0.458323895931243896 -0.585508584976196289 0 0 0 255
-0.0274209994822740555 0.0493250004947185516 -0.0113580003380775452 -0.852014720439910889 0.311227500438690186 -0.420961290597915649 0 0 0 255
-0.0209870003163814545 0.0493250004947185516 -0.0209870003163814545 -0.626056313514709473 0.311225295066833496 -0.7149772047996521 0 0 0 255
-0.0221229996532201767 0.0430289991199970245 -0.0221229996532201767 -0.698660612106323242 0.147801592946052551 -0.700020015239715576 0 0 0 255
-0.0289050005376338959 0.0430289991199970245 -0.011973000131547451 -0.913373827934265137 0.14778369665145874 -0.37935250997543335 0 0 0 255
-0.022420000284910202 0.0340490005910396576 -0.022420000284910202 -0.752133607864379883 0.0233186595141887665 -0.658598005771636963 0 0 0 255
-0.0292930006980895996 0.0340490005910396576 -0.012133999727666378 -0.946911871433258057 0.0233366396278142929 -0.320644885301589966 0 0 0 255
-0.0292930006980895996 0.0252800006419420242 -0.012133999727666378 -0.923872113227844238 0 -0.382701486349105835 0 0 0 255
-0.022420000284910202 0.0252800006419420242 -0.022420000284910202 -0.707106828689575195 0 -0.707106709480285645 0 0 0 255
-0.0317069999873638153 0.0252800006419420242 0 -1 0 -2.53219800683268659e-09 0 0 0 255
-0.0292930006980895996 0.0165119990706443787 -0.012133999727666378 -0.923872113227844238 0 -0.382701486349105835 0 0 0 255
-0.022420000284910202 0.0165119990706443787 -0.022420000284910202 -0.707106828689575195 0 -0.707106709480285645 0 0 0 255
-0.0292930006980895996 0.0165119990706443787 0.012133999727666378 -0.923872113227844238 0 0.382701486349105835 0 0 0 255
-0.0317069999873638153 0.0165119990706443787 0 -1 0 -2.53219800683268659e-09 0 0 0 255
-0.0292930006980895996 0.00774399982765316963 0.012133999727666378 -0.923872113227844238 0 0.382701486349105835 0 0 0 255
-0.0292930006980895996 0.00774399982765316963 -0.012133999727666378 -0.923872113227844238 0 -0.382701486349105835 0 0 0 255
-0.022420000284910202 0.00774399982765316963 -0.022420000284910202 -0.707106828689575195 0 -0.707106709480285645 0 0 0 255
-0.0317069999873638153 0.00774399982765316963 0 -1 0 0 0 0 0 255
-0.0292930006980895996 -0.00102399999741464853 0.012133999727666378 -0.923872113227844238 0 0.382701486349105835 0 0 0 255
-0.0292930006980895996 -0.00102399999741464853 -0.012133999727666378 -0.923872113227844238 0 -0.382701486349105835 0 0 0 255
-0.022420000284910202 -0.00102399999741464853 -0.022420000284910202 -0.707106828689575195 0 -0.707106709480285645 0 0 0 255
-0.0317069999873638153 -0.00102399999741464853 0 -1 0 0 0 0 0 255
-0.0292930006980895996 -0.00979200005531311035 0.012133999727666378 -0.923872113227844238 0 0.382701486349105835 0 0 0 255
-0.0292930006980895996 -0.00979200005531311035 -0.012133999727666378 -0.923872113227844238 0 -0.382701486349105835 0 0 0 255
-0.022420000284910202 -0.00979200005531311035 -0.022420000284910202 -0.707106828689575195 0 -0.707106709480285645 0 0 0 255
-0.0317069999873638153 -0.00979200005531311035 0 -1 0 0 0 0 0 255
-0.0292930006980895996 -0.0185599997639656067 0.012133999727666378 -0.946893513202667236 -0.0241523999720811844 0.32063901424407959 0 0 0 255
-0.0292930006980895996 -0.0185599997639656067 -0.012133999727666378 -0.896263182163238525 -0.0241548009216785431 -0.442864388227462769 0 0 0 255
-0.0317069999873638153 -0.0185599997639656067 0 -0.997517704963684082 -0.0241721998900175095 -0.0661376863718032837 0 0 0 255
-0.0289530009031295776 -0.026163000613451004 -0.0119930002838373184 -0.921434104442596436 -0.0732062831521034241 -0.381575912237167358 0 0 0 255
-0.0289530009031295776 -0.026163000613451004 0.0119930002838373184 -0.921351075172424316 -0.0732071623206138611 0.381776094436645508 0 0 0 255
-0.0313379988074302673 -0.026163000613451004 0 -0.997316181659698486 -0.0732143968343734741 0.000123563499073497951 0 0 0 255
-0.0280629992485046387 -0.0359489992260932922 -0.0116240000352263451 -0.919430077075958252 -0.0979528725147247314 -0.38085898756980896 0 0 0 255
-0.0303750000894069672 -0.0359489992260932922 0 -0.995192110538482666 -0.097942739725112915 -8.09641642263159156e-06 0 0 0 255
-0.0271729994565248489 -0.0457350015640258789 -0.0112560000270605087 -0.919436812400817871 -0.0979290604591369629 -0.380848914384841919 0 0 0 255
-0.0294119995087385178 -0.0457350015640258789 0 -0.995192110538482666 -0.0979429036378860474 -8.56228689372073859e-06 0 0 0 255
-0.0262829996645450592 -0.0555210001766681671 -0.0108869997784495354 -0.91944962739944458 -0.0979333370923995972 -0.380816996097564697 0 0 0 255
-0.00190699996892362833 0.116024002432823181 -0.00460299989208579063 -0.0124411797150969505 0.999605774879455566 -0.0251704808324575424 0 0 0 255
0 0.116024002432823181 -0.00498299999162554741 -0.00185726303607225418 0.999605774879455566 -0.0280160699039697647 0 0 0 255
-0.00440400000661611557 0.11571899801492691 -0.0106330001726746559 -0.183850795030593872 0.819357991218566895 -0.543002188205718994 0 0 0 255
0 0.11571899801492691 -0.0115090003237128258 0.0379226803779602051 0.819308102130889893 -0.572098016738891602 0 0 0 255
0.00190699996892362833 0.116024002432823181 -0.00460299989208579063 0.00900942366570234299 0.999605715274810791 -0.0265946295112371445 0 0 0 255
-0.0045360000804066658 0.114878997206687927 -0.010950000025331974 -0.368499785661697388 0.249927401542663574 -0.895401716232299805 0 0 0 255
0 0.114878997206687927 -0.0118519999086856842 0.00218687998130917549 0.249745398759841919 -0.968309104442596436 0 0 0 255
-0.00480000022798776627 0.108997002243995667 -0.0115870004519820213 -0.382695496082305908 -0.00499599101021885872 -0.923861026763916016 0 0 0 255
0 0.108997002243995667 -0.0125420000404119492 -1.3917299838794861e-05 -0.00497700599953532219 -0.999987602233886719 0 0 0 255
-0.00444700010120868683 0.101765997707843781 -0.0107359997928142548 -0.382400214672088623 -0.0256693605333566666 -0.923640310764312744 0 0 0 255
0 0.101765997707843781 -0.0116210002452135086 0.000148977400385774672 -0.0256801396608352661 -0.999670207500457764 0 0 0 255
-0.0045360000804066658 0.0987029969692230225 -0.010950000025331974 -0.321992397308349609 -0.686699092388153076 -0.651740312576293945 0 0 0 255
0 0.0987029969692230225 -0.0118519999086856842 -0.0481117106974124908 -0.686764895915985107 -0.725285708904266357 0 0 0 255
-0.0033440000843256712 0.0987029969692230225 -0.0080739995464682579 -0.231943801045417786 -0.690599918365478516 -0.685035586357116699 0 0 0 255
0 0.0987029969692230225 -0.00873900018632411957 0.0478033013641834259 -0.690602302551269531 -0.721653223037719727 0 0 0 255
-0.00344199989922344685 0.094755999743938446 -0.00831000041216611862 -0.375693202018737793 0.214552104473114014 -0.901566386222839355 0 0 0 255
0 0.094755999743938446 -0.00899400003254413605 -0.00208169501274824142 0.214484602212905884 -0.976725220680236816 0 0 0 255
-0.00461499998345971107 0.086796000599861145 -0.0111400000751018524 -0.357125699520111084 0.359216809272766113 -0.862220704555511475 0 0 0 255
0 0.086796000599861145 -0.0120580000802874565 5.13981212861835957e-05 0.359235703945159912 -0.933246910572052002 0 0 0 255
-0.00578700006008148193 0.0788350030779838562 -0.0139709999784827232 -0.352506786584854126 0.394834995269775391 -0.848436415195465088 0 0 0 255
0 0.0788350030779838562 -0.015123000368475914 -0.00097776344045996666 0.394883692264556885 -0.918730676174163818 0 0 0 255
-0.00801900029182434082 0.0665870010852813721 -0.019359000027179718 -0.336347401142120361 0.485531896352767944 -0.806925773620605469 0 0 0 255
0 0.0665870010852813721 -0.0209539998322725296 -0.00197423598729074001 0.485515207052230835 -0.874225974082946777 0 0 0 255
-0.00983200035989284515 0.0591860003769397736 -0.0237360000610351562 -0.393701791763305664 0.458328098058700562 -0.79682767391204834 0 0 0 255
0 0.0591860003769397736 -0.0256919991225004196 -0.0587961599230766296 0.45833510160446167 -0.886832475662231445 0 0 0 255
-0.0113580003380775452 0.0493250004947185516 -0.0274209994822740555 -0.304787606000900269 0.311213791370391846 -0.900139212608337402 0 0 0 255
-0.011973000131547451 0.0430289991199970245 -0.0289050005376338959 -0.377582907676696777 0.147814303636550903 -0.914101779460906982 0 0 0 255
-0.012133999727666378 0.0340490005910396576 -0.0292930006980895996 -0.442860007286071777 0.0233187396079301834 -0.896287500858306885 0 0 0 255
-0.012133999727666378 0.0252800006419420242 -0.0292930006980895996 -0.382701486349105835 0 -0.923872113227844238 0 0 0 255
0 0.0340490005910396576 -0.0317069999873638153 -0.0661387071013450623 0.0233529992401599884 -0.997537195682525635 0 0 0 255
0 0.0430289991199970245 -0.0312860012054443359 0.000969752727542072535 0.147805094718933105 -0.989016115665435791 0 0 0 255
0 0.0493250004947185516 -0.0296800006181001663 0.0628699511289596558 0.311196208000183105 -0.948263823986053467 0 0 0 255
0.00983200035989284515 0.0591860003769397736 -0.0237360000610351562 0.285049498081207275 0.45833200216293335 -0.84183049201965332 0 0 0 255
-0.012133999727666378 0.0165119990706443787 -0.0292930006980895996 -0.382701486349105835 0 -0.923872113227844238 0 0 0 255
0 0.0252800006419420242 -0.0317069999873638153 2.53219800683268659e-09 0 -1 0 0 0 255
0.012133999727666378 0.0340490005910396576 -0.0292930006980895996 0.320645004510879517 0.0233366396278142929 -0.946911871433258057 0 0 0 255
0.011973000131547451 0.0430289991199970245 -0.0289050005376338959 0.37935250997543335 0.14778369665145874 -0.913373827934265137 0 0 0 255
-0.012133999727666378 0.00774399982765316963 -0.0292930006980895996 -0.382701486349105835 0 -0.923872113227844238 0 0 0 255
0 0.0165119990706443787 -0.0317069999873638153 0 0 -1 0 0 0 255
0.012133999727666378 0.0252800006419420242 -0.0292930006980895996 0.382701486349105835 0 -0.923872113227844238 0 0 0 255
0.012133999727666378 0.0165119990706443787 -0.0292930006980895996 0.382701486349105835 0 -0.923872113227844238 0 0 0 255
0.0113580003380775452 0.0493250004947185516 -0.0274209994822740555 0.420961290597915649 0.311227500438690186 -0.852014720439910889 0 0 0 255
0.0221229996532201767 0.0430289991199970245 -0.0221229996532201767 0.69539111852645874 0.181280001997947693 -0.69539111852645874 0 0 0 255
0 0.00774399982765316963 -0.0317069999873638153 0 0 -1 0 0 0 255
0.012133999727666378 0.00774399982765316963 -0.0292930006980895996 0.382701486349105835 0 -0.923872113227844238 57 185 8 255
0.0209870003163814545 0.0493250004947185516 -0.0209870003163814545 0.694494009017944336 0.32438930869102478 -0.642222404479980469 0 0 0 255
0.0181670002639293671 0.0591860003769397736 -0.0181670002639293671 0.604932904243469238 0.470688700675964355 -0.642268180847167969 0 0 0 255
0.0237360000610351562 0.0591860003769397736 -0.00983200035989284515 0.819694817066192627 0.459125906229019165 -0.342496693134307861 0 0 0 255
-0.012133999727666378 -0.00102399999741464853 -0.0292930006980895996 -0.382701486349105835 0 -0.923872113227844238 0 0 0 255
0.019359000027179718 0.0665870010852813721 -0.00801900029182434082 0.808425605297088623 0.485514402389526367 -0.332751989364624023 0 0 0 255
0.00801900029182434082 0.0665870010852813721 -0.019359000027179718 0.332751989364624023 0.485514402389526367 -0.808425486087799072 0 0 0 255
0 -0.00102399999741464853 -0.0317069999873638153 0 0 -1 0 0 0 255
-0.012133999727666378 -0.00979200005531311035 -0.0292930006980895996 -0.382701486349105835 0 -0.923872113227844238 0 0 0 255
0.0148170003667473793 0.0665870010852813721 -0.0148170003667473793 0.625195205211639404 0.467185288667678833 -0.625195205211639404 0 0 0 255
0.00578700006008148193 0.0788350030779838562 -0.0139709999784827232 0.350718885660171509 0.394878387451171875 -0.84915691614151001 0 0 0 255
0.012133999727666378 -0.00102399999741464853 -0.0292930006980895996 0.382701486349105835 0 -0.923872113227844238 0 0 0 255
0 -0.00979200005531311035 -0.0317069999873638153 0 0 -1 0 0 0 255
0.012133999727666378 -0.00979200005531311035 -0.0292930006980895996 0.382701486349105835 0 -0.923872113227844238 0 0 0 255
0 -0.0185599997639656067 -0.0317069999873638153 0.0661376863718032837 -0.0241721998900175095 -0.997517704963684082 0 0 0 255
0.012133999727666378 -0.0185599997639656067 -0.0292930006980895996 0.442864388227462769 -0.0241548102349042892 -0.896263182163238525 0 0 0 255
0.00460299989208579063 0.116024002432823181 -0.00190699996892362833 0.0251704808324575424 0.999605774879455566 -0.0124411797150969505 0 0 0 255
0.0106330001726746559 0.11571899801492691 -0.00440400000661611557 0.51537710428237915 0.819529712200164795 -0.250514805316925049 0 0 0 255
0.00813800003379583359 0.11571899801492691 -0.00813800003379583359 0.32975471019744873 0.885755777359008789 -0.326647400856018066 0 0 0 255
0.00352300005033612251 0.116024002432823181 -0.00352300005033612251 0.0184970106929540634 0.999605774879455566 -0.0211241096258163452 0 0 0 255
0.010950000025331974 0.114878997206687927 -0.0045360000804066658 0.893770217895507812 0.249824002385139465 -0.372508794069290161 0 0 0 255
0.00838099978864192963 0.114878997206687927 -0.00838099978864192963 0.675905287265777588 0.293775588274002075 -0.675905227661132812 0 0 0 255
0.00440400000661611557 0.11571899801492691 -0.0106330001726746559 0.253897011280059814 0.819420814514160156 -0.513892889022827148 0 0 0 255
0.0045360000804066658 0.114878997206687927 -0.010950000025331974 0.372508794069290161 0.249824002385139465 -0.893770217895507812 0 0 0 255
0.00886899977922439575 0.108997002243995667 -0.00886899977922439575 0.706655383110046387 0.035727228969335556 -0.706655383110046387 0 0 0 255
0.00480000022798776627 0.108997002243995667 -0.0115870004519820213 0.382603287696838379 -0.00502247177064418793 -0.92389911413192749 0 0 0 255
0.0118519999086856842 0.114878997206687927 0 0.968309104442596436 0.249745398759841919 -0.00218688207678496838 0 0 0 255
0.0115870004519820213 0.108997002243995667 -0.00480000022798776627 0.92389911413192749 -0.00502247177064418793 -0.382603287696838379 0 0 0 255
0.00821700040251016617 0.101765997707843781 -0.00821700040251016617 0.70585787296295166 -0.0594081096351146698 -0.70585787296295166 0 0 0 255
0.00444700010120868683 0.101765997707843781 -0.0107359997928142548 0.382740586996078491 -0.0255930591374635696 -0.923501312732696533 0 0 0 255
0.010950000025331974 0.114878997206687927 0.0045360000804066658 0.895401716232299805 0.249927401542663574 0.368499785661697388 0 0 0 255
0.0125420000404119492 0.108997002243995667 0 0.999987602233886719 -0.00497700599953532219 1.39147496156510897e-05 0 0 0 255
0.0115870004519820213 0.108997002243995667 0.00480000022798776627 0.923861026763916016 -0.00499599101021885872 0.382695496082305908 0 0 0 255
0.0107359997928142548 0.101765997707843781 -0.00444700010120868683 0.923501312732696533 -0.025593070313334465 -0.382740706205368042 0 0 0 255
0.0045360000804066658 0.0987029969692230225 -0.010950000025331974 0.233138695359230042 -0.686731815338134766 -0.688509881496429443 0 0 0 255
0.00838099978864192963 0.0987029969692230225 -0.00838099978864192963 0.648297309875488281 -0.399275988340377808 -0.648297309875488281 0 0 0 255
0.0107359997928142548 0.101765997707843781 0.00444700010120868683 0.923640191555023193 -0.0256693605333566666 0.382400214672088623 0 0 0 255
0.0116210002452135086 0.101765997707843781 0 0.999670207500457764 -0.0256801396608352661 -0.00014898000517860055 0 0 0 255
0.0033440000843256712 0.0987029969692230225 -0.0080739995464682579 0.320425897836685181 -0.690566420555114746 -0.64841771125793457 0 0 0 255
0.010950000025331974 0.0987029969692230225 -0.0045360000804066658 0.688509881496429443 -0.686731815338134766 -0.233138695359230042 0 0 0 255
0.00617899978533387184 0.0987029969692230225 -0.00617899978533387184 0.318983286619186401 -0.89246821403503418 -0.318983286619186401 0 0 0 255
0.010950000025331974 0.0987029969692230225 0.0045360000804066658 0.651740312576293945 -0.686699092388153076 0.321992397308349609 0 0 0 255
0.0118519999086856842 0.0987029969692230225 0 0.725285828113555908 -0.686764776706695557 0.0481117181479930878 0 0 0 255
0.00344199989922344685 0.094755999743938446 -0.00831000041216611862 0.371771812438964844 0.214520692825317383 -0.903198003768920898 0 0 0 255
0.0080739995464682579 0.0987029969692230225 -0.0033440000843256712 0.64841771125793457 -0.690566301345825195 -0.320425897836685181 0 0 0 255
0.00635999999940395355 0.094755999743938446 -0.00635999999940395355 0.697449684143066406 0.16470550000667572 -0.697449684143066406 0 0 0 255
0.0080739995464682579 0.0987029969692230225 0.0033440000843256712 0.685035586357116699 -0.690599918365478516 0.231943801045417786 0 0 0 255
0.00873900018632411957 0.0987029969692230225 0 0.721653223037719727 -0.690602302551269531 -0.0478033013641834259 0 0 0 255
0.00461499998345971107 0.086796000599861145 -0.0111400000751018524 0.357074707746505737 0.359175711870193481 -0.8622589111328125 0 0 0 255
0.00831000041216611862 0.094755999743938446 -0.00344199989922344685 0.903198003768920898 0.21452079713344574 -0.371771812438964844 0 0 0 255
0.00852700043469667435 0.086796000599861145 -0.00852700043469667435 0.659914016723632812 0.359203606843948364 -0.659914016723632812 0 0 0 255
0.0106929996982216835 0.0788350030779838562 -0.0106929996982216835 0.653186500072479248 0.383007586002349854 -0.653186500072479248 0 0 0 255
0.00831000041216611862 0.094755999743938446 0.00344199989922344685 0.901566505432128906 0.214552000164985657 0.375693202018737793 0 0 0 255
0.00899400003254413605 0.094755999743938446 0 0.976725220680236816 0.214484706521034241 0.00208169501274824142 0 0 0 255
0.0111400000751018524 0.086796000599861145 -0.00461499998345971107 0.8622589111328125 0.359175711870193481 -0.3570747971534729 0 0 0 255
0.0139709999784827232 0.0788350030779838562 -0.00578700006008148193 0.84915691614151001 0.394878387451171875 -0.350718885660171509 0 0 0 255
0.0120580000802874565 0.086796000599861145 0 0.933246910572052002 0.359235703945159912 -5.13981212861835957e-05 0 0 0 255
0.015123000368475914 0.0788350030779838562 0 0.916226983070373535 0.399779796600341797 0.0265356097370386124 0 0 0 255
3 0 1 2
3 0 2 3
3 4 0 3
3 3 2 5
3 4 3 6
3 7 4 6
3 3 5 8
3 6 3 8
3 8 5 9
3 7 6 10
3 11 7 10
3 6 8 12
3 10 6 12
3 8 9 13
3 12 8 13
3 13 9 14
3 11 10 15
3 16 11 15
3 10 12 17
3 15 10 17
3 12 13 18
3 17 12 18
3 16 15 19
3 20 16 19
3 15 17 21
3 19 15 21
3 20 19 22
3 23 20 22
3 13 14 24
3 18 13 24
3 17 18 25
3 21 17 25
3 19 21 26
3 22 19 26
3 23 22 27
3 28 23 27
3 18 24 29
3 25 18 29
3 21 25 30
3 26 21 30
3 22 26 31
3 27 22 31
3 28 27 32
3 33 28 32
3 25 29 34
3 30 25 34
3 26 30 35
3 31 26 35
3 27 31 36
3 32 27 36
3 30 34 37
3 35 30 37
3 31 35 38
3 36 31 38
3 35 37 39
3 38 35 39
3 33 32 40
3 32 36 41
3 40 32 41
3 36 38 42
3 41 36 42
3 38 39 43
3 42 38 43
3 33 40 44
3 33 44 45
3 45 44 46
3 45 46 47
3 47 46 48
3 47 48 49
3 49 48 50
3 49 50 51
3 51 50 52
3 51 52 53
3 53 52 54
3 53 54 55
3 54 56 55
3 54 57 56
3 58 56 57
3 52 59 54
3 59 57 54
3 50 60 52
3 52 60 59
3 48 61 50
3 50 61 60
3 46 62 48
3 48 62 61
3 58 57 63
3 64 58 63
3 59 65 57
3 63 57 65
3 60 66 59
3 66 65 59
3 61 67 60
3 60 67 66
3 64 63 68
3 68 69 64
3 63 65 70
3 68 63 70
3 66 71 65
3 70 65 71
3 68 72 69
3 72 73 69
3 68 70 74
3 74 72 68
3 72 75 73
3 75 76 73
3 61 77 67
3 62 77 61
3 67 78 66
3 78 71 66
3 70 71 79
3 74 70 79
3 74 80 72
3 80 75 72
3 75 81 76
3 81 82 76
3 77 83 67
3 67 83 78
3 77 84 83
3 85 84 77
3 85 86 84
3 62 85 77
3 87 86 85
3 87 88 86
3 89 85 62
3 89 87 85
3 46 89 62
3 44 89 46
3 44 90 89
3 90 87 89
3 40 90 44
3 91 88 87
3 90 91 87
3 91 92 88
3 40 93 90
3 93 91 90
3 40 41 93
3 94 92 91
3 93 94 91
3 94 95 92
3 94 96 95
3 93 41 97
3 93 97 94
3 94 97 96
3 41 42 97
3 97 98 96
3 97 42 98
3 99 96 98
3 42 43 98
3 100 98 43
3 99 98 100
3 100 43 101
3 101 43 39
3 101 39 102
3 102 39 37
3 102 37 103
3 103 37 34
3 103 34 104
3 104 34 29
3 104 29 105
3 105 29 24
3 105 24 106
3 106 24 14
3 107 100 101
3 108 101 102
3 107 101 108
3 109 102 103
3 108 102 109
3 110 103 104
3 109 103 110
3 111 104 105
3 110 104 111
3 112 105 106
3 111 105 112
3 113 100 107
3 113 99 100
3 114 107 108
3 115 108 109
3 114 108 115
3 116 109 110
3 115 109 116
3 117 110 111
3 116 110 117
3 118 111 112
3 117 111 118
3 119 113 107
3 119 107 114
3 120 114 115
3 121 114 120
3 121 119 114
3 120 115 122
3 122 115 116
3 122 116 123
3 123 116 117
3 123 117 124
3 124 117 118
3 124 118 125
3 126 119 121
3 125 118 127
3 125 127 128
3 118 112 127
3 126 129 119
3 129 113 119
3 128 127 130
3 128 130 131
3 127 112 132
3 127 132 130
3 112 106 132
3 131 130 133
3 131 133 134
3 130 135 133
3 130 132 135
3 132 136 135
3 132 106 136
3 106 14 136
3 137 134 133
3 138 136 14
3 137 139 134
3 134 139 140
3 134 140 141
3 140 142 141
3 138 14 143
3 14 144 143
3 14 9 144
3 144 9 5
3 140 145 142
3 146 142 145
3 146 147 142
3 148 147 146
3 149 145 140
3 149 146 145
3 150 140 139
3 149 140 150
3 149 151 146
3 148 146 152
3 151 152 146
3 153 149 150
3 153 151 149
3 150 139 154
3 153 150 155
3 155 150 154
3 156 154 139
3 156 139 137
3 153 157 151
3 151 158 152
3 157 158 151
3 159 153 155
3 159 157 153
3 155 154 160
3 161 154 156
3 161 160 154
3 159 155 162
3 162 155 160
3 159 163 157
3 157 164 158
3 163 164 157
3 165 159 162
3 165 163 159
3 166 152 158
3 167 158 164
3 167 166 158
3 166 168 152
3 168 148 152
3 162 160 169
3 165 162 170
3 170 162 169
3 171 169 160
3 171 160 161
3 165 172 163
3 163 173 164
3 172 173 163
3 174 165 170
3 174 172 165
3 175 164 173
3 175 167 164
3 170 169 176
3 177 170 176
3 174 170 177
3 178 174 177
3 179 176 169
3 177 176 179
3 179 169 171
3 174 180 172
3 178 180 174
3 172 181 173
3 180 181 172
3 182 173 181
3 180 182 181
3 182 175 173
3 183 177 179
3 178 177 183
3 184 179 171
3 183 179 184
3 185 182 180
3 178 185 180
3 186 175 182
3 185 186 182
3 184 171 187
3 187 171 161
3 186 188 175
3 188 167 175
3 187 161 189
3 189 161 156
3 188 190 167
3 190 166 167
3 189 156 191
3 191 156 137
3 190 192 166
3 192 168 166
3 184 187 193
3 187 189 194
3 187 194 193
3 189 191 195
3 189 195 194
3 184 193 196
3 183 184 196
3 183 196 197
3 178 183 197
3 191 137 198
3 191 198 138
3 191 138 195
3 137 135 198
3 138 198 135
3 137 133 135
3 138 135 136
3 195 138 143
3 194 195 199
3 195 143 199
3 194 199 200
3 193 194 200
3 201 199 143
3 201 143 144
3 193 200 202
3 196 193 202
3 203 200 199
3 203 199 201
3 196 202 204
3 197 196 204
3 205 202 200
3 205 200 203
3 206 204 202
3 197 204 206
3 206 202 205
3 207 197 206
3 178 197 207
3 208 206 205
3 207 206 208
3 209 205 203
3 208 205 209
3 210 203 201
3 209 203 210
3 178 207 211
3 178 211 185
3 207 208 212
3 207 212 211
3 208 209 213
3 208 213 212
3 185 211 214
3 185 214 186
3 211 212 215
3 211 215 214
3 212 216 215
3 214 215 216
3 212 213 216
3 186 214 217
3 214 216 217
3 186 217 188
3 209 218 213
3 209 210 218
3 213 219 216
3 217 216 219
3 213 218 219
3 188 217 220
3 217 219 220
3 188 220 190
3 218 221 219
3 220 219 221
3 190 220 222
3 220 221 222
3 190 222 192
3 210 223 218
3 218 223 221
3 222 221 224
3 223 224 221
3 192 222 225
3 222 224 225
3 210 226 223
3 210 201 226
3 226 201 144
3 223 227 224
3 226 227 223
3 226 144 228
3 226 228 227
3 144 5 228
3 227 228 5
3 227 5 2
3 1 227 2
3 1 224 227
3 225 224 1
3 225 1 229
3 192 225 230
3 192 230 168
3 225 231 230
3 168 230 231
3 225 229 231
3 168 231 232
3 168 232 148
3 233 148 232
3 233 147 148
3 233 232 234
3 234 232 231
3 233 235 147
3 235 142 147
3 236 233 234
3 236 235 233
3 234 231 237
3 237 231 229
3 235 238 142
3 238 141 142
3 236 239 235
3 239 238 235
3 236 234 240
3 240 234 237
3 237 229 241
3 241 229 1
3 241 1 0
3 238 242 141
3 242 134 141
3 242 131 134
3 243 237 241
3 240 237 243
3 244 241 0
3 243 241 244
3 244 0 4
3 245 236 240
3 245 239 236
3 239 246 238
3 246 242 238
3 247 131 242
3 246 247 242
3 247 128 131
3 248 240 243
3 245 240 248
3 249 243 244
3 248 243 249
3 250 244 4
3 249 244 250
3 250 4 7
3 251 246 239
3 245 251 239
3 252 247 246
3 251 252 246
3 253 128 247
3 252 253 247
3 253 125 128
3 254 245 248
3 254 251 245
3 255 248 249
3 254 248 255
3 256 250 7
3 256 7 11
3 257 249 250
3 255 249 257
3 257 250 256
3 258 252 251
3 254 258 251
3 259 125 253
3 259 124 125
3 260 253 252
3 258 260 252
3 260 259 253
3 261 256 11
3 261 11 16
3 262 257 256
3 262 256 261
3 263 258 254
3 263 254 255
3 264 255 257
3 264 257 262
3 263 255 264
3 265 260 258
3 263 265 258
3 266 259 260
3 265 266 260
3 267 261 16
3 267 16 20
3 268 262 261
3 268 261 267
3 269 263 264
3 269 265 263
3 270 264 262
3 270 262 268
3 269 264 270
3 271 267 20
3 271 20 23
3 269 272 265
3 272 266 265
3 273 268 267
3 273 267 271
3 274 269 270
3 274 272 269
3 275 270 268
3 275 268 273
3 274 270 275
3 276 271 23
3 276 23 28
3 277 273 271
3 277 271 276
3 278 275 273
3 278 273 277
3 279 274 275
3 279 275 278
3 274 280 272
3 279 280 274
3 281 276 28
3 281 28 33
3 281 33 45
3 282 277 276
3 282 276 281
3 281 45 283
3 282 281 283
3 283 45 47
3 284 278 277
3 284 277 282
3 283 47 285
3 285 47 49
3 282 283 286
3 284 282 286
3 286 283 285
3 287 278 284
3 287 279 278
3 287 284 288
3 284 286 288
3 287 288 289
3 285 49 290
3 290 49 51
3 286 285 291
3 288 286 291
3 291 285 290
3 289 288 292
3 288 291 292
3 289 292 293
3 290 51 294
3 294 51 53
3 291 290 295
3 292 291 295
3 295 290 294
3 293 292 296
3 292 295 296
3 293 296 297
3 294 53 298
3 298 53 55
3 295 294 299
3 296 295 299
3 299 294 298
3 297 296 300
3 296 299 300
3 297 300 301
3 299 298 302
3 300 299 302
3 301 300 303
3 300 302 303
3 301 303 304
3 298 55 305
3 302 298 305
3 303 302 306
3 302 305 306
3 304 303 307
3 303 306 307
3 304 307 308
3 55 309 305
3 55 56 309
3 305 310 306
3 305 309 310
3 306 311 307
3 306 310 311
3 312 309 56
3 312 56 58
3 313 310 309
3 313 309 312
3 314 312 58
3 314 58 64
3 307 311 315
3 307 315 308
3 316 311 310
3 316 310 313
3 317 313 312
3 317 312 314
3 64 318 314
3 64 69 318
3 319 308 315
3 304 308 319
3 320 315 311
3 320 311 316
3 321 316 313
3 321 313 317
3 314 322 317
3 314 318 322
3 69 323 318
3 69 73 323
3 304 319 324
3 301 304 324
3 325 320 316
3 325 316 321
3 317 326 321
3 317 322 326
3 318 327 322
3 318 323 327
3 73 328 323
3 73 76 328
3 321 329 325
3 321 326 329
3 322 330 326
3 322 327 330
3 323 331 327
3 323 328 331
3 76 332 328
3 76 82 332
3 333 325 329
3 320 325 333
3 326 334 329
3 326 330 334
3 327 335 330
3 327 331 335
3 328 336 331
3 328 332 336
3 82 337 332
3 82 338 337
3 333 329 339
3 339 329 334
3 330 340 334
3 330 335 340
3 331 341 335
3 331 336 341
3 332 342 336
3 332 337 342
3 338 343 337
3 338 344 343
3 339 334 345
3 345 334 340
3 335 346 340
3 335 341 346
3 336 347 341
3 336 342 347
3 337 348 342
3 337 343 348
3 344 349 343
3 344 350 349
3 345 340 351
3 351 340 346
3 341 352 346
3 341 347 352
3 342 353 347
3 342 348 353
3 343 354 348
3 343 349 354
3 350 355 349
3 350 356 355
3 351 346 357
3 357 346 352
3 347 358 352
3 347 353 358
3 348 359 353
3 348 354 359
3 349 360 354
3 349 355 360
3 356 361 355
3 356 362 361
3 357 352 363
3 363 352 358
3 353 364 358
3 353 359 364
3 354 365 359
3 354 360 365
3 355 366 360
3 355 361 366
3 367 361 362
3 367 362 368
3 363 358 369
3 369 358 364
3 359 370 364
3 359 365 370
3 360 371 365
3 360 366 371
3 372 366 361
3 372 361 367
3 369 364 373
3 373 364 370
3 365 374 370
3 365 371 374
3 375 371 366
3 375 366 372
3 373 370 376
3 376 370 374
3 377 374 371
3 377 371 375
3 376 374 378
3 377 378 374
3 379 372 367
3 380 375 372
3 380 372 379
3 379 381 380
3 379 367 382
3 382 381 379
3 382 367 368
3 383 375 380
3 383 377 375
3 380 381 383
3 382 368 384
3 384 381 382
3 384 368 385
3 386 377 383
3 383 381 386
3 386 387 377
3 377 387 378
3 384 385 388
3 388 381 384
3 389 381 388
3 390 387 386
3 386 381 390
3 388 385 391
3 388 391 389
3 387 392 378
3 390 393 387
3 387 393 392
3 394 378 392
3 394 376 378
3 395 393 390
3 390 381 395
3 396 376 394
3 396 373 376
3 397 373 396
3 397 369 373
3 398 369 397
3 398 363 369
3 399 363 398
3 399 357 363
3 400 357 399
3 400 351 357
3 401 351 400
3 401 345 351
3 402 345 401
3 402 339 345
3 403 339 402
3 403 333 339
3 404 333 403
3 320 333 404
3 320 404 405
3 320 405 315
3 319 315 405
3 406 319 405
3 324 319 406
3 404 407 405
3 406 405 407
3 404 403 408
3 404 408 407
3 409 403 402
3 408 403 409
3 410 402 401
3 409 402 410
3 410 401 411
3 411 401 400
3 411 400 412
3 412 400 399
3 412 399 413
3 413 399 398
3 413 398 414
3 414 398 397
3 414 397 415
3 415 397 396
3 415 396 416
3 416 396 394
3 416 394 417
3 417 394 392
3 417 392 418
3 393 418 392
3 393 419 418
3 395 419 393
3 420 419 395
3 395 381 420
3 421 413 414
3 421 414 422
3 422 414 415
3 423 413 421
3 422 415 424
3 423 412 413
3 424 415 416
3 425 412 423
3 424 416 426
3 425 411 412
3 426 416 417
3 427 411 425
3 426 417 428
3 427 410 411
3 428 417 418
3 428 418 429
3 419 429 418
3 419 430 429
3 431 410 427
3 431 409 410
3 432 409 431
3 432 431 433
3 408 409 432
3 432 433 434
3 408 432 435
3 432 434 435
3 408 435 407
3 436 435 434
3 437 407 435
3 436 437 435
3 437 406 407
3 438 437 436
3 438 436 439
3 440 406 437
3 440 437 438
3 324 406 440
3 441 438 439
3 441 439 442
3 443 324 440
3 301 324 443
3 297 301 443
3 444 440 438
3 443 440 444
3 444 438 441
3 297 443 445
3 445 443 444
3 293 297 445
3 446 441 442
3 446 442 447
3 448 444 441
3 445 444 448
3 448 441 446
3 293 445 449
3 449 445 448
3 289 293 449
3 450 446 447
3 450 447 451
3 452 448 446
3 449 448 452
3 452 446 450
3 289 449 453
3 453 449 452
3 287 289 453
3 454 450 451
3 454 451 455
3 456 452 450
3 453 452 456
3 456 450 454
3 287 453 457
3 457 453 456
3 458 454 455
3 458 455 126
3 458 126 121
3 459 456 454
3 459 454 458
3 457 456 459
3 458 121 460
3 459 458 460
3 460 121 120
3 287 457 461
3 287 461 279
3 279 461 280
3 457 459 462
3 459 460 462
3 457 462 461
3 460 120 463
3 462 460 463
3 463 120 122
3 461 462 464
3 461 464 280
3 462 463 464
3 463 122 465
3 464 463 465
3 465 122 123
3 280 464 466
3 464 465 466
3 280 466 272
3 272 466 266
3 465 123 467
3 466 465 467
3 466 467 266
3 467 123 124
3 266 467 259
3 467 124 259
3 468 381 469
3 469 470 468
3 469 471 470
3 472 471 469
3 469 381 472
3 468 470 430
3 468 430 420
3 420 381 468
3 420 430 419
3 430 470 473
3 430 473 429
3 470 471 474
3 470 474 473
3 475 429 473
3 475 428 429
3 476 473 474
3 476 475 473
3 477 428 475
3 477 426 428
3 478 475 476
3 478 477 475
3 479 426 477
3 479 424 426
3 480 477 478
3 480 479 477
3 481 424 479
3 481 422 424
3 482 479 480
3 482 481 479
3 483 422 481
3 483 421 422
3 484 481 482
3 484 483 481
3 485 421 483
3 485 423 421
3 486 483 484
3 486 485 483
3 487 423 485
3 487 425 423
3 488 485 486
3 488 487 485
3 489 425 487
3 489 427 425
3 490 487 488
3 490 489 487
3 491 427 489
3 491 431 427
3 433 431 491
3 492 491 489
3 492 489 490
3 433 491 493
3 493 491 492
3 433 493 494
3 433 494 434
3 495 434 494
3 495 436 434
3 439 436 495
3 439 495 496
3 442 439 496
3 497 495 494
3 496 495 497
3 493 498 494
3 497 494 498
3 493 492 499
3 493 499 498
3 500 492 490
3 499 492 500
3 442 496 501
3 447 442 501
3 496 497 502
3 501 496 502
3 503 497 498
3 502 497 503
3 499 504 498
3 503 498 504
3 447 501 505
3 451 447 505
3 501 502 506
3 505 501 506
3 502 503 507
3 506 502 507
3 507 503 78
3 507 78 83
3 78 503 504
3 508 507 83
3 506 507 508
3 508 83 84
3 499 509 504
3 499 500 509
3 78 504 510
3 509 510 504
3 78 510 71
3 79 71 510
3 511 506 508
3 505 506 511
3 512 508 84
3 511 508 512
3 512 84 86
3 509 513 510
3 79 510 513
3 509 500 514
3 509 514 513
3 515 79 513
3 515 513 514
3 74 79 515
3 515 80 74
3 516 505 511
3 451 505 516
3 455 451 516
3 515 517 80
3 514 517 515
3 514 500 518
3 500 490 518
3 518 490 488
3 516 511 519
3 519 511 512
3 455 516 520
3 520 516 519
3 126 455 520
3 126 520 129
3 514 518 521
3 514 521 517
3 518 488 522
3 521 518 522
3 522 488 486
3 519 512 523
3 523 512 86
3 523 86 88
3 520 519 524
3 129 520 524
3 524 519 523
3 525 523 88
3 524 523 525
3 525 88 92
3 129 524 526
3 526 524 525
3 129 526 113
3 526 99 113
3 527 525 92
3 526 525 527
3 526 527 99
3 527 92 95
3 527 96 99
3 527 95 96
3 528 381 389
3 389 529 528
3 389 391 529
3 528 529 530
3 528 530 531
3 531 381 528
3 391 532 529
3 529 533 530
3 529 532 533
3 531 530 534
3 534 530 533
3 531 534 472
3 472 381 531
3 472 534 471
3 471 534 535
3 534 533 535
3 471 535 474
3 536 535 533
3 536 533 532
3 537 474 535
3 536 537 535
3 537 476 474
3 391 538 532
3 385 538 391
3 536 532 539
3 539 532 538
3 540 537 536
3 540 536 539
3 541 476 537
3 540 541 537
3 541 478 476
3 385 542 538
3 368 542 385
3 368 362 542
3 539 538 543
3 543 538 542
3 544 542 362
3 543 542 544
3 544 362 356
3 540 539 545
3 545 539 543
3 546 478 541
3 546 480 478
3 547 541 540
3 547 540 545
3 547 546 541
3 548 544 356
3 548 356 350
3 549 543 544
3 545 543 549
3 549 544 548
3 550 480 546
3 550 482 480
3 547 545 551
3 551 545 549
3 552 546 547
3 552 550 546
3 552 547 551
3 553 548 350
3 553 350 344
3 554 549 548
3 551 549 554
3 554 548 553
3 555 482 550
3 555 484 482
3 552 551 556
3 556 551 554
3 557 550 552
3 557 555 550
3 557 552 556
3 558 553 344
3 558 344 338
3 559 554 553
3 556 554 559
3 559 553 558
3 560 484 555
3 560 486 484
3 522 486 560
3 557 556 561
3 561 556 559
3 562 555 557
3 562 560 555
3 562 557 561
3 563 522 560
3 563 560 562
3 521 522 563
3 564 558 338
3 564 338 82
3 81 564 82
3 565 559 558
3 561 559 565
3 565 558 564
3 562 561 566
3 563 562 566
3 566 561 565
3 521 563 567
3 563 566 567
3 521 567 517
3 568 565 564
3 566 565 568
3 568 564 81
3 567 566 568
3 517 567 569
3 567 568 569
3 569 568 81
3 517 569 80
3 569 81 75
3 80 569 75
3 80 569 75
