ply
format ascii 1.0
element vertex 552
property double x
property double y
property double z
property uchar red
property uchar green
property uchar blue
element face 769
property list uchar int vertex_indices
property uchar s
end_header
0.0350000000000000033 -0.026249999999999999 -0.026249999999999999 21 21 21
0.0350000000000000033 -0.026249999999999999 -0.0350000000000000033 21 21 21
0.0350000000000000033 -0.0175000000000000017 -0.0350000000000000033 21 21 21
0.0350000000000000033 -0.0175000000000000017 -0.026249999999999999 29 29 29
0.0350000000000000033 -0.0175000000000000017 -0.0175000000000000017 51 51 51
0.0350000000000000033 -0.00875000000000000083 -0.0350000000000000033 29 29 29
0.0350000000000000033 -0.026249999999999999 -0.0175000000000000017 25 25 25
0.0350000000000000033 -0.00875000000000000083 -0.026249999999999999 46 46 46
0.0350000000000000033 0 -0.0350000000000000033 29 29 29
0.0350000000000000033 -0.026249999999999999 -0.00875000000000000083 29 29 29
0.0350000000000000033 0 -0.026249999999999999 46 46 46
0.0350000000000000033 0 -0.0175000000000000017 127 127 127
0.0350000000000000033 0.00875000000000000083 -0.0350000000000000033 25 25 25
0.0350000000000000033 0.00875000000000000083 -0.026249999999999999 38 38 38
0.0350000000000000033 0.0175000000000000017 -0.0350000000000000033 21 21 21
0.0350000000000000033 -0.00875000000000000083 -0.0175000000000000017 110 110 110
0.0350000000000000033 -0.00875000000000000083 -0.00875000000000000083 174 174 174
0.0350000000000000033 -0.0175000000000000017 -0.00875000000000000083 80 80 80
0.0350000000000000033 0.0175000000000000017 -0.026249999999999999 29 29 29
0.0350000000000000033 0.0175000000000000017 -0.0175000000000000017 85 85 85
0.0350000000000000033 0.026249999999999999 -0.0350000000000000033 21 21 21
0.0350000000000000033 0.026249999999999999 -0.026249999999999999 21 21 21
0.0350000000000000033 0.026249999999999999 -0.0175000000000000017 63 63 63
0.0350000000000000033 0.00875000000000000083 -0.0175000000000000017 114 114 114
0.0350000000000000033 0.00875000000000000083 -0.00875000000000000083 187 187 187
0.0350000000000000033 -0.026249999999999999 0 29 29 29
0.0350000000000000033 0 -0.00875000000000000083 191 191 191
0.0350000000000000033 0.026249999999999999 -0.00875000000000000083 102 102 102
0.0350000000000000033 0.0175000000000000017 -0.00875000000000000083 148 148 148
0.0350000000000000033 0.026249999999999999 0 106 106 106
0.0350000000000000033 0.00875000000000000083 0 199 199 199
0.0350000000000000033 0 0 204 204 204
0.0350000000000000033 0.00875000000000000083 0.00875000000000000083 182 182 182
0.0350000000000000033 0.0175000000000000017 0 157 157 157
0.0350000000000000033 -0.00875000000000000083 0 182 182 182
0.0350000000000000033 0.0175000000000000017 0.00875000000000000083 144 144 144
0.0350000000000000033 0.0175000000000000017 0.0175000000000000017 72 72 72
0.0350000000000000033 0.026249999999999999 0.00875000000000000083 89 89 89
0.0350000000000000033 0.026249999999999999 0.0175000000000000017 38 38 38
0.0350000000000000033 0.026249999999999999 0.026249999999999999 29 29 29
0.0350000000000000033 0.0175000000000000017 0.026249999999999999 34 34 34
0.0350000000000000033 0.00875000000000000083 0.026249999999999999 29 29 29
0.0350000000000000033 0.00875000000000000083 0.0175000000000000017 89 89 89
0.0350000000000000033 0 0.0175000000000000017 93 93 93
0.0350000000000000033 0 0.026249999999999999 29 29 29
0.0350000000000000033 -0.00875000000000000083 0.026249999999999999 29 29 29
0.0350000000000000033 0 0.00875000000000000083 182 182 182
0.0350000000000000033 -0.00875000000000000083 0.00875000000000000083 161 161 161
0.0350000000000000033 -0.00875000000000000083 0.0175000000000000017 80 80 80
0.0350000000000000033 -0.0175000000000000017 0.0175000000000000017 51 51 51
0.0350000000000000033 -0.0175000000000000017 0.026249999999999999 21 21 21
0.0350000000000000033 -0.026249999999999999 0.026249999999999999 21 21 21
0.0350000000000000033 -0.0175000000000000017 0.00875000000000000083 93 93 93
0.0350000000000000033 -0.026249999999999999 0.0175000000000000017 25 25 25
0.0350000000000000033 -0.026249999999999999 0.00875000000000000083 29 29 29
0.0350000000000000033 -0.0175000000000000017 0 93 93 93
0.0350000000000000033 -0.026249999999999999 0.0175000000000000017 25 25 25
0.0350000000000000033 -0.0350000000000000033 0.026249999999999999 21 21 21
0.0350000000000000033 -0.0350000000000000033 0.0175000000000000017 21 21 21
0.0350000000000000033 -0.026249999999999999 0.00875000000000000083 29 29 29
0.0350000000000000033 -0.0350000000000000033 0.0175000000000000017 21 21 21
0.0350000000000000033 -0.0350000000000000033 0.00875000000000000083 21 21 21
0.0350000000000000033 -0.026249999999999999 -0.00875000000000000083 29 29 29
0.0350000000000000033 -0.0350000000000000033 0 21 21 21
0.0350000000000000033 -0.0350000000000000033 -0.00875000000000000083 25 25 25
0.026249999999999999 0.026249999999999999 0.0350000000000000033 21 21 21
0.026249999999999999 0.0350000000000000033 0.0350000000000000033 21 21 21
0.0175000000000000017 0.0350000000000000033 0.0350000000000000033 25 25 25
0.0175000000000000017 0.026249999999999999 0.0350000000000000033 34 34 34
0.0175000000000000017 0.0175000000000000017 0.0350000000000000033 72 72 72
0.026249999999999999 0.0175000000000000017 0.0350000000000000033 29 29 29
0.00875000000000000083 0.0350000000000000033 0.0350000000000000033 46 46 46
0.026249999999999999 0.00875000000000000083 0.0350000000000000033 42 42 42
0.00875000000000000083 0.026249999999999999 0.0350000000000000033 63 63 63
0 0.0350000000000000033 0.0350000000000000033 51 51 51
0 0.026249999999999999 0.0350000000000000033 76 76 76
-0.00875000000000000083 0.0350000000000000033 0.0350000000000000033 51 51 51
0.00875000000000000083 0.0175000000000000017 0.0350000000000000033 148 148 148
-0.00875000000000000083 0.026249999999999999 0.0350000000000000033 72 72 72
-0.0175000000000000017 0.0350000000000000033 0.0350000000000000033 29 29 29
0.0175000000000000017 0.00875000000000000083 0.0350000000000000033 114 114 114
0.0175000000000000017 0 0.0350000000000000033 136 136 136
0.026249999999999999 0 0.0350000000000000033 46 46 46
0.026249999999999999 -0.00875000000000000083 0.0350000000000000033 46 46 46
0.00875000000000000083 0.00875000000000000083 0.0350000000000000033 212 212 212
0 0.0175000000000000017 0.0350000000000000033 161 161 161
0 0.00875000000000000083 0.0350000000000000033 229 229 229
-0.00875000000000000083 0.00875000000000000083 0.0350000000000000033 216 216 216
-0.00875000000000000083 0.0175000000000000017 0.0350000000000000033 136 136 136
-0.0175000000000000017 0.0175000000000000017 0.0350000000000000033 63 63 63
0.00875000000000000083 0 0.0350000000000000033 238 238 238
0 0 0.0350000000000000033 255 255 255
0.00875000000000000083 -0.00875000000000000083 0.0350000000000000033 229 229 229
-0.0175000000000000017 0.026249999999999999 0.0350000000000000033 38 38 38
-0.026249999999999999 0.026249999999999999 0.0350000000000000033 25 25 25
-0.026249999999999999 0.0350000000000000033 0.0350000000000000033 21 21 21
-0.0350000000000000033 0.026249999999999999 0.0350000000000000033 29 29 29
-0.0350000000000000033 0.0350000000000000033 0.0350000000000000033 25 25 25
-0.026249999999999999 0.0175000000000000017 0.0350000000000000033 46 46 46
-0.0350000000000000033 0.0175000000000000017 0.0350000000000000033 38 38 38
-0.0350000000000000033 0.00875000000000000083 0.0350000000000000033 38 38 38
-0.026249999999999999 0.00875000000000000083 0.0350000000000000033 68 68 68
-0.0350000000000000033 0 0.0350000000000000033 38 38 38
-0.0175000000000000017 0.00875000000000000083 0.0350000000000000033 119 119 119
-0.0175000000000000017 0 0.0350000000000000033 131 131 131
-0.026249999999999999 0 0.0350000000000000033 63 63 63
-0.0350000000000000033 -0.00875000000000000083 0.0350000000000000033 34 34 34
-0.026249999999999999 -0.00875000000000000083 0.0350000000000000033 59 59 59
-0.00875000000000000083 0 0.0350000000000000033 246 246 246
-0.00875000000000000083 -0.00875000000000000083 0.0350000000000000033 204 204 204
-0.026249999999999999 -0.0175000000000000017 0.0350000000000000033 34 34 34
-0.0175000000000000017 -0.0175000000000000017 0.0350000000000000033 68 68 68
-0.0350000000000000033 -0.0175000000000000017 0.0350000000000000033 21 21 21
-0.0350000000000000033 -0.026249999999999999 0.0350000000000000033 25 25 25
-0.0175000000000000017 -0.00875000000000000083 0.0350000000000000033 114 114 114
0 -0.00875000000000000083 0.0350000000000000033 242 242 242
-0.026249999999999999 -0.026249999999999999 0.0350000000000000033 21 21 21
-0.026249999999999999 -0.0350000000000000033 0.0350000000000000033 29 29 29
-0.0350000000000000033 -0.0350000000000000033 0.0350000000000000033 25 25 25
-0.0175000000000000017 -0.026249999999999999 0.0350000000000000033 29 29 29
-0.0175000000000000017 -0.0350000000000000033 0.0350000000000000033 34 34 34
-0.00875000000000000083 -0.026249999999999999 0.0350000000000000033 42 42 42
-0.00875000000000000083 -0.0350000000000000033 0.0350000000000000033 51 51 51
-0.00875000000000000083 -0.0175000000000000017 0.0350000000000000033 131 131 131
0 -0.026249999999999999 0.0350000000000000033 38 38 38
0 -0.0350000000000000033 0.0350000000000000033 51 51 51
0 -0.0175000000000000017 0.0350000000000000033 136 136 136
0.00875000000000000083 -0.0175000000000000017 0.0350000000000000033 136 136 136
0.0175000000000000017 -0.0175000000000000017 0.0350000000000000033 85 85 85
0.00875000000000000083 -0.026249999999999999 0.0350000000000000033 38 38 38
0.00875000000000000083 -0.0350000000000000033 0.0350000000000000033 46 46 46
0.0175000000000000017 -0.026249999999999999 0.0350000000000000033 25 25 25
0.0175000000000000017 -0.0350000000000000033 0.0350000000000000033 25 25 25
0.026249999999999999 -0.026249999999999999 0.0350000000000000033 21 21 21
0.026249999999999999 -0.0350000000000000033 0.0350000000000000033 21 21 21
0.026249999999999999 -0.0175000000000000017 0.0350000000000000033 38 38 38
0.0175000000000000017 -0.00875000000000000083 0.0350000000000000033 114 114 114
0.026249999999999999 0.0350000000000000033 -0.00875000000000000083 46 46 46
0.0350000000000000033 0.0350000000000000033 -0.00875000000000000083 42 42 42
0.0350000000000000033 0.0350000000000000033 -0.0175000000000000017 29 29 29
0.026249999999999999 0.0350000000000000033 -0.0175000000000000017 42 42 42
0.0175000000000000017 0.0350000000000000033 -0.0175000000000000017 55 55 55
0.026249999999999999 0.0350000000000000033 -0.026249999999999999 25 25 25
0.026249999999999999 0.0350000000000000033 -0.00875000000000000083 46 46 46
0.0175000000000000017 0.0350000000000000033 -0.00875000000000000083 76 76 76
0.00875000000000000083 0.0350000000000000033 -0.00875000000000000083 153 153 153
0.026249999999999999 0.0350000000000000033 0 42 42 42
0.0175000000000000017 0.0350000000000000033 0 80 80 80
0.0175000000000000017 0.0350000000000000033 0.00875000000000000083 85 85 85
0.00875000000000000083 0.0350000000000000033 0 161 161 161
0.026249999999999999 0.0350000000000000033 0.00875000000000000083 38 38 38
0.0175000000000000017 0.0350000000000000033 0.0175000000000000017 55 55 55
0.026249999999999999 0.0350000000000000033 0.0175000000000000017 29 29 29
0.026249999999999999 0.0350000000000000033 0.026249999999999999 21 21 21
0.0175000000000000017 0.0350000000000000033 0.026249999999999999 25 25 25
0.00875000000000000083 0.0350000000000000033 0.026249999999999999 59 59 59
0.00875000000000000083 0.0350000000000000033 0.00875000000000000083 153 153 153
0.00875000000000000083 0.0350000000000000033 0.0175000000000000017 114 114 114
0 0.0350000000000000033 0.0175000000000000017 136 136 136
0 0.0350000000000000033 0.00875000000000000083 178 178 178
0 0.0350000000000000033 0 178 178 178
0.0175000000000000017 0.0350000000000000033 0.0350000000000000033 25 25 25
0.026249999999999999 0.0350000000000000033 0.026249999999999999 21 21 21
0.0350000000000000033 0.0350000000000000033 0.0175000000000000017 25 25 25
0.0350000000000000033 0.0350000000000000033 0.026249999999999999 25 25 25
0.026249999999999999 0.0350000000000000033 0.0350000000000000033 21 21 21
0.00875000000000000083 0.0350000000000000033 0.0350000000000000033 46 46 46
0 0.0350000000000000033 0.0350000000000000033 51 51 51
0 0.0350000000000000033 0.026249999999999999 72 72 72
-0.00875000000000000083 0.0350000000000000033 0.026249999999999999 72 72 72
-0.00875000000000000083 0.0350000000000000033 0.0350000000000000033 51 51 51
-0.0175000000000000017 0.0350000000000000033 0.0350000000000000033 29 29 29
-0.00875000000000000083 0.0350000000000000033 0.0175000000000000017 131 131 131
-0.0175000000000000017 0.0350000000000000033 0.0175000000000000017 72 72 72
-0.00875000000000000083 0.0350000000000000033 0.00875000000000000083 170 170 170
-0.0175000000000000017 0.0350000000000000033 0.026249999999999999 38 38 38
-0.026249999999999999 0.0350000000000000033 0.026249999999999999 21 21 21
-0.026249999999999999 0.0350000000000000033 0.0350000000000000033 21 21 21
-0.0350000000000000033 0.0350000000000000033 0.0350000000000000033 25 25 25
-0.0350000000000000033 0.0350000000000000033 0.026249999999999999 25 25 25
-0.0350000000000000033 0.0350000000000000033 0.0175000000000000017 25 25 25
-0.026249999999999999 0.0350000000000000033 0.0175000000000000017 34 34 34
-0.026249999999999999 0.0350000000000000033 0.00875000000000000083 55 55 55
-0.0350000000000000033 0.0350000000000000033 0.00875000000000000083 38 38 38
-0.0175000000000000017 0.0350000000000000033 0.00875000000000000083 114 114 114
-0.026249999999999999 0.0350000000000000033 0 55 55 55
-0.0350000000000000033 0.0350000000000000033 0 38 38 38
-0.026249999999999999 0.0350000000000000033 -0.00875000000000000083 55 55 55
-0.0350000000000000033 0.0350000000000000033 -0.00875000000000000083 38 38 38
-0.0350000000000000033 0.0350000000000000033 -0.0175000000000000017 25 25 25
-0.00875000000000000083 0.0350000000000000033 0 170 170 170
-0.0175000000000000017 0.0350000000000000033 0 119 119 119
-0.0175000000000000017 0.0350000000000000033 -0.00875000000000000083 110 110 110
-0.0175000000000000017 0.0350000000000000033 -0.0175000000000000017 68 68 68
-0.00875000000000000083 0.0350000000000000033 -0.00875000000000000083 161 161 161
-0.026249999999999999 0.0350000000000000033 -0.0175000000000000017 34 34 34
-0.026249999999999999 0.0350000000000000033 -0.026249999999999999 21 21 21
-0.0350000000000000033 0.0350000000000000033 -0.026249999999999999 21 21 21
-0.026249999999999999 0.0350000000000000033 -0.0350000000000000033 21 21 21
-0.0350000000000000033 0.0350000000000000033 -0.0350000000000000033 21 21 21
-0.0175000000000000017 0.0350000000000000033 -0.026249999999999999 29 29 29
-0.0175000000000000017 0.0350000000000000033 -0.0350000000000000033 29 29 29
-0.00875000000000000083 0.0350000000000000033 -0.0350000000000000033 38 38 38
-0.00875000000000000083 0.0350000000000000033 -0.026249999999999999 34 34 34
0 0.0350000000000000033 -0.0350000000000000033 29 29 29
0 0.0350000000000000033 -0.00875000000000000083 165 165 165
0 0.0350000000000000033 -0.0175000000000000017 102 102 102
-0.00875000000000000083 0.0350000000000000033 -0.0175000000000000017 97 97 97
0 0.0350000000000000033 -0.026249999999999999 34 34 34
0.00875000000000000083 0.0350000000000000033 -0.0350000000000000033 29 29 29
0.00875000000000000083 0.0350000000000000033 -0.0175000000000000017 93 93 93
0.00875000000000000083 0.0350000000000000033 -0.026249999999999999 29 29 29
0.0175000000000000017 0.0350000000000000033 -0.026249999999999999 25 25 25
0.0175000000000000017 0.0350000000000000033 -0.0350000000000000033 25 25 25
0.026249999999999999 0.0350000000000000033 -0.0350000000000000033 21 21 21
0.0350000000000000033 0.0350000000000000033 -0.0350000000000000033 21 21 21
0.0350000000000000033 0.0350000000000000033 -0.026249999999999999 21 21 21
0.026249999999999999 0.0350000000000000033 -0.0175000000000000017 42 42 42
0.0350000000000000033 0.0350000000000000033 -0.0175000000000000017 29 29 29
-0.0350000000000000033 -0.0350000000000000033 -0.026249999999999999 21 21 21
-0.0350000000000000033 -0.026249999999999999 -0.0350000000000000033 25 25 25
-0.0350000000000000033 -0.0350000000000000033 -0.0350000000000000033 25 25 25
-0.0350000000000000033 -0.026249999999999999 -0.026249999999999999 21 21 21
-0.0350000000000000033 -0.026249999999999999 -0.0175000000000000017 21 21 21
-0.0350000000000000033 -0.0175000000000000017 -0.0175000000000000017 51 51 51
-0.0350000000000000033 -0.0350000000000000033 -0.0175000000000000017 21 21 21
-0.0350000000000000033 -0.0350000000000000033 -0.00875000000000000083 25 25 25
-0.0350000000000000033 -0.0175000000000000017 -0.026249999999999999 29 29 29
-0.0350000000000000033 -0.0175000000000000017 -0.0350000000000000033 29 29 29
-0.0350000000000000033 -0.00875000000000000083 -0.0350000000000000033 34 34 34
-0.0350000000000000033 -0.026249999999999999 -0.00875000000000000083 25 25 25
-0.0350000000000000033 -0.00875000000000000083 -0.026249999999999999 51 51 51
-0.0350000000000000033 -0.026249999999999999 0 29 29 29
-0.0350000000000000033 -0.0350000000000000033 0 25 25 25
-0.0350000000000000033 -0.0350000000000000033 0.00875000000000000083 25 25 25
-0.0350000000000000033 0 -0.026249999999999999 55 55 55
-0.0350000000000000033 0 -0.0175000000000000017 106 106 106
-0.0350000000000000033 0 -0.0350000000000000033 38 38 38
-0.0350000000000000033 0.00875000000000000083 -0.026249999999999999 55 55 55
-0.0350000000000000033 0.00875000000000000083 -0.0350000000000000033 38 38 38
-0.0350000000000000033 -0.00875000000000000083 -0.0175000000000000017 110 110 110
-0.0350000000000000033 -0.00875000000000000083 -0.00875000000000000083 178 178 178
-0.0350000000000000033 -0.0175000000000000017 -0.00875000000000000083 72 72 72
-0.0350000000000000033 -0.0175000000000000017 0 80 80 80
-0.0350000000000000033 -0.00875000000000000083 0 187 187 187
-0.0350000000000000033 -0.0175000000000000017 0.00875000000000000083 93 93 93
-0.0350000000000000033 0.0175000000000000017 -0.026249999999999999 38 38 38
-0.0350000000000000033 0.0175000000000000017 -0.0175000000000000017 55 55 55
-0.0350000000000000033 0.0175000000000000017 -0.0350000000000000033 25 25 25
-0.0350000000000000033 0.026249999999999999 -0.0350000000000000033 25 25 25
-0.0350000000000000033 0.026249999999999999 -0.026249999999999999 29 29 29
-0.0350000000000000033 0.0350000000000000033 -0.026249999999999999 21 21 21
-0.0350000000000000033 0.0350000000000000033 -0.0350000000000000033 21 21 21
-0.0350000000000000033 0.0350000000000000033 -0.0175000000000000017 25 25 25
-0.0350000000000000033 0.026249999999999999 -0.0175000000000000017 38 38 38
-0.0350000000000000033 0.026249999999999999 -0.00875000000000000083 93 93 93
-0.0350000000000000033 0.0350000000000000033 -0.00875000000000000083 38 38 38
-0.0350000000000000033 0.0350000000000000033 0 38 38 38
-0.0350000000000000033 0.00875000000000000083 -0.0175000000000000017 89 89 89
-0.0350000000000000033 0.00875000000000000083 -0.00875000000000000083 182 182 182
-0.0350000000000000033 0.0175000000000000017 -0.00875000000000000083 140 140 140
-0.0350000000000000033 0.026249999999999999 0 106 106 106
-0.0350000000000000033 0 -0.00875000000000000083 195 195 195
-0.0350000000000000033 0 0 204 204 204
-0.0350000000000000033 0.0175000000000000017 0 153 153 153
-0.0350000000000000033 0.026249999999999999 0.00875000000000000083 102 102 102
-0.0350000000000000033 0.0350000000000000033 0.00875000000000000083 38 38 38
-0.0350000000000000033 0.0350000000000000033 0.0175000000000000017 25 25 25
-0.0350000000000000033 0.00875000000000000083 0 199 199 199
-0.0350000000000000033 0.0175000000000000017 0.00875000000000000083 148 148 148
-0.0350000000000000033 0.0175000000000000017 0.0175000000000000017 93 93 93
-0.0350000000000000033 -0.00875000000000000083 0.00875000000000000083 187 187 187
-0.0350000000000000033 -0.0175000000000000017 0.0175000000000000017 51 51 51
-0.0350000000000000033 0.026249999999999999 0.0175000000000000017 63 63 63
-0.0350000000000000033 0.026249999999999999 0.026249999999999999 29 29 29
-0.0350000000000000033 0.0350000000000000033 0.026249999999999999 25 25 25
-0.0350000000000000033 0.0350000000000000033 0.0350000000000000033 25 25 25
-0.0350000000000000033 0.026249999999999999 0.0350000000000000033 29 29 29
-0.0350000000000000033 0.0175000000000000017 0.026249999999999999 42 42 42
-0.0350000000000000033 0.0175000000000000017 0.0350000000000000033 38 38 38
-0.0350000000000000033 0.00875000000000000083 0.026249999999999999 46 46 46
-0.0350000000000000033 0.00875000000000000083 0.0350000000000000033 38 38 38
-0.0350000000000000033 -0.026249999999999999 0.00875000000000000083 29 29 29
-0.0350000000000000033 -0.026249999999999999 0.0175000000000000017 25 25 25
-0.0350000000000000033 -0.0350000000000000033 0.0175000000000000017 25 25 25
-0.0350000000000000033 -0.0350000000000000033 0.026249999999999999 21 21 21
-0.0350000000000000033 -0.026249999999999999 0.026249999999999999 21 21 21
-0.0350000000000000033 -0.026249999999999999 0.0350000000000000033 25 25 25
-0.0350000000000000033 -0.0350000000000000033 0.0350000000000000033 25 25 25
-0.0350000000000000033 -0.0175000000000000017 0.0350000000000000033 21 21 21
-0.0350000000000000033 -0.0175000000000000017 0.026249999999999999 25 25 25
-0.0350000000000000033 -0.00875000000000000083 0.0350000000000000033 34 34 34
-0.0350000000000000033 -0.00875000000000000083 0.026249999999999999 42 42 42
-0.0350000000000000033 0 0.0350000000000000033 38 38 38
-0.0350000000000000033 -0.00875000000000000083 0.0175000000000000017 102 102 102
-0.0350000000000000033 0 0.0175000000000000017 114 114 114
-0.0350000000000000033 0 0.026249999999999999 46 46 46
-0.0350000000000000033 0 0.00875000000000000083 199 199 199
-0.0350000000000000033 0.00875000000000000083 0.00875000000000000083 191 191 191
-0.0350000000000000033 0.00875000000000000083 0.0175000000000000017 119 119 119
0.026249999999999999 0.0350000000000000033 0.0175000000000000017 29 29 29
0.0350000000000000033 0.0350000000000000033 0.0175000000000000017 25 25 25
0.0350000000000000033 0.0350000000000000033 0.00875000000000000083 42 42 42
0.026249999999999999 -0.0350000000000000033 -0.0350000000000000033 21 21 21
0.0350000000000000033 -0.026249999999999999 -0.0350000000000000033 21 21 21
0.0350000000000000033 -0.0350000000000000033 -0.0350000000000000033 21 21 21
0.026249999999999999 -0.026249999999999999 -0.0350000000000000033 21 21 21
0.0175000000000000017 -0.026249999999999999 -0.0350000000000000033 34 34 34
0.0175000000000000017 -0.0175000000000000017 -0.0350000000000000033 68 68 68
0.0175000000000000017 -0.0350000000000000033 -0.0350000000000000033 21 21 21
0.026249999999999999 -0.0175000000000000017 -0.0350000000000000033 38 38 38
0.0350000000000000033 -0.0175000000000000017 -0.0350000000000000033 21 21 21
0.0350000000000000033 -0.00875000000000000083 -0.0350000000000000033 29 29 29
0.00875000000000000083 -0.026249999999999999 -0.0350000000000000033 51 51 51
0.00875000000000000083 -0.0350000000000000033 -0.0350000000000000033 29 29 29
0.026249999999999999 -0.00875000000000000083 -0.0350000000000000033 55 55 55
0 -0.026249999999999999 -0.0350000000000000033 55 55 55
0 -0.0350000000000000033 -0.0350000000000000033 29 29 29
0.026249999999999999 0 -0.0350000000000000033 55 55 55
0.0175000000000000017 0 -0.0350000000000000033 148 148 148
0.0350000000000000033 0 -0.0350000000000000033 29 29 29
0.026249999999999999 0.00875000000000000083 -0.0350000000000000033 51 51 51
0.0350000000000000033 0.00875000000000000083 -0.0350000000000000033 25 25 25
0.0175000000000000017 -0.00875000000000000083 -0.0350000000000000033 119 119 119
0.00875000000000000083 -0.00875000000000000083 -0.0350000000000000033 199 199 199
0.00875000000000000083 -0.0175000000000000017 -0.0350000000000000033 110 110 110
0 -0.0175000000000000017 -0.0350000000000000033 114 114 114
-0.00875000000000000083 -0.026249999999999999 -0.0350000000000000033 55 55 55
-0.00875000000000000083 -0.0350000000000000033 -0.0350000000000000033 34 34 34
0 -0.00875000000000000083 -0.0350000000000000033 204 204 204
-0.00875000000000000083 -0.0175000000000000017 -0.0350000000000000033 119 119 119
-0.0175000000000000017 -0.0175000000000000017 -0.0350000000000000033 76 76 76
-0.0175000000000000017 -0.026249999999999999 -0.0350000000000000033 38 38 38
-0.0175000000000000017 -0.0350000000000000033 -0.0350000000000000033 29 29 29
-0.026249999999999999 -0.026249999999999999 -0.0350000000000000033 29 29 29
-0.026249999999999999 -0.0350000000000000033 -0.0350000000000000033 25 25 25
-0.00875000000000000083 -0.00875000000000000083 -0.0350000000000000033 187 187 187
0 0 -0.0350000000000000033 250 250 250
-0.0350000000000000033 -0.026249999999999999 -0.0350000000000000033 25 25 25
-0.0350000000000000033 -0.0350000000000000033 -0.0350000000000000033 25 25 25
-0.0350000000000000033 -0.0175000000000000017 -0.0350000000000000033 29 29 29
-0.026249999999999999 -0.0175000000000000017 -0.0350000000000000033 42 42 42
-0.0350000000000000033 -0.00875000000000000083 -0.0350000000000000033 34 34 34
-0.026249999999999999 -0.00875000000000000083 -0.0350000000000000033 59 59 59
-0.0350000000000000033 0 -0.0350000000000000033 38 38 38
0.00875000000000000083 0 -0.0350000000000000033 238 238 238
0.00875000000000000083 0.00875000000000000083 -0.0350000000000000033 216 216 216
-0.0175000000000000017 -0.00875000000000000083 -0.0350000000000000033 119 119 119
-0.0175000000000000017 0 -0.0350000000000000033 119 119 119
-0.026249999999999999 0 -0.0350000000000000033 68 68 68
-0.0350000000000000033 0.00875000000000000083 -0.0350000000000000033 38 38 38
-0.026249999999999999 0.00875000000000000083 -0.0350000000000000033 68 68 68
-0.0350000000000000033 0.0175000000000000017 -0.0350000000000000033 25 25 25
-0.00875000000000000083 0 -0.0350000000000000033 212 212 212
0 0.00875000000000000083 -0.0350000000000000033 229 229 229
-0.00875000000000000083 0.00875000000000000083 -0.0350000000000000033 208 208 208
-0.0175000000000000017 0.00875000000000000083 -0.0350000000000000033 119 119 119
-0.0175000000000000017 0.0175000000000000017 -0.0350000000000000033 68 68 68
-0.026249999999999999 0.0175000000000000017 -0.0350000000000000033 46 46 46
-0.0350000000000000033 0.026249999999999999 -0.0350000000000000033 25 25 25
-0.026249999999999999 0.026249999999999999 -0.0350000000000000033 25 25 25
-0.0350000000000000033 0.0350000000000000033 -0.0350000000000000033 21 21 21
-0.026249999999999999 0.0350000000000000033 -0.0350000000000000033 21 21 21
-0.0175000000000000017 0.0350000000000000033 -0.0350000000000000033 29 29 29
-0.00875000000000000083 0.0175000000000000017 -0.0350000000000000033 114 114 114
-0.0175000000000000017 0.026249999999999999 -0.0350000000000000033 38 38 38
-0.00875000000000000083 0.026249999999999999 -0.0350000000000000033 63 63 63
-0.00875000000000000083 0.0350000000000000033 -0.0350000000000000033 38 38 38
0 0.0350000000000000033 -0.0350000000000000033 29 29 29
0 0.0175000000000000017 -0.0350000000000000033 148 148 148
0 0.026249999999999999 -0.0350000000000000033 76 76 76
0.00875000000000000083 0.026249999999999999 -0.0350000000000000033 72 72 72
0.00875000000000000083 0.0350000000000000033 -0.0350000000000000033 29 29 29
0.0175000000000000017 0.0350000000000000033 -0.0350000000000000033 25 25 25
0.00875000000000000083 0.0175000000000000017 -0.0350000000000000033 144 144 144
0.0175000000000000017 0.0175000000000000017 -0.0350000000000000033 89 89 89
0.0175000000000000017 0.026249999999999999 -0.0350000000000000033 46 46 46
0.026249999999999999 0.026249999999999999 -0.0350000000000000033 21 21 21
0.026249999999999999 0.0350000000000000033 -0.0350000000000000033 21 21 21
0.0350000000000000033 0.026249999999999999 -0.0350000000000000033 21 21 21
0.0350000000000000033 0.0350000000000000033 -0.0350000000000000033 21 21 21
0.026249999999999999 0.0175000000000000017 -0.0350000000000000033 29 29 29
0.0350000000000000033 0.0175000000000000017 -0.0350000000000000033 21 21 21
0.0175000000000000017 0.00875000000000000083 -0.0350000000000000033 148 148 148
0.026249999999999999 0.0350000000000000033 0.00875000000000000083 38 38 38
0.0350000000000000033 0.0350000000000000033 0.00875000000000000083 42 42 42
0.0350000000000000033 0.0350000000000000033 0 38 38 38
0.026249999999999999 0.0350000000000000033 0.0350000000000000033 21 21 21
0.0350000000000000033 0.026249999999999999 0.0350000000000000033 25 25 25
0.0350000000000000033 0.0350000000000000033 0.0350000000000000033 25 25 25
0.026249999999999999 0.026249999999999999 0.0350000000000000033 21 21 21
0.0350000000000000033 0.0175000000000000017 0.0350000000000000033 29 29 29
0.026249999999999999 0.0175000000000000017 0.0350000000000000033 29 29 29
0.026249999999999999 0.00875000000000000083 0.0350000000000000033 42 42 42
0.0350000000000000033 0.00875000000000000083 0.0350000000000000033 29 29 29
0.0350000000000000033 0 0.0350000000000000033 29 29 29
0.026249999999999999 0 0.0350000000000000033 46 46 46
0.026249999999999999 -0.00875000000000000083 0.0350000000000000033 46 46 46
0.0350000000000000033 -0.00875000000000000083 0.0350000000000000033 29 29 29
0.0350000000000000033 -0.0175000000000000017 0.0350000000000000033 21 21 21
0.026249999999999999 -0.0175000000000000017 0.0350000000000000033 38 38 38
0.026249999999999999 -0.026249999999999999 0.0350000000000000033 21 21 21
0.0350000000000000033 -0.026249999999999999 0.0350000000000000033 21 21 21
0.026249999999999999 -0.0350000000000000033 0.0350000000000000033 21 21 21
0.0350000000000000033 -0.0350000000000000033 0.0350000000000000033 21 21 21
0.0350000000000000033 0.0350000000000000033 0.0350000000000000033 25 25 25
0.0350000000000000033 0.0350000000000000033 0.026249999999999999 25 25 25
0.026249999999999999 0.0350000000000000033 0.026249999999999999 21 21 21
0.026249999999999999 0.0350000000000000033 0.0350000000000000033 21 21 21
0.0350000000000000033 0.0350000000000000033 0.026249999999999999 25 25 25
0.0350000000000000033 0.0350000000000000033 0.0350000000000000033 25 25 25
0.0350000000000000033 0.026249999999999999 0.0350000000000000033 25 25 25
0.0350000000000000033 0.026249999999999999 0.026249999999999999 29 29 29
0.0350000000000000033 0.0175000000000000017 0.026249999999999999 34 34 34
0.0350000000000000033 0.0175000000000000017 0.0350000000000000033 29 29 29
0.0350000000000000033 0.00875000000000000083 0.0350000000000000033 29 29 29
0.0350000000000000033 0.00875000000000000083 0.026249999999999999 29 29 29
0.0350000000000000033 0 0.0350000000000000033 29 29 29
0.0350000000000000033 0 0.026249999999999999 29 29 29
0.0350000000000000033 -0.00875000000000000083 0.0350000000000000033 29 29 29
0.0350000000000000033 -0.00875000000000000083 0.026249999999999999 29 29 29
0.0350000000000000033 -0.0175000000000000017 0.026249999999999999 21 21 21
0.0350000000000000033 -0.0175000000000000017 0.0350000000000000033 21 21 21
0.0350000000000000033 -0.026249999999999999 0.0350000000000000033 21 21 21
0.0350000000000000033 -0.026249999999999999 0.026249999999999999 21 21 21
0.0350000000000000033 -0.0350000000000000033 0.0350000000000000033 21 21 21
0.0350000000000000033 -0.0350000000000000033 0.026249999999999999 21 21 21
0.0350000000000000033 -0.0350000000000000033 0.0175000000000000017 21 21 21
0.026249999999999999 -0.0350000000000000033 0.00875000000000000083 34 34 34
0.0350000000000000033 -0.0350000000000000033 0.00875000000000000083 21 21 21
0.026249999999999999 -0.0350000000000000033 0.0175000000000000017 25 25 25
0.026249999999999999 -0.0350000000000000033 0.026249999999999999 21 21 21
0.0350000000000000033 -0.0350000000000000033 0.026249999999999999 21 21 21
0.0350000000000000033 -0.0350000000000000033 0.0350000000000000033 21 21 21
0.026249999999999999 -0.0350000000000000033 0.0350000000000000033 21 21 21
0.026249999999999999 -0.0350000000000000033 0.026249999999999999 21 21 21
0.0350000000000000033 -0.0350000000000000033 0.026249999999999999 21 21 21
0.0350000000000000033 -0.0350000000000000033 0.00875000000000000083 21 21 21
0.026249999999999999 -0.0350000000000000033 0.00875000000000000083 34 34 34
0.026249999999999999 -0.0350000000000000033 0 42 42 42
0.0350000000000000033 -0.0350000000000000033 0 21 21 21
0.0350000000000000033 -0.0350000000000000033 0 21 21 21
0.026249999999999999 -0.0350000000000000033 0 42 42 42
0.026249999999999999 -0.0350000000000000033 -0.00875000000000000083 42 42 42
0.0350000000000000033 -0.0350000000000000033 -0.00875000000000000083 25 25 25
0.0350000000000000033 -0.0350000000000000033 -0.0175000000000000017 21 21 21
0.026249999999999999 -0.0350000000000000033 -0.0175000000000000017 38 38 38
0.026249999999999999 -0.0350000000000000033 -0.026249999999999999 25 25 25
0.0350000000000000033 -0.0350000000000000033 -0.026249999999999999 21 21 21
0.0350000000000000033 -0.026249999999999999 -0.026249999999999999 21 21 21
0.0350000000000000033 -0.0350000000000000033 -0.0175000000000000017 21 21 21
0.0350000000000000033 -0.0350000000000000033 -0.026249999999999999 21 21 21
0.0175000000000000017 -0.0350000000000000033 0.0350000000000000033 25 25 25
0.026249999999999999 -0.0350000000000000033 0.026249999999999999 21 21 21
0.026249999999999999 -0.0350000000000000033 0.0350000000000000033 21 21 21
0.0175000000000000017 -0.0350000000000000033 0.026249999999999999 25 25 25
0.00875000000000000083 -0.0350000000000000033 0.026249999999999999 59 59 59
0.0175000000000000017 -0.0350000000000000033 0.0175000000000000017 34 34 34
0.00875000000000000083 -0.0350000000000000033 0.0350000000000000033 46 46 46
0.026249999999999999 -0.0350000000000000033 0.0175000000000000017 25 25 25
0.026249999999999999 -0.0350000000000000033 0.00875000000000000083 34 34 34
0 -0.0350000000000000033 0.0350000000000000033 51 51 51
0.0175000000000000017 -0.0350000000000000033 0.00875000000000000083 72 72 72
0.026249999999999999 -0.0350000000000000033 0 42 42 42
0.0175000000000000017 -0.0350000000000000033 0 85 85 85
0.026249999999999999 -0.0350000000000000033 -0.00875000000000000083 42 42 42
0.00875000000000000083 -0.0350000000000000033 0.00875000000000000083 161 161 161
0.00875000000000000083 -0.0350000000000000033 0 157 157 157
0.0175000000000000017 -0.0350000000000000033 -0.00875000000000000083 89 89 89
0.0175000000000000017 -0.0350000000000000033 -0.0175000000000000017 55 55 55
0.026249999999999999 -0.0350000000000000033 -0.0175000000000000017 38 38 38
0.026249999999999999 -0.0350000000000000033 -0.026249999999999999 25 25 25
0.00875000000000000083 -0.0350000000000000033 -0.00875000000000000083 157 157 157
0.00875000000000000083 -0.0350000000000000033 0.0175000000000000017 97 97 97
0 -0.0350000000000000033 0.0175000000000000017 106 106 106
0 -0.0350000000000000033 0 178 178 178
0 -0.0350000000000000033 0.026249999999999999 72 72 72
-0.00875000000000000083 -0.0350000000000000033 0.026249999999999999 68 68 68
-0.00875000000000000083 -0.0350000000000000033 0.0350000000000000033 51 51 51
-0.0175000000000000017 -0.0350000000000000033 0.0350000000000000033 34 34 34
0 -0.0350000000000000033 0.00875000000000000083 178 178 178
-0.00875000000000000083 -0.0350000000000000033 0.00875000000000000083 165 165 165
-0.00875000000000000083 -0.0350000000000000033 0.0175000000000000017 110 110 110
-0.0175000000000000017 -0.0350000000000000033 0.0175000000000000017 68 68 68
-0.0175000000000000017 -0.0350000000000000033 0.026249999999999999 46 46 46
-0.026249999999999999 -0.0350000000000000033 0.026249999999999999 29 29 29
-0.026249999999999999 -0.0350000000000000033 0.0350000000000000033 29 29 29
-0.0350000000000000033 -0.0350000000000000033 0.0350000000000000033 25 25 25
-0.0350000000000000033 -0.0350000000000000033 0.026249999999999999 21 21 21
-0.0350000000000000033 -0.0350000000000000033 0.0175000000000000017 25 25 25
-0.00875000000000000083 -0.0350000000000000033 0 161 161 161
-0.00875000000000000083 -0.0350000000000000033 -0.00875000000000000083 157 157 157
-0.026249999999999999 -0.0350000000000000033 0.0175000000000000017 38 38 38
-0.026249999999999999 -0.0350000000000000033 0.00875000000000000083 59 59 59
-0.0350000000000000033 -0.0350000000000000033 0.00875000000000000083 25 25 25
-0.0350000000000000033 -0.0350000000000000033 0 25 25 25
-0.0175000000000000017 -0.0350000000000000033 0.00875000000000000083 114 114 114
-0.026249999999999999 -0.0350000000000000033 0 59 59 59
-0.0175000000000000017 -0.0350000000000000033 0 119 119 119
-0.026249999999999999 -0.0350000000000000033 -0.00875000000000000083 59 59 59
-0.0350000000000000033 -0.0350000000000000033 -0.00875000000000000083 25 25 25
-0.0350000000000000033 -0.0350000000000000033 -0.0175000000000000017 21 21 21
-0.0175000000000000017 -0.0350000000000000033 -0.00875000000000000083 110 110 110
-0.0175000000000000017 -0.0350000000000000033 -0.0175000000000000017 63 63 63
-0.026249999999999999 -0.0350000000000000033 -0.0175000000000000017 34 34 34
-0.026249999999999999 -0.0350000000000000033 -0.026249999999999999 21 21 21
-0.0350000000000000033 -0.0350000000000000033 -0.026249999999999999 21 21 21
-0.0350000000000000033 -0.0350000000000000033 -0.0350000000000000033 25 25 25
-0.026249999999999999 -0.0350000000000000033 -0.0350000000000000033 25 25 25
-0.0175000000000000017 -0.0350000000000000033 -0.026249999999999999 25 25 25
-0.0175000000000000017 -0.0350000000000000033 -0.0350000000000000033 29 29 29
-0.00875000000000000083 -0.0350000000000000033 -0.026249999999999999 34 34 34
-0.00875000000000000083 -0.0350000000000000033 -0.0350000000000000033 34 34 34
-0.00875000000000000083 -0.0350000000000000033 -0.0175000000000000017 97 97 97
0 -0.0350000000000000033 -0.0175000000000000017 106 106 106
0 -0.0350000000000000033 -0.026249999999999999 38 38 38
0 -0.0350000000000000033 -0.0350000000000000033 29 29 29
0.00875000000000000083 -0.0350000000000000033 -0.026249999999999999 34 34 34
0.00875000000000000083 -0.0350000000000000033 -0.0350000000000000033 29 29 29
0 -0.0350000000000000033 -0.00875000000000000083 165 165 165
0.00875000000000000083 -0.0350000000000000033 -0.0175000000000000017 97 97 97
0.0175000000000000017 -0.0350000000000000033 -0.026249999999999999 34 34 34
0.0175000000000000017 -0.0350000000000000033 -0.0350000000000000033 21 21 21
0.026249999999999999 -0.0350000000000000033 -0.0350000000000000033 21 21 21
0.0350000000000000033 -0.0350000000000000033 -0.026249999999999999 21 21 21
0.0350000000000000033 -0.0350000000000000033 -0.0350000000000000033 21 21 21
0.0350000000000000033 -0.0350000000000000033 -0.026249999999999999 21 21 21
0.0350000000000000033 -0.0350000000000000033 -0.0350000000000000033 21 21 21
0.0350000000000000033 -0.026249999999999999 -0.0350000000000000033 21 21 21
0.0350000000000000033 -0.026249999999999999 -0.026249999999999999 21 21 21
0.0350000000000000033 -0.0350000000000000033 0.00875000000000000083 21 21 21
0.0350000000000000033 -0.0350000000000000033 0 21 21 21
0.0350000000000000033 -0.026249999999999999 0 29 29 29
0.0350000000000000033 -0.026249999999999999 0.00875000000000000083 29 29 29
0.0350000000000000033 -0.026249999999999999 -0.0175000000000000017 25 25 25
0.0350000000000000033 -0.0350000000000000033 -0.00875000000000000083 25 25 25
0.0350000000000000033 -0.0350000000000000033 -0.0175000000000000017 21 21 21
0.0350000000000000033 0.026249999999999999 0.026249999999999999 29 29 29
0.0350000000000000033 0.0350000000000000033 0.0175000000000000017 25 25 25
0.0350000000000000033 0.0350000000000000033 0.026249999999999999 25 25 25
0.0350000000000000033 0.026249999999999999 0.00875000000000000083 89 89 89
0.0350000000000000033 0.0350000000000000033 0.00875000000000000083 42 42 42
0.0350000000000000033 0.0350000000000000033 0 38 38 38
0.0350000000000000033 0.026249999999999999 -0.00875000000000000083 102 102 102
0.0350000000000000033 0.0350000000000000033 -0.00875000000000000083 42 42 42
0.0350000000000000033 0.0350000000000000033 -0.0175000000000000017 29 29 29
0.0350000000000000033 0.026249999999999999 -0.026249999999999999 21 21 21
0.0350000000000000033 0.0350000000000000033 -0.026249999999999999 21 21 21
0.0350000000000000033 0.0350000000000000033 -0.0350000000000000033 21 21 21
0.026249999999999999 0.0350000000000000033 0 42 42 42
0.0350000000000000033 0.0350000000000000033 0 38 38 38
0.0350000000000000033 0.0350000000000000033 -0.00875000000000000083 42 42 42
3 0 1 2 0
3 0 2 3 0
3 4 0 3 0
3 3 2 5 0
3 4 6 0 0
3 3 5 7 0
3 7 4 3 0
3 7 5 8 0
3 9 6 4 0
3 7 8 10 0
3 7 10 11 0
3 12 10 8 0
3 12 13 10 0
3 13 11 10 0
3 13 12 14 0
3 7 15 4 0
3 7 11 15 0
3 4 15 16 0
3 16 15 11 0
3 9 4 17 0
3 4 16 17 0
3 13 14 18 0
3 19 13 18 0
3 18 14 20 0
3 18 20 21 0
3 21 19 18 0
3 21 22 19 0
3 13 23 11 0
3 19 23 13 0
3 11 23 24 0
3 24 23 19 0
3 17 25 9 0
3 16 11 26 0
3 11 24 26 0
3 19 22 27 0
3 19 27 28 0
3 24 19 28 0
3 28 27 29 0
3 26 24 30 0
3 28 30 24 0
3 16 26 31 0
3 26 30 31 0
3 31 30 32 0
3 28 33 30 0
3 28 29 33 0
3 32 30 33 0
3 17 16 34 0
3 16 31 34 0
3 35 33 29 0
3 32 33 35 0
3 36 32 35 0
3 35 29 37 0
3 37 36 35 0
3 37 38 36 0
3 36 38 39 0
3 36 39 40 0
3 41 36 40 0
3 41 42 36 0
3 36 42 32 0
3 43 42 41 0
3 32 42 43 0
3 43 41 44 0
3 45 43 44 0
3 31 32 46 0
3 32 43 46 0
3 47 31 46 0
3 47 46 43 0
3 47 34 31 0
3 45 48 43 0
3 47 43 48 0
3 49 48 45 0
3 47 48 49 0
3 49 45 50 0
3 51 49 50 0
3 52 34 47 0
3 47 49 52 0
3 51 53 49 0
3 49 53 54 0
3 49 54 52 0
3 52 55 34 0
3 54 55 52 0
3 17 34 55 0
3 54 25 55 0
3 17 55 25 0
3 56 51 57 0
3 56 57 58 0
3 59 53 60 0
3 59 60 61 0
3 62 25 63 0
3 62 63 64 0
3 65 66 67 0
3 65 67 68 0
3 65 68 69 0
3 65 69 70 0
3 68 67 71 0
3 69 72 70 0
3 68 71 73 0
3 69 68 73 0
3 74 73 71 0
3 74 75 73 0
3 75 74 76 0
3 69 73 77 0
3 77 73 75 0
3 75 76 78 0
3 79 78 76 0
3 69 80 72 0
3 72 80 81 0
3 72 81 82 0
3 83 82 81 0
3 84 80 69 0
3 84 69 77 0
3 81 80 84 0
3 77 75 85 0
3 77 86 84 0
3 77 85 86 0
3 87 86 85 0
3 88 85 75 0
3 88 75 78 0
3 87 85 88 0
3 78 89 88 0
3 89 87 88 0
3 90 84 86 0
3 81 84 90 0
3 90 86 91 0
3 91 86 87 0
3 92 81 90 0
3 92 90 91 0
3 78 93 89 0
3 79 93 78 0
3 94 93 79 0
3 89 93 94 0
3 94 79 95 0
3 95 96 94 0
3 95 97 96 0
3 98 94 96 0
3 89 94 98 0
3 98 96 99 0
3 98 99 100 0
3 98 100 101 0
3 101 89 98 0
3 101 100 102 0
3 101 103 89 0
3 104 103 101 0
3 89 103 87 0
3 87 103 104 0
3 101 102 105 0
3 104 101 105 0
3 105 102 106 0
3 105 106 107 0
3 107 104 105 0
3 87 104 108 0
3 91 87 108 0
3 109 108 104 0
3 109 91 108 0
3 110 107 106 0
3 111 107 110 0
3 110 106 112 0
3 110 112 113 0
3 107 114 104 0
3 109 104 114 0
3 111 114 107 0
3 109 114 111 0
3 109 115 91 0
3 92 91 115 0
3 110 113 116 0
3 116 111 110 0
3 117 116 113 0
3 117 113 118 0
3 119 116 117 0
3 116 119 111 0
3 119 117 120 0
3 121 119 120 0
3 111 119 121 0
3 121 120 122 0
3 109 111 123 0
3 123 115 109 0
3 111 121 123 0
3 122 124 121 0
3 122 125 124 0
3 121 126 123 0
3 123 126 115 0
3 121 124 126 0
3 127 115 126 0
3 127 126 124 0
3 127 92 115 0
3 128 92 127 0
3 129 124 125 0
3 127 124 129 0
3 129 128 127 0
3 129 125 130 0
3 131 129 130 0
3 129 131 128 0
3 131 130 132 0
3 133 131 132 0
3 128 131 133 0
3 133 132 134 0
3 128 133 135 0
3 83 128 135 0
3 128 136 92 0
3 83 136 128 0
3 92 136 81 0
3 83 81 136 0
3 137 138 139 0
3 137 139 140 0
3 141 140 142 0
3 143 140 141 0
3 143 141 144 0
3 141 145 144 0
3 144 146 143 0
3 145 147 144 0
3 144 147 146 0
3 148 146 147 0
3 145 149 147 0
3 148 147 149 0
3 148 150 146 0
3 151 150 148 0
3 151 152 150 0
3 153 152 151 0
3 153 151 154 0
3 151 155 154 0
3 156 151 148 0
3 148 149 156 0
3 151 157 155 0
3 156 157 151 0
3 158 157 156 0
3 155 157 158 0
3 159 156 149 0
3 158 156 159 0
3 159 149 160 0
3 160 149 145 0
3 161 154 155 0
3 161 162 154 0
3 162 163 152 0
3 162 164 163 0
3 161 165 162 0
3 161 155 166 0
3 167 166 155 0
3 167 155 168 0
3 167 168 169 0
3 155 158 168 0
3 169 168 158 0
3 167 169 170 0
3 171 170 169 0
3 169 158 172 0
3 169 172 173 0
3 174 172 158 0
3 173 172 174 0
3 174 158 159 0
3 174 159 160 0
3 171 169 175 0
3 169 173 175 0
3 171 175 176 0
3 173 176 175 0
3 171 176 177 0
3 178 177 176 0
3 178 176 179 0
3 176 180 179 0
3 176 181 180 0
3 173 181 176 0
3 180 181 182 0
3 182 181 173 0
3 180 182 183 0
3 173 174 184 0
3 182 173 184 0
3 183 182 185 0
3 184 185 182 0
3 183 185 186 0
3 186 185 187 0
3 186 187 188 0
3 187 189 188 0
3 184 174 190 0
3 174 160 190 0
3 184 191 185 0
3 187 185 191 0
3 184 190 191 0
3 192 191 190 0
3 187 191 192 0
3 193 187 192 0
3 192 190 194 0
3 194 190 160 0
3 194 193 192 0
3 187 195 189 0
3 193 195 187 0
3 189 195 196 0
3 196 195 193 0
3 189 196 197 0
3 197 196 198 0
3 197 198 199 0
3 200 198 196 0
3 196 193 200 0
3 200 201 198 0
3 200 202 201 0
3 200 203 202 0
3 193 203 200 0
3 203 204 202 0
3 194 160 205 0
3 194 205 206 0
3 160 145 205 0
3 145 206 205 0
3 194 207 193 0
3 193 207 203 0
3 194 206 207 0
3 203 207 206 0
3 203 208 204 0
3 203 206 208 0
3 208 209 204 0
3 145 210 206 0
3 141 210 145 0
3 206 211 208 0
3 206 210 211 0
3 208 211 209 0
3 211 210 141 0
3 212 209 211 0
3 211 141 212 0
3 212 213 209 0
3 212 214 213 0
3 141 142 212 0
3 212 142 214 0
3 142 215 214 0
3 142 216 215 0
3 217 216 142 0
3 217 218 216 0
3 219 220 221 0
3 219 222 220 0
3 223 222 219 0
3 222 223 224 0
3 223 219 225 0
3 226 223 225 0
3 227 220 222 0
3 222 224 227 0
3 227 228 220 0
3 227 229 228 0
3 226 230 223 0
3 224 223 230 0
3 227 231 229 0
3 224 231 227 0
3 226 232 230 0
3 226 233 232 0
3 234 232 233 0
3 235 229 231 0
3 231 236 235 0
3 235 237 229 0
3 238 237 235 0
3 236 238 235 0
3 238 239 237 0
3 224 240 231 0
3 231 240 236 0
3 241 240 224 0
3 241 236 240 0
3 224 230 242 0
3 241 224 242 0
3 230 243 242 0
3 230 232 243 0
3 242 243 244 0
3 242 244 241 0
3 245 243 232 0
3 245 244 243 0
3 246 239 238 0
3 238 247 246 0
3 246 248 239 0
3 246 249 248 0
3 246 250 249 0
3 247 250 246 0
3 251 249 250 0
3 251 252 249 0
3 250 253 251 0
3 250 254 253 0
3 247 254 250 0
3 255 253 254 0
3 255 254 247 0
3 255 256 253 0
3 255 257 256 0
3 238 258 247 0
3 247 258 259 0
3 236 258 238 0
3 259 258 236 0
3 255 247 260 0
3 247 259 260 0
3 255 261 257 0
3 260 261 255 0
3 259 236 262 0
3 241 262 236 0
3 241 263 262 0
3 263 259 262 0
3 241 244 263 0
3 259 264 260 0
3 260 264 261 0
3 257 261 265 0
3 257 265 266 0
3 265 267 266 0
3 259 268 264 0
3 263 268 259 0
3 269 261 264 0
3 269 265 261 0
3 269 264 268 0
3 270 265 269 0
3 271 263 244 0
3 245 271 244 0
3 272 271 245 0
3 265 273 267 0
3 270 273 265 0
3 274 267 273 0
3 274 273 270 0
3 274 275 267 0
3 274 276 275 0
3 274 277 276 0
3 278 277 274 0
3 274 270 278 0
3 278 279 277 0
3 280 279 278 0
3 270 280 278 0
3 280 281 279 0
3 282 272 245 0
3 245 232 282 0
3 234 282 232 0
3 283 282 234 0
3 282 283 272 0
3 283 234 284 0
3 285 283 284 0
3 285 286 283 0
3 272 283 286 0
3 285 287 286 0
3 285 288 287 0
3 286 287 289 0
3 286 289 290 0
3 272 286 290 0
3 290 289 291 0
3 290 291 292 0
3 292 272 290 0
3 292 291 293 0
3 292 294 272 0
3 292 295 294 0
3 272 294 271 0
3 271 294 295 0
3 292 293 296 0
3 292 296 295 0
3 281 296 293 0
3 281 280 296 0
3 280 295 296 0
3 271 295 297 0
3 271 297 263 0
3 297 268 263 0
3 297 298 268 0
3 295 298 297 0
3 269 268 298 0
3 298 270 269 0
3 270 299 280 0
3 280 299 295 0
3 295 299 298 0
3 298 299 270 0
3 300 301 302 0
3 300 302 150 0
3 303 304 305 0
3 303 306 304 0
3 307 306 303 0
3 306 307 308 0
3 307 303 309 0
3 310 304 306 0
3 306 308 310 0
3 310 311 304 0
3 310 312 311 0
3 313 307 309 0
3 308 307 313 0
3 313 309 314 0
3 310 315 312 0
3 308 315 310 0
3 314 316 313 0
3 314 317 316 0
3 318 312 315 0
3 315 319 318 0
3 318 320 312 0
3 321 320 318 0
3 319 321 318 0
3 321 322 320 0
3 308 323 315 0
3 315 323 319 0
3 324 323 308 0
3 324 319 323 0
3 308 313 325 0
3 324 308 325 0
3 313 326 325 0
3 313 316 326 0
3 327 316 317 0
3 327 317 328 0
3 325 326 329 0
3 325 329 324 0
3 330 326 316 0
3 330 316 327 0
3 330 329 326 0
3 327 331 330 0
3 332 327 328 0
3 327 332 331 0
3 332 328 333 0
3 334 332 333 0
3 331 332 334 0
3 334 333 335 0
3 330 336 329 0
3 331 336 330 0
3 324 329 337 0
3 336 337 329 0
3 335 338 334 0
3 335 339 338 0
3 334 338 340 0
3 334 340 341 0
3 331 334 341 0
3 341 340 342 0
3 341 342 343 0
3 343 331 341 0
3 343 342 344 0
3 324 337 345 0
3 337 346 345 0
3 324 345 319 0
3 346 319 345 0
3 343 347 331 0
3 343 348 347 0
3 331 347 336 0
3 336 347 348 0
3 343 344 349 0
3 343 349 348 0
3 350 349 344 0
3 350 351 349 0
3 351 348 349 0
3 351 350 352 0
3 336 353 337 0
3 336 348 353 0
3 353 354 337 0
3 337 354 346 0
3 348 355 353 0
3 353 355 354 0
3 351 356 348 0
3 348 356 355 0
3 357 356 351 0
3 355 356 357 0
3 351 352 358 0
3 357 351 358 0
3 358 352 359 0
3 358 359 360 0
3 360 357 358 0
3 360 359 361 0
3 360 361 362 0
3 363 360 362 0
3 364 354 355 0
3 355 357 364 0
3 363 365 360 0
3 360 365 357 0
3 366 365 363 0
3 357 365 366 0
3 357 366 364 0
3 366 363 367 0
3 368 366 367 0
3 364 369 354 0
3 346 354 369 0
3 364 366 370 0
3 368 370 366 0
3 364 370 369 0
3 371 370 368 0
3 371 368 372 0
3 373 371 372 0
3 374 369 370 0
3 346 369 374 0
3 374 370 371 0
3 375 346 374 0
3 371 375 374 0
3 373 376 371 0
3 371 376 375 0
3 377 376 373 0
3 375 376 377 0
3 377 373 378 0
3 378 379 377 0
3 378 380 379 0
3 381 377 379 0
3 375 377 381 0
3 381 379 382 0
3 381 382 322 0
3 381 322 321 0
3 321 375 381 0
3 375 383 346 0
3 321 383 375 0
3 346 383 319 0
3 319 383 321 0
3 384 385 386 0
3 384 386 146 0
3 387 388 389 0
3 387 390 388 0
3 391 388 390 0
3 391 390 392 0
3 391 392 393 0
3 391 393 394 0
3 395 394 393 0
3 395 393 396 0
3 395 396 397 0
3 395 397 398 0
3 399 398 397 0
3 399 397 400 0
3 399 400 401 0
3 399 401 402 0
3 402 401 403 0
3 402 403 404 0
3 405 406 407 0
3 405 407 408 0
3 409 410 411 0
3 409 411 412 0
3 413 412 411 0
3 413 411 414 0
3 413 414 415 0
3 413 415 416 0
3 416 415 417 0
3 416 417 418 0
3 418 417 419 0
3 418 419 420 0
3 421 420 419 0
3 421 419 422 0
3 421 422 423 0
3 421 423 424 0
3 424 423 425 0
3 424 425 426 0
3 427 428 429 0
3 427 430 428 0
3 431 430 427 0
3 431 427 432 0
3 433 434 435 0
3 433 435 436 0
3 437 438 439 0
3 437 439 440 0
3 441 442 443 0
3 441 443 444 0
3 443 445 444 0
3 443 446 445 0
3 445 446 447 0
3 445 447 448 0
3 449 450 451 0
3 449 6 450 0
3 452 453 454 0
3 452 455 453 0
3 452 456 455 0
3 457 453 455 0
3 456 457 455 0
3 452 458 456 0
3 457 459 453 0
3 460 459 457 0
3 461 456 458 0
3 460 457 462 0
3 462 463 460 0
3 462 464 463 0
3 465 463 464 0
3 457 466 462 0
3 462 467 464 0
3 462 466 467 0
3 465 464 468 0
3 468 464 467 0
3 469 465 468 0
3 469 470 465 0
3 471 470 469 0
3 468 467 472 0
3 472 469 468 0
3 456 473 457 0
3 457 473 466 0
3 456 474 473 0
3 466 473 474 0
3 466 475 467 0
3 472 467 475 0
3 456 476 474 0
3 477 474 476 0
3 461 476 456 0
3 461 477 476 0
3 461 478 477 0
3 479 477 478 0
3 466 480 475 0
3 466 474 480 0
3 474 481 480 0
3 477 482 474 0
3 474 482 481 0
3 483 482 477 0
3 481 482 483 0
3 479 484 477 0
3 483 477 484 0
3 479 485 484 0
3 485 483 484 0
3 479 486 485 0
3 487 485 486 0
3 487 488 485 0
3 485 488 489 0
3 480 481 490 0
3 480 490 475 0
3 475 490 491 0
3 485 489 492 0
3 485 492 483 0
3 493 492 489 0
3 483 492 493 0
3 493 489 494 0
3 495 493 494 0
3 481 483 496 0
3 496 490 481 0
3 483 493 496 0
3 495 497 493 0
3 496 493 497 0
3 496 498 490 0
3 491 490 498 0
3 496 497 498 0
3 499 497 495 0
3 499 495 500 0
3 499 500 501 0
3 502 498 497 0
3 491 498 502 0
3 502 497 499 0
3 499 503 502 0
3 503 491 502 0
3 499 501 504 0
3 499 504 503 0
3 505 504 501 0
3 503 504 505 0
3 505 501 506 0
3 507 505 506 0
3 507 508 505 0
3 509 505 508 0
3 503 505 509 0
3 509 508 510 0
3 511 509 510 0
3 511 503 509 0
3 511 510 512 0
3 503 513 491 0
3 511 513 503 0
3 491 513 514 0
3 514 513 511 0
3 515 511 512 0
3 514 511 515 0
3 515 512 516 0
3 517 515 516 0
3 517 514 515 0
3 517 516 518 0
3 491 514 519 0
3 475 491 519 0
3 472 475 519 0
3 472 519 514 0
3 472 514 520 0
3 517 520 514 0
3 472 520 469 0
3 469 520 517 0
3 521 517 518 0
3 469 517 521 0
3 521 518 522 0
3 471 469 521 0
3 471 521 522 0
3 471 522 523 0
3 524 471 523 0
3 524 523 525 0
3 526 527 528 0
3 526 528 529 0
3 530 531 532 0
3 530 532 533 0
3 534 535 536 0
3 534 9 535 0
3 537 538 539 0
3 537 38 538 0
3 538 38 540 0
3 538 540 541 0
3 540 542 541 0
3 540 29 542 0
3 542 29 543 0
3 542 543 544 0
3 543 545 544 0
3 543 22 545 0
3 545 22 546 0
3 545 546 547 0
3 546 548 547 0
3 546 20 548 0
3 549 550 551 0
3 549 551 143 0
3 549 551 143 0
