ply
format ascii 1.0
element vertex 247
property double x
property double y
property double z
property uchar red
property uchar green
property uchar blue
element face 353
property list uchar int vertex_indices
property uchar s
end_header
0 0.039903000000000001 0 0 0 0
0 0.0389520000000000005 -0.00799000000000000057 0 0 0
-0.00305799999999999995 0.0389520000000000005 -0.00738199999999999967 0 0 0
0 0.033045999999999999 -0.0219390000000000002 0 0 0
-0.00839600000000000068 0.033045999999999999 -0.0202689999999999988 0 0 0
-0.00564999999999999964 0.0389520000000000005 -0.00564999999999999964 0 0 0
0 0.039903000000000001 0 0 0 0
0.00839600000000000068 0.033045999999999999 -0.0202689999999999988 0 0 0
0.00305799999999999995 0.0389520000000000005 -0.00738199999999999967 0 0 0
0 0.039903000000000001 0 0 0 0
0 0.0220799999999999989 -0.0328340000000000021 17 17 17
0.0125649999999999998 0.0220799999999999989 -0.0303350000000000009 17 17 17
-0.0155130000000000007 0.033045999999999999 -0.0155130000000000007 8 8 8
-0.0125649999999999998 0.0220799999999999989 -0.0303350000000000009 8 8 8
-0.00738199999999999967 0.0389520000000000005 -0.00305799999999999995 0 0 0
0 0.039903000000000001 0 0 0 0
0.0155130000000000007 0.033045999999999999 -0.0155130000000000007 0 0 0
0.0232170000000000015 0.0220799999999999989 -0.0232170000000000015 0 0 0
0.00564999999999999964 0.0389520000000000005 -0.00564999999999999964 0 0 0
0 0.039903000000000001 0 0 0 0
0.0202689999999999988 0.033045999999999999 -0.00839600000000000068 0 0 0
0.00738199999999999967 0.0389520000000000005 -0.00305799999999999995 0 0 0
0 0.039903000000000001 0 0 0 0
0.0303350000000000009 0.0220799999999999989 -0.0125649999999999998 8 8 8
0.0357820000000000013 0.00775399999999999961 -0.0148220000000000001 114 114 114
0.0273870000000000016 0.00775399999999999961 -0.0273870000000000016 114 114 114
0.0357820000000000013 -0.00775399999999999961 -0.0148220000000000001 219 219 219
0.0148210000000000008 0.00775399999999999961 -0.0357820000000000013 131 131 131
0.0273870000000000016 -0.00775399999999999961 -0.0273870000000000016 202 202 202
0.0305840000000000001 -0.0219670000000000004 -0.0126680000000000004 131 131 131
0 0.00775399999999999961 -0.0387300000000000005 114 114 114
0.0148210000000000008 -0.00775399999999999961 -0.0357820000000000013 237 237 237
0.0234080000000000017 -0.0219670000000000004 -0.0234080000000000017 123 123 123
0.0192419999999999987 -0.0332580000000000028 -0.0192419999999999987 52 52 52
0.0251410000000000002 -0.0332580000000000028 -0.0104139999999999996 52 52 52
0.0162549999999999986 -0.0454560000000000033 -0.0162549999999999986 52 52 52
0.0212390000000000009 -0.0454560000000000033 -0.00879699999999999926 52 52 52
0.0183560000000000008 -0.0627349999999999991 -0.00760300000000000038 61 61 61
0.0140490000000000007 -0.0627349999999999991 -0.0140490000000000007 70 70 70
0.0174319999999999996 -0.0843109999999999971 -0.00721999999999999986 43 43 43
0.0133419999999999997 -0.0843109999999999971 -0.0133419999999999997 61 61 61
0.00879699999999999926 -0.0454560000000000033 -0.0212390000000000009 70 70 70
0.00760300000000000038 -0.0627349999999999991 -0.0183560000000000008 114 114 114
0.00721999999999999986 -0.0843109999999999971 -0.0174319999999999996 70 70 70
0.0104139999999999996 -0.0332580000000000028 -0.0251410000000000002 87 87 87
0.0126680000000000004 -0.0219670000000000004 -0.0305840000000000001 140 140 140
0 -0.0454560000000000033 -0.022988999999999999 70 70 70
0 -0.00775399999999999961 -0.0387300000000000005 202 202 202
0 -0.0332580000000000028 -0.0272130000000000011 61 61 61
0 -0.0627349999999999991 -0.0198680000000000002 87 87 87
0.00721999999999999986 -0.0843109999999999971 -0.0174319999999999996 70 70 70
-0.0148220000000000001 0.00775399999999999961 -0.0357820000000000013 114 114 114
0 -0.0219670000000000004 -0.0331040000000000015 140 140 140
-0.00879699999999999926 -0.0454560000000000033 -0.0212390000000000009 70 70 70
-0.0104139999999999996 -0.0332580000000000028 -0.0251410000000000002 43 43 43
-0.0126680000000000004 -0.0219670000000000004 -0.0305840000000000001 131 131 131
-0.0148220000000000001 -0.00775399999999999961 -0.0357820000000000013 184 184 184
-0.0232170000000000015 0.0220799999999999989 -0.0232170000000000015 26 26 26
-0.0273870000000000016 0.00775399999999999961 -0.0273870000000000016 105 105 105
-0.0202689999999999988 0.033045999999999999 -0.00839600000000000068 8 8 8
-0.0273870000000000016 -0.00775399999999999961 -0.0273870000000000016 175 175 175
-0.0303350000000000009 0.0220799999999999989 -0.0125649999999999998 17 17 17
-0.00799000000000000057 0.0389520000000000005 0 0 0 0
0 0.039903000000000001 0 0 0 0
-0.0219390000000000002 0.033045999999999999 0 8 8 8
-0.0357820000000000013 0.00775399999999999961 -0.0148220000000000001 131 131 131
-0.00738199999999999967 0.0389520000000000005 0.00305799999999999995 0 0 0
0 0.039903000000000001 0 0 0 0
-0.0328340000000000021 0.0220799999999999989 0 17 17 17
-0.0202689999999999988 0.033045999999999999 0.00839600000000000068 8 8 8
-0.00564999999999999964 0.0389520000000000005 0.00564999999999999964 0 0 0
0 0.039903000000000001 0 0 0 0
-0.0357820000000000013 -0.00775399999999999961 -0.0148220000000000001 202 202 202
-0.0387300000000000005 0.00775399999999999961 0 149 149 149
-0.0303350000000000009 0.0220799999999999989 0.0125649999999999998 8 8 8
-0.0155130000000000007 0.033045999999999999 0.0155130000000000007 0 0 0
-0.0234080000000000017 -0.0219670000000000004 -0.0234080000000000017 70 70 70
-0.00305799999999999995 0.0389520000000000005 0.00738199999999999967 0 0 0
0 0.039903000000000001 0 0 0 0
-0.0192419999999999987 -0.0332580000000000028 -0.0192419999999999987 61 61 61
-0.0162549999999999986 -0.0454560000000000033 -0.0162549999999999986 79 79 79
-0.00760300000000000038 -0.0627349999999999991 -0.0183560000000000008 105 105 105
0 -0.0843109999999999971 -0.0188679999999999994 52 52 52
-0.0305840000000000001 -0.0219670000000000004 -0.0126680000000000004 114 114 114
-0.0251410000000000002 -0.0332580000000000028 -0.0104139999999999996 52 52 52
-0.0212390000000000009 -0.0454560000000000033 -0.00879699999999999926 43 43 43
-0.0140490000000000007 -0.0627349999999999991 -0.0140490000000000007 140 140 140
-0.00721999999999999986 -0.0843109999999999971 -0.0174319999999999996 70 70 70
-0.0387300000000000005 -0.00775399999999999961 0 219 219 219
-0.0357820000000000013 0.00775399999999999961 0.0148220000000000001 140 140 140
-0.0232170000000000015 0.0220799999999999989 0.0232170000000000015 17 17 17
-0.00839600000000000068 0.033045999999999999 0.0202689999999999988 0 0 0
0 0.0389520000000000005 0.00799000000000000057 0 0 0
0 0.039903000000000001 0 0 0 0
-0.0331040000000000015 -0.0219670000000000004 0 158 158 158
-0.0357820000000000013 -0.00775399999999999961 0.0148220000000000001 193 193 193
-0.0273870000000000016 0.00775399999999999961 0.0273870000000000016 70 70 70
-0.0125649999999999998 0.0220799999999999989 0.0303350000000000009 26 26 26
0 0.033045999999999999 0.0219390000000000002 0 0 0
-0.0272130000000000011 -0.0332580000000000028 0 43 43 43
0.00305799999999999995 0.0389520000000000005 0.00738199999999999967 0 0 0
0 0.039903000000000001 0 0 0 0
-0.022988999999999999 -0.0454560000000000033 0 43 43 43
-0.0183560000000000008 -0.0627349999999999991 -0.00760300000000000038 96 96 96
-0.0133419999999999997 -0.0843109999999999971 -0.0133419999999999997 87 87 87
0 0.0220799999999999989 0.0328340000000000021 35 35 35
0.00839600000000000068 0.033045999999999999 0.0202689999999999988 0 0 0
-0.0148220000000000001 0.00775399999999999961 0.0357820000000000013 140 140 140
0.00564999999999999964 0.0389520000000000005 0.00564999999999999964 0 0 0
0 0.039903000000000001 0 0 0 0
-0.0273870000000000016 -0.00775399999999999961 0.0273870000000000016 158 158 158
-0.0305840000000000001 -0.0219670000000000004 0.0126689999999999997 140 140 140
-0.0251410000000000002 -0.0332580000000000028 0.0104139999999999996 35 35 35
-0.0212390000000000009 -0.0454560000000000033 0.00879699999999999926 61 61 61
-0.0198690000000000012 -0.0627349999999999991 0 70 70 70
-0.0174319999999999996 -0.0843109999999999971 -0.00721999999999999986 70 70 70
-0.0148220000000000001 -0.00775399999999999961 0.0357820000000000013 237 237 237
-0.0234080000000000017 -0.0219670000000000004 0.0234080000000000017 140 140 140
-0.0192419999999999987 -0.0332580000000000028 0.0192419999999999987 35 35 35
-0.0162549999999999986 -0.0454560000000000033 0.0162549999999999986 52 52 52
-0.0183560000000000008 -0.0627349999999999991 0.00760300000000000038 70 70 70
-0.0188679999999999994 -0.0843109999999999971 0 52 52 52
0 0.00775399999999999961 0.0387300000000000005 131 131 131
0.0125649999999999998 0.0220799999999999989 0.0303350000000000009 26 26 26
0.0155130000000000007 0.033045999999999999 0.0155130000000000007 8 8 8
0.00738199999999999967 0.0389520000000000005 0.00305799999999999995 0 0 0
0 0.039903000000000001 0 0 0 0
0.0202689999999999988 0.033045999999999999 0.00839600000000000068 8 8 8
0.0232170000000000015 0.0220799999999999989 0.0232170000000000015 26 26 26
0.0303350000000000009 0.0220799999999999989 0.0125649999999999998 26 26 26
0.0148220000000000001 0.00775399999999999961 0.0357820000000000013 114 114 114
0.0273870000000000016 0.00775399999999999961 0.0273870000000000016 105 105 105
0.0357820000000000013 0.00775399999999999961 0.0148220000000000001 123 123 123
0 -0.00775399999999999961 0.0387300000000000005 237 237 237
0.0273870000000000016 -0.00775399999999999961 0.0273870000000000016 140 140 140
0.0357820000000000013 -0.00775399999999999961 0.0148220000000000001 202 202 202
0.0148220000000000001 -0.00775399999999999961 0.0357820000000000013 193 193 193
-0.0126680000000000004 -0.0219670000000000004 0.0305840000000000001 149 149 149
0.0234080000000000017 -0.0219670000000000004 0.0234080000000000017 158 158 158
0.0305840000000000001 -0.0219670000000000004 0.0126680000000000004 158 158 158
0.0251410000000000002 -0.0332580000000000028 0.0104139999999999996 87 87 87
0 -0.0219670000000000004 0.0331040000000000015 149 149 149
0.0126680000000000004 -0.0219670000000000004 0.0305840000000000001 158 158 158
0.0192419999999999987 -0.0332580000000000028 0.0192419999999999987 79 79 79
0.0212390000000000009 -0.0454560000000000033 0.00879699999999999926 61 61 61
-0.0104139999999999996 -0.0332580000000000028 0.0251410000000000002 52 52 52
0 -0.0332580000000000028 0.0272130000000000011 61 61 61
0.0104139999999999996 -0.0332580000000000028 0.0251410000000000002 96 96 96
0.0162549999999999986 -0.0454560000000000033 0.0162549999999999986 61 61 61
-0.00879699999999999926 -0.0454560000000000033 0.0212390000000000009 52 52 52
0.00879699999999999926 -0.0454560000000000033 0.0212390000000000009 70 70 70
0 -0.0454560000000000033 0.022988999999999999 35 35 35
0.0140490000000000007 -0.0627349999999999991 0.0140490000000000007 105 105 105
0.0183560000000000008 -0.0627349999999999991 0.00760300000000000038 79 79 79
-0.0140490000000000007 -0.0627349999999999991 0.0140490000000000007 79 79 79
-0.00760300000000000038 -0.0627349999999999991 0.0183560000000000008 96 96 96
0 -0.0627349999999999991 0.0198690000000000012 87 87 87
0.00760300000000000038 -0.0627349999999999991 0.0183560000000000008 105 105 105
0.0133419999999999997 -0.0843109999999999971 0.0133419999999999997 70 70 70
0.0174319999999999996 -0.0843109999999999971 0.00721999999999999986 61 61 61
-0.0174319999999999996 -0.0843109999999999971 0.00721999999999999986 52 52 52
-0.0133419999999999997 -0.0843109999999999971 0.0133419999999999997 52 52 52
-0.00935500000000000047 -0.0928549999999999931 0.00387499999999999997 0 0 0
-0.00721999999999999986 -0.0843109999999999971 0.0174319999999999996 70 70 70
-0.0071599999999999997 -0.0928549999999999931 0.0071599999999999997 0 0 0
0 -0.0928549999999999931 0 0 0 0
-0.0133419999999999997 -0.0843109999999999971 0.0133419999999999997 52 52 52
0 -0.0843109999999999971 0.0188679999999999994 43 43 43
0.00721999999999999986 -0.0843109999999999971 0.0174319999999999996 70 70 70
-0.00387499999999999997 -0.0928549999999999931 0.00935500000000000047 8 8 8
0 -0.0928549999999999931 0 0 0 0
0 -0.0928549999999999931 0.0101259999999999996 8 8 8
0 -0.0928549999999999931 0 0 0 0
0 -0.0928549999999999931 0 0 0 0
-0.0101259999999999996 -0.0928549999999999931 0 0 0 0
-0.0174319999999999996 -0.0843109999999999971 0.00721999999999999986 52 52 52
-0.00935500000000000047 -0.0928549999999999931 -0.00387499999999999997 0 0 0
0 -0.0928549999999999931 0 0 0 0
-0.0071599999999999997 -0.0928549999999999931 -0.0071599999999999997 0 0 0
0 -0.0928549999999999931 0 0 0 0
-0.00387499999999999997 -0.0928549999999999931 -0.00935500000000000047 0 0 0
0 -0.0928549999999999931 0 0 0 0
0 -0.0928549999999999931 -0.0101259999999999996 0 0 0
0 -0.0928549999999999931 0 0 0 0
0.00387499999999999997 -0.0928549999999999931 -0.00935500000000000047 0 0 0
0 -0.0928549999999999931 0 0 0 0
0.0071599999999999997 -0.0928549999999999931 -0.0071599999999999997 0 0 0
0.0133419999999999997 -0.0843109999999999971 -0.0133419999999999997 61 61 61
0 -0.0928549999999999931 0 0 0 0
0 -0.0928549999999999931 0 0 0 0
0.00935500000000000047 -0.0928549999999999931 -0.00387499999999999997 0 0 0
0.0133419999999999997 -0.0843109999999999971 -0.0133419999999999997 61 61 61
0.0174319999999999996 -0.0843109999999999971 -0.00721999999999999986 43 43 43
0 -0.0928549999999999931 0 0 0 0
0.0101259999999999996 -0.0928549999999999931 0 0 0 0
0.0174319999999999996 -0.0843109999999999971 -0.00721999999999999986 43 43 43
0.0188679999999999994 -0.0843109999999999971 0 52 52 52
0.0183560000000000008 -0.0627349999999999991 -0.00760300000000000038 61 61 61
0.0198680000000000002 -0.0627349999999999991 0 79 79 79
0.0212390000000000009 -0.0454560000000000033 -0.00879699999999999926 52 52 52
0.022988999999999999 -0.0454560000000000033 0 52 52 52
0.0272130000000000011 -0.0332580000000000028 0 52 52 52
0.0251410000000000002 -0.0332580000000000028 -0.0104139999999999996 52 52 52
0.0331040000000000015 -0.0219670000000000004 0 158 158 158
0.0305840000000000001 -0.0219670000000000004 -0.0126680000000000004 131 131 131
0.0357820000000000013 -0.00775399999999999961 -0.0148220000000000001 219 219 219
0.0387300000000000005 -0.00775399999999999961 0 255 255 255
0.0357820000000000013 0.00775399999999999961 -0.0148220000000000001 114 114 114
0.0387300000000000005 0.00775399999999999961 0 167 167 167
0.0303350000000000009 0.0220799999999999989 -0.0125649999999999998 8 8 8
0.0328340000000000021 0.0220799999999999989 0 35 35 35
0.0202689999999999988 0.033045999999999999 -0.00839600000000000068 0 0 0
0.0219390000000000002 0.033045999999999999 0 8 8 8
0.00738199999999999967 0.0389520000000000005 -0.00305799999999999995 0 0 0
0.00799000000000000057 0.0389520000000000005 0 0 0 0
0 0.039903000000000001 0 0 0 0
0.00935500000000000047 -0.0928549999999999931 0.00387499999999999997 0 0 0
0.0071599999999999997 -0.0928549999999999931 0.0071599999999999997 0 0 0
0 -0.0928549999999999931 0 0 0 0
0.0188679999999999994 -0.0843109999999999971 0 52 52 52
0 -0.0928549999999999931 0 0 0 0
0.00387499999999999997 -0.0928549999999999931 0.00935500000000000047 8 8 8
0 -0.0928549999999999931 0 0 0 0
0.00721999999999999986 -0.0843109999999999971 0.0174319999999999996 70 70 70
0 -0.0843109999999999971 0.0188679999999999994 43 43 43
0 -0.0928549999999999931 0 0 0 0
0.0174319999999999996 -0.0843109999999999971 0.00721999999999999986 61 61 61
0.0188679999999999994 -0.0843109999999999971 0 52 52 52
0.0198680000000000002 -0.0627349999999999991 0 79 79 79
0.0183560000000000008 -0.0627349999999999991 0.00760300000000000038 79 79 79
0.022988999999999999 -0.0454560000000000033 0 52 52 52
0.0212390000000000009 -0.0454560000000000033 0.00879699999999999926 61 61 61
0.0251410000000000002 -0.0332580000000000028 0.0104139999999999996 87 87 87
0.0272130000000000011 -0.0332580000000000028 0 52 52 52
0.0305840000000000001 -0.0219670000000000004 0.0126680000000000004 158 158 158
0.0331040000000000015 -0.0219670000000000004 0 158 158 158
0.0387300000000000005 -0.00775399999999999961 0 255 255 255
0.0357820000000000013 -0.00775399999999999961 0.0148220000000000001 202 202 202
0.0387300000000000005 0.00775399999999999961 0 167 167 167
0.0357820000000000013 0.00775399999999999961 0.0148220000000000001 123 123 123
0.0328340000000000021 0.0220799999999999989 0 35 35 35
0.0303350000000000009 0.0220799999999999989 0.0125649999999999998 26 26 26
0.0219390000000000002 0.033045999999999999 0 8 8 8
0.0202689999999999988 0.033045999999999999 0.00839600000000000068 8 8 8
0.00799000000000000057 0.0389520000000000005 0 0 0 0
0.00738199999999999967 0.0389520000000000005 0.00305799999999999995 0 0 0
0 0.039903000000000001 0 0 0 0
3 0 1 2 0
3 3 2 1 0
3 3 4 2 0
3 5 2 4 0
3 6 2 5 0
3 7 3 1 0
3 7 1 8 0
3 9 8 1 0
3 10 4 3 0
3 11 3 7 0
3 11 10 3 0
3 5 4 12 0
3 10 13 4 0
3 12 4 13 0
3 14 5 12 0
3 15 5 14 0
3 8 16 7 0
3 7 17 11 0
3 7 16 17 0
3 8 18 16 0
3 19 18 8 0
3 18 20 16 0
3 18 21 20 0
3 22 21 18 0
3 16 20 23 0
3 16 23 17 0
3 17 23 24 0
3 17 24 25 0
3 11 17 25 0
3 25 24 26 0
3 11 25 27 0
3 27 10 11 0
3 25 26 28 0
3 27 25 28 0
3 28 26 29 0
3 27 30 10 0
3 30 13 10 0
3 27 28 31 0
3 31 30 27 0
3 28 29 32 0
3 31 28 32 0
3 33 32 29 0
3 33 29 34 0
3 34 35 33 0
3 34 36 35 0
3 35 36 37 0
3 35 37 38 0
3 39 38 37 0
3 39 40 38 0
3 33 35 41 0
3 41 35 38 0
3 40 42 38 0
3 41 38 42 0
3 40 43 42 0
3 44 32 33 0
3 33 41 44 0
3 31 32 45 0
3 44 45 32 0
3 46 41 42 0
3 44 41 46 0
3 47 31 45 0
3 31 47 30 0
3 48 45 44 0
3 44 46 48 0
3 46 42 49 0
3 50 49 42 0
3 47 51 30 0
3 30 51 13 0
3 48 52 45 0
3 47 45 52 0
3 48 46 53 0
3 49 53 46 0
3 54 52 48 0
3 48 53 54 0
3 55 47 52 0
3 54 55 52 0
3 47 56 51 0
3 55 56 47 0
3 57 13 51 0
3 12 13 57 0
3 58 51 56 0
3 57 51 58 0
3 59 12 57 0
3 14 12 59 0
3 60 56 55 0
3 58 56 60 0
3 58 61 57 0
3 59 57 61 0
3 62 14 59 0
3 63 14 62 0
3 62 59 64 0
3 64 59 61 0
3 58 65 61 0
3 65 58 60 0
3 66 62 64 0
3 67 62 66 0
3 64 61 68 0
3 65 68 61 0
3 66 64 69 0
3 69 64 68 0
3 70 66 69 0
3 71 66 70 0
3 65 60 72 0
3 65 73 68 0
3 73 65 72 0
3 69 68 74 0
3 74 68 73 0
3 70 69 75 0
3 75 69 74 0
3 72 60 76 0
3 60 55 76 0
3 77 70 75 0
3 78 70 77 0
3 79 76 55 0
3 79 55 54 0
3 54 80 79 0
3 54 53 80 0
3 80 53 81 0
3 49 81 53 0
3 82 81 49 0
3 50 82 49 0
3 72 76 83 0
3 84 76 79 0
3 84 83 76 0
3 79 80 85 0
3 79 85 84 0
3 80 81 86 0
3 85 80 86 0
3 82 87 81 0
3 87 86 81 0
3 88 72 83 0
3 73 72 88 0
3 89 73 88 0
3 74 73 89 0
3 90 74 89 0
3 75 74 90 0
3 91 75 90 0
3 77 75 91 0
3 92 77 91 0
3 93 77 92 0
3 88 83 94 0
3 89 88 95 0
3 95 88 94 0
3 90 89 96 0
3 96 89 95 0
3 91 90 97 0
3 97 90 96 0
3 92 91 98 0
3 98 91 97 0
3 99 94 83 0
3 99 83 84 0
3 98 100 92 0
3 101 92 100 0
3 84 102 99 0
3 84 85 102 0
3 102 85 103 0
3 85 86 103 0
3 104 103 86 0
3 87 104 86 0
3 98 97 105 0
3 98 106 100 0
3 106 98 105 0
3 105 97 107 0
3 97 96 107 0
3 106 108 100 0
3 100 108 109 0
3 110 107 96 0
3 96 95 110 0
3 110 95 111 0
3 95 94 111 0
3 94 112 111 0
3 94 99 112 0
3 99 113 112 0
3 99 102 113 0
3 113 102 114 0
3 102 103 114 0
3 115 114 103 0
3 104 115 103 0
3 110 116 107 0
3 110 111 117 0
3 116 110 117 0
3 111 112 118 0
3 111 118 117 0
3 112 113 119 0
3 112 119 118 0
3 113 114 120 0
3 119 113 120 0
3 115 121 114 0
3 121 120 114 0
3 122 107 116 0
3 105 107 122 0
3 123 105 122 0
3 106 105 123 0
3 124 106 123 0
3 106 124 108 0
3 125 108 124 0
3 126 108 125 0
3 125 124 127 0
3 127 124 128 0
3 124 123 128 0
3 127 128 129 0
3 123 122 130 0
3 128 123 130 0
3 129 128 131 0
3 128 130 131 0
3 129 131 132 0
3 122 116 133 0
3 130 122 133 0
3 132 131 134 0
3 132 134 135 0
3 131 130 136 0
3 130 133 136 0
3 131 136 134 0
3 133 116 137 0
3 116 117 137 0
3 138 135 134 0
3 138 139 135 0
3 140 139 138 0
3 136 133 141 0
3 133 137 141 0
3 142 134 136 0
3 142 138 134 0
3 136 141 142 0
3 140 138 143 0
3 143 138 142 0
3 143 144 140 0
3 145 137 117 0
3 145 117 118 0
3 146 141 137 0
3 146 137 145 0
3 147 142 141 0
3 143 142 147 0
3 147 141 146 0
3 143 148 144 0
3 147 148 143 0
3 118 149 145 0
3 118 119 149 0
3 146 150 147 0
3 147 150 148 0
3 145 151 146 0
3 145 149 151 0
3 146 151 150 0
3 144 148 152 0
3 144 152 153 0
3 149 119 154 0
3 119 120 154 0
3 151 149 155 0
3 149 154 155 0
3 150 151 156 0
3 151 155 156 0
3 148 150 157 0
3 148 157 152 0
3 150 156 157 0
3 158 153 152 0
3 158 159 153 0
3 160 154 120 0
3 121 160 120 0
3 160 161 154 0
3 161 155 154 0
3 162 161 160 0
3 161 163 155 0
3 163 156 155 0
3 162 164 161 0
3 165 164 162 0
3 164 163 166 0
3 163 167 156 0
3 167 157 156 0
3 167 168 157 0
3 164 169 163 0
3 169 167 163 0
3 170 169 164 0
3 169 171 167 0
3 172 171 169 0
3 173 162 174 0
3 174 162 175 0
3 174 175 121 0
3 121 176 174 0
3 177 174 176 0
3 121 115 176 0
3 178 176 115 0
3 179 176 178 0
3 178 115 104 0
3 180 178 104 0
3 181 178 180 0
3 180 104 87 0
3 87 182 180 0
3 183 180 182 0
3 87 82 182 0
3 184 182 82 0
3 185 182 184 0
3 184 82 50 0
3 186 184 50 0
3 186 50 187 0
3 188 184 186 0
3 189 186 190 0
3 191 190 186 0
3 191 192 190 0
3 193 190 194 0
3 194 190 195 0
3 194 195 196 0
3 196 195 197 0
3 196 197 198 0
3 199 198 197 0
3 199 200 198 0
3 201 200 199 0
3 201 199 202 0
3 202 203 201 0
3 202 204 203 0
3 205 203 204 0
3 205 206 203 0
3 207 206 205 0
3 207 208 206 0
3 209 208 207 0
3 209 210 208 0
3 210 209 211 0
3 210 211 212 0
3 213 212 211 0
3 213 214 212 0
3 215 214 213 0
3 216 217 218 0
3 217 216 159 0
3 216 219 159 0
3 216 194 219 0
3 220 194 216 0
3 217 159 158 0
3 221 217 158 0
3 222 217 221 0
3 221 158 223 0
3 223 158 152 0
3 223 152 157 0
3 171 221 223 0
3 171 223 224 0
3 225 221 171 0
3 226 227 228 0
3 226 228 229 0
3 230 229 228 0
3 230 231 229 0
3 232 231 230 0
3 232 230 233 0
3 233 234 232 0
3 233 235 234 0
3 236 234 235 0
3 236 237 234 0
3 238 237 236 0
3 238 239 237 0
3 240 239 238 0
3 240 241 239 0
3 241 240 242 0
3 241 242 243 0
3 244 243 242 0
3 244 245 243 0
3 246 245 244 0
3 246 245 244 0
