ply
format ascii 1.0
element vertex 671
property double x
property double y
property double z
property uchar red
property uchar green
property uchar blue
element face 1137
property list uchar int vertex_indices
property uchar s
end_header
0.0227109999999999985 -0.0851679999999999937 0.0227109999999999985 7 7 7
0.0225020000000000012 -0.0925630000000000064 0.0225020000000000012 7 7 7
0.0293999999999999991 -0.0925630000000000064 0.0121779999999999996 0 0 0
0.0296730000000000015 -0.0851679999999999937 0.0122909999999999998 7 7 7
0.0216660000000000012 -0.0771389999999999992 0.0216660000000000012 7 7 7
0.0318229999999999971 -0.0925630000000000064 0 7 7 7
0.0283079999999999998 -0.0771389999999999992 0.0117260000000000003 7 7 7
0.0199839999999999983 -0.0712229999999999946 0.0199839999999999983 15 15 15
0.0321180000000000007 -0.0851679999999999937 0 0 0 0
0.0293999999999999991 -0.0925630000000000064 -0.0121779999999999996 7 7 7
0.0261109999999999988 -0.0712229999999999946 0.010815 7 7 7
0.0194359999999999984 -0.0653070000000000039 0.0194359999999999984 23 23 23
0.0306400000000000006 -0.0771389999999999992 0 7 7 7
0.0296730000000000015 -0.0851679999999999937 -0.0122909999999999998 15 15 15
0.0225020000000000012 -0.0925630000000000064 -0.0225020000000000012 7 7 7
0.0253939999999999999 -0.0653070000000000039 0.0105179999999999996 7 7 7
0.0201169999999999995 -0.0555210000000000009 0.0201169999999999995 39 39 39
0.0282619999999999989 -0.0712229999999999946 0 7 7 7
0.0283079999999999998 -0.0771389999999999992 -0.0117260000000000003 7 7 7
0.0262839999999999983 -0.0555210000000000009 0.0108870000000000008 23 23 23
0.0207969999999999995 -0.0457349999999999979 0.0207969999999999995 47 47 47
0.027486 -0.0653070000000000039 0 7 7 7
0.0271729999999999992 -0.0457349999999999979 0.0112560000000000004 39 39 39
0.0214780000000000006 -0.0359490000000000018 0.0214780000000000006 47 47 47
0.0227109999999999985 -0.0851679999999999937 -0.0227109999999999985 15 15 15
0.0261109999999999988 -0.0712229999999999946 -0.010815 15 15 15
0.0284489999999999986 -0.0555210000000000009 0 23 23 23
0.0280630000000000011 -0.0359490000000000018 0.0116240000000000007 31 31 31
0.0221590000000000016 -0.0261629999999999988 0.0221590000000000016 79 79 79
0.0216660000000000012 -0.0771389999999999992 -0.0216660000000000012 7 7 7
0.0253939999999999999 -0.0653070000000000039 -0.0105179999999999996 15 15 15
0.0294120000000000006 -0.0457349999999999979 0 47 47 47
0.0289529999999999996 -0.0261629999999999988 0.0119930000000000002 87 87 87
0.022419999999999999 -0.0185600000000000001 0.022419999999999999 63 63 63
0.0199839999999999983 -0.0712229999999999946 -0.0199839999999999983 15 15 15
0.0262830000000000008 -0.0555210000000000009 -0.0108870000000000008 15 15 15
0.0303749999999999992 -0.0359490000000000018 0 55 55 55
0.0194359999999999984 -0.0653070000000000039 -0.0194359999999999984 23 23 23
0.0271729999999999992 -0.0457349999999999979 -0.0112560000000000004 63 63 63
0.0201169999999999995 -0.0555210000000000009 -0.0201169999999999995 39 39 39
0.0292929999999999996 -0.0185600000000000001 0.0121340000000000007 87 87 87
0.0313379999999999978 -0.0261629999999999988 0 103 103 103
0.0280630000000000011 -0.0359490000000000018 -0.0116240000000000007 79 79 79
0.0207969999999999995 -0.0457349999999999979 -0.0207969999999999995 79 79 79
0.0292929999999999996 -0.00979200000000000036 0.0121340000000000007 127 127 127
0.022419999999999999 -0.00979200000000000036 0.022419999999999999 103 103 103
0.0292929999999999996 -0.00102399999999999995 0.0121340000000000007 119 119 119
0.022419999999999999 -0.00102399999999999995 0.022419999999999999 119 119 119
0.0292929999999999996 0.00774400000000000002 0.0121340000000000007 119 119 119
0.022419999999999999 0.00774400000000000002 0.022419999999999999 119 119 119
0.0292929999999999996 0.0165119999999999989 0.0121340000000000007 95 95 95
0.022419999999999999 0.0165119999999999989 0.022419999999999999 103 103 103
0.0292929999999999996 0.0252800000000000004 0.0121340000000000007 47 47 47
0.022419999999999999 0.0252800000000000004 0.022419999999999999 55 55 55
0.0292929999999999996 0.0340490000000000029 0.0121340000000000007 7 7 7
0.022419999999999999 0.0340490000000000029 0.022419999999999999 23 23 23
0.0221230000000000003 0.0430289999999999978 0.0221230000000000003 0 0 0
0.0289050000000000001 0.0430289999999999978 0.0119729999999999993 0 0 0
0.0209869999999999987 0.0493250000000000008 0.0209869999999999987 0 0 0
0.0317069999999999991 0.0340490000000000029 0 15 15 15
0.0317069999999999991 0.0252800000000000004 0 55 55 55
0.0317069999999999991 0.0165119999999999989 0 95 95 95
0.0317069999999999991 0.00774400000000000002 0 111 111 111
0.0274210000000000009 0.0493250000000000008 0.011358 0 0 0
0.0181669999999999991 0.0591860000000000025 0.0181669999999999991 0 0 0
0.0312860000000000013 0.0430289999999999978 0 0 0 0
0.0292929999999999996 0.0340490000000000029 -0.0121340000000000007 23 23 23
0.0292929999999999996 0.0252800000000000004 -0.0121340000000000007 31 31 31
0.0237360000000000002 0.0591860000000000025 0.00983200000000000046 0 0 0
0.0148170000000000003 0.0665869999999999934 0.0148170000000000003 0 0 0
0.0296800000000000015 0.0493250000000000008 0 0 0 0
0.0289050000000000001 0.0430289999999999978 -0.0119729999999999993 7 7 7
0.0193590000000000012 0.0665869999999999934 0.00801900000000000009 0 0 0
0.0106929999999999994 0.0788350000000000023 0.0106929999999999994 0 0 0
0.0256919999999999996 0.0591860000000000025 0 0 0 0
0.0139710000000000008 0.0788350000000000023 0.00578699999999999961 0 0 0
0.00852699999999999986 0.0867959999999999982 0.00852699999999999986 39 39 39
0.0292929999999999996 0.0165119999999999989 -0.0121340000000000007 87 87 87
0.022419999999999999 0.0340490000000000029 -0.022419999999999999 23 23 23
0.0274210000000000009 0.0493250000000000008 -0.011358 0 0 0
0.0209540000000000004 0.0665869999999999934 0 0 0 0
0.0111400000000000006 0.0867959999999999982 0.00461500000000000018 63 63 63
0.0063600000000000002 0.0947560000000000069 0.0063600000000000002 87 87 87
0.022419999999999999 0.0252800000000000004 -0.022419999999999999 23 23 23
0.022419999999999999 0.0165119999999999989 -0.022419999999999999 71 71 71
0.0292929999999999996 0.00774400000000000002 -0.0121340000000000007 111 111 111
0.022419999999999999 0.00774400000000000002 -0.022419999999999999 167 167 167
0.0292929999999999996 -0.00102399999999999995 -0.0121340000000000007 159 159 159
0.022419999999999999 -0.00102399999999999995 -0.022419999999999999 223 223 223
0.0317069999999999991 -0.00102399999999999995 0 143 143 143
0.0317069999999999991 -0.00979200000000000036 0 119 119 119
0.0292929999999999996 -0.00979200000000000036 -0.0121340000000000007 167 167 167
0.022419999999999999 -0.00979200000000000036 -0.022419999999999999 255 255 255
0.0317069999999999991 -0.0185600000000000001 0 95 95 95
0.0292929999999999996 -0.0185600000000000001 -0.0121340000000000007 143 143 143
0.022419999999999999 -0.0185600000000000001 -0.022419999999999999 215 215 215
0.0221590000000000016 -0.0261629999999999988 -0.0221590000000000016 151 151 151
0.0289529999999999996 -0.0261629999999999988 -0.0119930000000000002 143 143 143
0.0214780000000000006 -0.0359490000000000018 -0.0214780000000000006 103 103 103
0.0119930000000000002 -0.0261629999999999988 -0.0289529999999999996 175 175 175
0.0116240000000000007 -0.0359490000000000018 -0.0280630000000000011 95 95 95
0.0112560000000000004 -0.0457349999999999979 -0.0271729999999999992 87 87 87
0.0108870000000000008 -0.0555210000000000009 -0.0262830000000000008 47 47 47
0.0105179999999999996 -0.0653070000000000039 -0.0253939999999999999 15 15 15
0.010815 -0.0712229999999999946 -0.0261109999999999988 15 15 15
0.0117260000000000003 -0.0771389999999999992 -0.0283079999999999998 7 7 7
0.0122909999999999998 -0.0851679999999999937 -0.0296730000000000015 7 7 7
0 -0.0359490000000000018 -0.0303749999999999992 79 79 79
0 -0.0457349999999999979 -0.0294120000000000006 87 87 87
0 -0.0555210000000000009 -0.0284489999999999986 55 55 55
0 -0.0653070000000000039 -0.027486 31 31 31
0 -0.0712229999999999946 -0.0282619999999999989 31 31 31
0 -0.0771389999999999992 -0.0306400000000000006 15 15 15
0 -0.0261629999999999988 -0.0313379999999999978 143 143 143
-0.0116240000000000007 -0.0359490000000000018 -0.0280630000000000011 31 31 31
-0.0112560000000000004 -0.0457349999999999979 -0.0271729999999999992 39 39 39
-0.0108870000000000008 -0.0555210000000000009 -0.0262830000000000008 31 31 31
-0.0105179999999999996 -0.0653070000000000039 -0.0253939999999999999 23 23 23
-0.010815 -0.0712229999999999946 -0.0261109999999999988 23 23 23
-0.0119930000000000002 -0.0261629999999999988 -0.0289529999999999996 79 79 79
-0.0214780000000000006 -0.0359490000000000018 -0.0214780000000000006 31 31 31
-0.0221590000000000016 -0.0261629999999999988 -0.0221590000000000016 79 79 79
-0.0207969999999999995 -0.0457349999999999979 -0.0207969999999999995 39 39 39
-0.0201169999999999995 -0.0555210000000000009 -0.0201169999999999995 31 31 31
-0.0194359999999999984 -0.0653070000000000039 -0.0194359999999999984 23 23 23
-0.0199839999999999983 -0.0712229999999999946 -0.0199839999999999983 23 23 23
-0.022419999999999999 -0.0185600000000000001 -0.022419999999999999 95 95 95
-0.0117260000000000003 -0.0771389999999999992 -0.0283079999999999998 23 23 23
-0.0216660000000000012 -0.0771389999999999992 -0.0216660000000000012 23 23 23
-0.0121340000000000007 -0.0185600000000000001 -0.0292929999999999996 151 151 151
-0.0122909999999999998 -0.0851679999999999937 -0.0296730000000000015 7 7 7
-0.0227109999999999985 -0.0851679999999999937 -0.0227109999999999985 15 15 15
0 -0.0851679999999999937 -0.0321180000000000007 7 7 7
-0.0121779999999999996 -0.0925630000000000064 -0.0293999999999999991 7 7 7
-0.0225020000000000012 -0.0925630000000000064 -0.0225020000000000012 7 7 7
0 -0.0925630000000000064 -0.0318229999999999971 7 7 7
0.0121779999999999996 -0.0925630000000000064 -0.0293999999999999991 15 15 15
-0.0106449999999999999 -0.103772000000000003 -0.0268499999999999989 7 7 7
0.0106449999999999999 -0.103772000000000003 -0.0268499999999999989 15 15 15
-0.0214220000000000001 -0.100074999999999997 -0.0214220000000000001 7 7 7
-0.0268499999999999989 -0.103772000000000003 -0.0106449999999999999 0 0 0
-0.0293999999999999991 -0.0925630000000000064 -0.0121779999999999996 0 0 0
-0.0318229999999999971 -0.0925630000000000064 0 0 0 0
0.0214220000000000001 -0.100074999999999997 -0.0214220000000000001 7 7 7
0.0268499999999999989 -0.103772000000000003 -0.0106449999999999999 7 7 7
0.0293999999999999991 -0.0925630000000000064 -0.0121779999999999996 7 7 7
0.0318229999999999971 -0.0925630000000000064 0 7 7 7
-0.028781000000000001 -0.103772000000000003 0 0 0 0
-0.0268499999999999989 -0.103772000000000003 0.0106449999999999999 0 0 0
-0.0293999999999999991 -0.0925630000000000064 0.0121779999999999996 7 7 7
-0.0225020000000000012 -0.0925630000000000064 0.0225020000000000012 7 7 7
-0.0264010000000000009 -0.109376000000000001 0 0 0 0
-0.0248540000000000011 -0.109376000000000001 -0.00723399999999999998 0 0 0
-0.0248540000000000011 -0.109376000000000001 0.00723399999999999998 0 0 0
-0.0214220000000000001 -0.100074999999999997 0.0214220000000000001 0 0 0
-0.0202090000000000013 -0.115744 0 0 0 0
-0.0187820000000000001 -0.105614 -0.0187820000000000001 0 0 0
-0.0196600000000000004 -0.115744 -0.00466999999999999967 0 0 0
-0.00723399999999999998 -0.109376000000000001 -0.0248540000000000011 0 0 0
-0.0196600000000000004 -0.115744 0.00466999999999999967 0 0 0
-0.0187820000000000001 -0.105614 0.0187820000000000001 0 0 0
-0.0150489999999999999 -0.115744 0 0 0 0
-0.0139249999999999999 -0.108492000000000005 -0.0139249999999999999 0 0 0
-0.00466999999999999967 -0.115744 -0.0196600000000000004 0 0 0
-0.0153329999999999994 -0.115744 -0.00304300000000000013 0 0 0
-0.0153329999999999994 -0.115744 0.00304300000000000013 0 0 0
-0.0139249999999999999 -0.108492000000000005 0.0139249999999999999 0 0 0
-0.0100059999999999993 -0.111914 0 0 0 0
-0.00723399999999999998 -0.109376000000000001 0.0248540000000000011 7 7 7
-0.00466999999999999967 -0.115744 0.0196600000000000004 7 7 7
-0.0106449999999999999 -0.103772000000000003 0.0268499999999999989 7 7 7
-0.0103820000000000006 -0.109204999999999997 -0.0103820000000000006 0 0 0
-0.0107969999999999993 -0.111606999999999998 -0.00367300000000000005 0 0 0
-0.00304300000000000013 -0.115744 -0.0153329999999999994 0 0 0
-0.0107969999999999993 -0.111606999999999998 0.00367300000000000005 0 0 0
-0.0103820000000000006 -0.109204999999999997 0.0103820000000000006 0 0 0
-0.00565099999999999977 -0.111472000000000002 0 0 0 0
-0.00304300000000000013 -0.115744 0.0153329999999999994 0 0 0
-0.00683800000000000033 -0.109919000000000003 -0.00683800000000000033 0 0 0
-0.00329500000000000019 -0.110631999999999994 -0.00329500000000000019 0 0 0
0 -0.110226000000000005 0 0 0 0
-0.00367300000000000005 -0.111606999999999998 -0.0107969999999999993 0 0 0
-0.00329500000000000019 -0.110631999999999994 0.00329500000000000019 0 0 0
-0.00683800000000000033 -0.109919000000000003 0.00683800000000000033 0 0 0
-0.00367300000000000005 -0.111606999999999998 0.0107969999999999993 0 0 0
0 -0.111472000000000002 -0.00565099999999999977 0 0 0
0 -0.111914 -0.0100059999999999993 0 0 0
0 -0.111472000000000002 0.00565099999999999977 0 0 0
0 -0.111914 0.0100059999999999993 0 0 0
0 -0.115744 -0.0150489999999999999 0 0 0
0 -0.115744 0.0150489999999999999 0 0 0
0 -0.115744 -0.0202090000000000013 0 0 0
0 -0.115744 0.0202090000000000013 7 7 7
0 -0.109376000000000001 -0.0264010000000000009 0 0 0
0 -0.109376000000000001 0.0264010000000000009 7 7 7
0.00304300000000000013 -0.115744 -0.0153329999999999994 0 0 0
0.00466999999999999967 -0.115744 -0.0196600000000000004 0 0 0
0.00723399999999999998 -0.109376000000000001 -0.0248530000000000001 7 7 7
0.00367300000000000005 -0.111606999999999998 -0.0107969999999999993 0 0 0
0.00329500000000000019 -0.110631999999999994 -0.00329500000000000019 0 0 0
0 -0.103772000000000003 -0.028781000000000001 7 7 7
0 -0.0925630000000000064 -0.0318229999999999971 7 7 7
-0.0121779999999999996 -0.0925630000000000064 -0.0293999999999999991 7 7 7
0.0121779999999999996 -0.0925630000000000064 -0.0293999999999999991 15 15 15
0.0187820000000000001 -0.105614 -0.0187820000000000001 7 7 7
0.0139249999999999999 -0.108492000000000005 -0.0139249999999999999 0 0 0
0.0248540000000000011 -0.109376000000000001 -0.00723399999999999998 7 7 7
0.0103820000000000006 -0.109204999999999997 -0.0103820000000000006 0 0 0
0.0196600000000000004 -0.115744 -0.00466999999999999967 0 0 0
0.00683800000000000033 -0.109919000000000003 -0.00683800000000000033 0 0 0
0.0153329999999999994 -0.115744 -0.00304300000000000013 0 0 0
0.0107969999999999993 -0.111606999999999998 -0.00367300000000000005 0 0 0
0.00565099999999999977 -0.111472000000000002 0 0 0 0
0.0100059999999999993 -0.111914 0 0 0 0
0.0150489999999999999 -0.115744 0 0 0 0
0.0202090000000000013 -0.115744 0 0 0 0
0.00329500000000000019 -0.110631999999999994 0.00329500000000000019 0 0 0
0.0107969999999999993 -0.111606999999999998 0.00367300000000000005 0 0 0
0.0153329999999999994 -0.115744 0.00304300000000000013 0 0 0
0.00367300000000000005 -0.111606999999999998 0.0107969999999999993 0 0 0
0.00683800000000000033 -0.109919000000000003 0.00683800000000000033 0 0 0
0.0103820000000000006 -0.109204999999999997 0.0103820000000000006 0 0 0
0.00304300000000000013 -0.115744 0.0153329999999999994 0 0 0
0.0196600000000000004 -0.115744 0.00466999999999999967 0 0 0
0.0139249999999999999 -0.108492000000000005 0.0139249999999999999 0 0 0
0.00466999999999999967 -0.115744 0.0196600000000000004 7 7 7
0.0187820000000000001 -0.105614 0.0187820000000000001 7 7 7
0.00723399999999999998 -0.109376000000000001 0.0248530000000000001 7 7 7
0.0248540000000000011 -0.109376000000000001 0.00723399999999999998 0 0 0
0.0214220000000000001 -0.100074999999999997 0.0214220000000000001 7 7 7
0.0106449999999999999 -0.103772000000000003 0.0268499999999999989 7 7 7
0.0264010000000000009 -0.109376000000000001 0 7 7 7
0.0268499999999999989 -0.103772000000000003 0.0106449999999999999 0 0 0
0.028781000000000001 -0.103772000000000003 0 7 7 7
0.0293999999999999991 -0.0925630000000000064 0.0121779999999999996 0 0 0
0.0225020000000000012 -0.0925630000000000064 0.0225020000000000012 7 7 7
0.0121779999999999996 -0.0925630000000000064 0.0293999999999999991 7 7 7
0 -0.103772000000000003 0.028781000000000001 7 7 7
0 -0.0925630000000000064 0.0318229999999999971 7 7 7
0.0121779999999999996 -0.0925630000000000064 0.0293999999999999991 7 7 7
-0.0121779999999999996 -0.0925630000000000064 0.0293999999999999991 7 7 7
-0.0121779999999999996 -0.0925630000000000064 0.0293999999999999991 7 7 7
-0.0227109999999999985 -0.0851679999999999937 0.0227109999999999985 15 15 15
-0.0293999999999999991 -0.0925630000000000064 0.0121779999999999996 7 7 7
-0.0122909999999999998 -0.0851679999999999937 0.0296730000000000015 0 0 0
0 -0.0925630000000000064 0.0318229999999999971 7 7 7
-0.0296730000000000015 -0.0851679999999999937 0.0122909999999999998 15 15 15
-0.0318229999999999971 -0.0925630000000000064 0 0 0 0
-0.0216660000000000012 -0.0771389999999999992 0.0216660000000000012 15 15 15
0 -0.0851679999999999937 0.0321180000000000007 0 0 0
0.0121779999999999996 -0.0925630000000000064 0.0293999999999999991 7 7 7
-0.0321180000000000007 -0.0851679999999999937 0 0 0 0
-0.0293999999999999991 -0.0925630000000000064 -0.0121779999999999996 0 0 0
-0.0283079999999999998 -0.0771389999999999992 0.0117260000000000003 15 15 15
-0.0117260000000000003 -0.0771389999999999992 0.0283079999999999998 0 0 0
0.0122909999999999998 -0.0851679999999999937 0.0296730000000000015 7 7 7
0.0225020000000000012 -0.0925630000000000064 0.0225020000000000012 7 7 7
0.0227109999999999985 -0.0851679999999999937 0.0227109999999999985 7 7 7
-0.0296730000000000015 -0.0851679999999999937 -0.0122909999999999998 7 7 7
-0.0225020000000000012 -0.0925630000000000064 -0.0225020000000000012 7 7 7
-0.0227109999999999985 -0.0851679999999999937 -0.0227109999999999985 15 15 15
0 -0.0771389999999999992 0.0306400000000000006 0 0 0
0.0117260000000000003 -0.0771389999999999992 0.0283079999999999998 7 7 7
0.0216660000000000012 -0.0771389999999999992 0.0216660000000000012 7 7 7
-0.0199839999999999983 -0.0712229999999999946 0.0199839999999999983 31 31 31
-0.0306400000000000006 -0.0771389999999999992 0 7 7 7
-0.0283079999999999998 -0.0771389999999999992 -0.0117260000000000003 7 7 7
-0.0216660000000000012 -0.0771389999999999992 -0.0216660000000000012 23 23 23
-0.010815 -0.0712229999999999946 0.0261109999999999988 23 23 23
0 -0.0712229999999999946 0.0282619999999999989 31 31 31
0.010815 -0.0712229999999999946 0.0261109999999999988 23 23 23
0.0199839999999999983 -0.0712229999999999946 0.0199839999999999983 15 15 15
-0.0261109999999999988 -0.0712229999999999946 0.010815 31 31 31
-0.0282619999999999989 -0.0712229999999999946 0 7 7 7
-0.0261109999999999988 -0.0712229999999999946 -0.010815 7 7 7
-0.0199839999999999983 -0.0712229999999999946 -0.0199839999999999983 23 23 23
-0.0194359999999999984 -0.0653070000000000039 0.0194359999999999984 39 39 39
-0.0105179999999999996 -0.0653070000000000039 0.0253939999999999999 39 39 39
0.0105179999999999996 -0.0653070000000000039 0.0253939999999999999 23 23 23
0.0194359999999999984 -0.0653070000000000039 0.0194359999999999984 23 23 23
0 -0.0653070000000000039 0.027486 31 31 31
-0.0253939999999999999 -0.0653070000000000039 0.0105179999999999996 31 31 31
-0.0253939999999999999 -0.0653070000000000039 -0.0105179999999999996 7 7 7
-0.0194359999999999984 -0.0653070000000000039 -0.0194359999999999984 23 23 23
-0.027486 -0.0653070000000000039 0 15 15 15
0.0108870000000000008 -0.0555210000000000009 0.0262830000000000008 39 39 39
0.0201169999999999995 -0.0555210000000000009 0.0201169999999999995 39 39 39
0 -0.0555210000000000009 0.0284489999999999986 47 47 47
-0.0201169999999999995 -0.0555210000000000009 0.0201169999999999995 63 63 63
-0.0108870000000000008 -0.0555210000000000009 0.0262830000000000008 79 79 79
-0.0262839999999999983 -0.0555210000000000009 0.0108870000000000008 63 63 63
-0.0284489999999999986 -0.0555210000000000009 0 39 39 39
0.0112560000000000004 -0.0457349999999999979 0.0271729999999999992 47 47 47
0.0207969999999999995 -0.0457349999999999979 0.0207969999999999995 47 47 47
0 -0.0457349999999999979 0.0294120000000000006 87 87 87
-0.0207969999999999995 -0.0457349999999999979 0.0207969999999999995 71 71 71
-0.0112560000000000004 -0.0457349999999999979 0.0271729999999999992 87 87 87
0.0116240000000000007 -0.0359490000000000018 0.0280630000000000011 87 87 87
0.0214780000000000006 -0.0359490000000000018 0.0214780000000000006 47 47 47
-0.0271729999999999992 -0.0457349999999999979 0.0112560000000000004 63 63 63
0 -0.0359490000000000018 0.0303749999999999992 95 95 95
-0.0214780000000000006 -0.0359490000000000018 0.0214780000000000006 87 87 87
-0.0116240000000000007 -0.0359490000000000018 0.0280630000000000011 79 79 79
0.0119930000000000002 -0.0261629999999999988 0.0289529999999999996 111 111 111
0.0221590000000000016 -0.0261629999999999988 0.0221590000000000016 79 79 79
0 -0.0261629999999999988 0.0313379999999999978 135 135 135
-0.0119930000000000002 -0.0261629999999999988 0.0289529999999999996 143 143 143
-0.0221590000000000016 -0.0261629999999999988 0.0221590000000000016 143 143 143
-0.0280630000000000011 -0.0359490000000000018 0.0116240000000000007 87 87 87
0.0121340000000000007 -0.0185600000000000001 0.0292929999999999996 111 111 111
0.022419999999999999 -0.0185600000000000001 0.022419999999999999 63 63 63
0.022419999999999999 -0.00979200000000000036 0.022419999999999999 103 103 103
0 -0.0185600000000000001 0.0317069999999999991 151 151 151
0.0121340000000000007 -0.00979200000000000036 0.0292929999999999996 167 167 167
0.022419999999999999 -0.00102399999999999995 0.022419999999999999 119 119 119
-0.0121340000000000007 -0.0185600000000000001 0.0292929999999999996 175 175 175
0.0121340000000000007 -0.00102399999999999995 0.0292929999999999996 143 143 143
0.022419999999999999 0.00774400000000000002 0.022419999999999999 119 119 119
0 -0.00979200000000000036 0.0317069999999999991 183 183 183
-0.022419999999999999 -0.0185600000000000001 0.022419999999999999 167 167 167
-0.0221590000000000016 -0.0261629999999999988 0.0221590000000000016 143 143 143
-0.0121340000000000007 -0.00979200000000000036 0.0292929999999999996 223 223 223
-0.022419999999999999 -0.00979200000000000036 0.022419999999999999 207 207 207
0.0121340000000000007 0.00774400000000000002 0.0292929999999999996 119 119 119
0.022419999999999999 0.0165119999999999989 0.022419999999999999 103 103 103
0 -0.00102399999999999995 0.0317069999999999991 183 183 183
-0.0121340000000000007 -0.00102399999999999995 0.0292929999999999996 239 239 239
-0.022419999999999999 -0.00102399999999999995 0.022419999999999999 207 207 207
0.0121340000000000007 0.0165119999999999989 0.0292929999999999996 95 95 95
0.022419999999999999 0.0252800000000000004 0.022419999999999999 55 55 55
0 0.00774400000000000002 0.0317069999999999991 143 143 143
-0.0121340000000000007 0.00774400000000000002 0.0292929999999999996 175 175 175
-0.022419999999999999 0.00774400000000000002 0.022419999999999999 175 175 175
0.0121340000000000007 0.0252800000000000004 0.0292929999999999996 55 55 55
0.022419999999999999 0.0340490000000000029 0.022419999999999999 23 23 23
0 0.0165119999999999989 0.0317069999999999991 95 95 95
-0.0121340000000000007 0.0165119999999999989 0.0292929999999999996 103 103 103
-0.022419999999999999 0.0165119999999999989 0.022419999999999999 95 95 95
0 0.0252800000000000004 0.0317069999999999991 55 55 55
-0.0121340000000000007 0.0252800000000000004 0.0292929999999999996 55 55 55
-0.022419999999999999 0.0252800000000000004 0.022419999999999999 31 31 31
0.0121340000000000007 0.0340490000000000029 0.0292929999999999996 23 23 23
0 0.0340490000000000029 0.0317069999999999991 15 15 15
-0.0121340000000000007 0.0340490000000000029 0.0292929999999999996 39 39 39
-0.022419999999999999 0.0340490000000000029 0.022419999999999999 23 23 23
0.0119729999999999993 0.0430289999999999978 0.0289050000000000001 0 0 0
0.0221230000000000003 0.0430289999999999978 0.0221230000000000003 0 0 0
0 0.0430289999999999978 0.0312860000000000013 0 0 0
-0.0119729999999999993 0.0430289999999999978 0.0289050000000000001 0 0 0
0.011358 0.0493250000000000008 0.0274210000000000009 0 0 0
0.0209869999999999987 0.0493250000000000008 0.0209869999999999987 0 0 0
0 0.0493250000000000008 0.0296800000000000015 0 0 0
0.00983200000000000046 0.0591860000000000025 0.0237360000000000002 0 0 0
0.0181669999999999991 0.0591860000000000025 0.0181669999999999991 0 0 0
-0.0221230000000000003 0.0430289999999999978 0.0221230000000000003 7 7 7
-0.022419999999999999 0.0340490000000000029 0.022419999999999999 23 23 23
-0.011358 0.0493250000000000008 0.0274210000000000009 0 0 0
0 0.0591860000000000025 0.0256919999999999996 0 0 0
0.00801900000000000009 0.0665869999999999934 0.0193590000000000012 0 0 0
0.0148170000000000003 0.0665869999999999934 0.0148170000000000003 0 0 0
-0.0292929999999999996 0.0340490000000000029 0.0121340000000000007 31 31 31
-0.022419999999999999 0.0252800000000000004 0.022419999999999999 31 31 31
-0.0209869999999999987 0.0493250000000000008 0.0209869999999999987 0 0 0
-0.00983200000000000046 0.0591860000000000025 0.0237360000000000002 0 0 0
0 0.0665869999999999934 0.0209540000000000004 0 0 0
0.00578699999999999961 0.0788350000000000023 0.0139710000000000008 0 0 0
0.0106929999999999994 0.0788350000000000023 0.0106929999999999994 0 0 0
-0.0292929999999999996 0.0252800000000000004 0.0121340000000000007 39 39 39
-0.022419999999999999 0.0165119999999999989 0.022419999999999999 95 95 95
-0.0181669999999999991 0.0591860000000000025 0.0181669999999999991 0 0 0
-0.00801900000000000009 0.0665869999999999934 0.0193590000000000012 0 0 0
0 0.0788350000000000023 0.0151229999999999993 0 0 0
0.00461500000000000018 0.0867959999999999982 0.0111400000000000006 39 39 39
0.00852699999999999986 0.0867959999999999982 0.00852699999999999986 39 39 39
-0.0148170000000000003 0.0665869999999999934 0.0148170000000000003 0 0 0
-0.00578699999999999961 0.0788350000000000023 0.0139710000000000008 7 7 7
0 0.0867959999999999982 0.0120579999999999993 47 47 47
0.00344200000000000018 0.0947560000000000069 0.00830999999999999968 79 79 79
0.0063600000000000002 0.0947560000000000069 0.0063600000000000002 87 87 87
-0.0237360000000000002 0.0591860000000000025 0.00983200000000000046 0 0 0
-0.0106929999999999994 0.0788350000000000023 0.0106929999999999994 7 7 7
-0.00461500000000000018 0.0867959999999999982 0.0111400000000000006 39 39 39
0 0.0947560000000000069 0.00899400000000000026 55 55 55
0.00334400000000000018 0.0987029999999999991 0.00807399999999999958 79 79 79
0.0061789999999999996 0.0987029999999999991 0.0061789999999999996 87 87 87
-0.0193590000000000012 0.0665869999999999934 0.00801900000000000009 0 0 0
-0.00852699999999999986 0.0867959999999999982 0.00852699999999999986 47 47 47
-0.00344200000000000018 0.0947560000000000069 0.00830999999999999968 55 55 55
0 0.0987029999999999991 0.00873900000000000024 63 63 63
0.0045360000000000001 0.0987029999999999991 0.0109499999999999997 103 103 103
0.00838099999999999956 0.0987029999999999991 0.00838099999999999956 95 95 95
-0.0139710000000000008 0.0788350000000000023 0.00578699999999999961 0 0 0
-0.0063600000000000002 0.0947560000000000069 0.0063600000000000002 47 47 47
-0.00334400000000000018 0.0987029999999999991 0.00807399999999999958 55 55 55
0 0.0987029999999999991 0.0118519999999999997 103 103 103
0.00444700000000000043 0.101765999999999995 0.0107360000000000008 103 103 103
0.00821700000000000035 0.101765999999999995 0.00821700000000000035 103 103 103
-0.0111400000000000006 0.0867959999999999982 0.00461500000000000018 55 55 55
-0.0061789999999999996 0.0987029999999999991 0.0061789999999999996 47 47 47
-0.0045360000000000001 0.0987029999999999991 0.0109499999999999997 103 103 103
0 0.101765999999999995 0.0116209999999999994 103 103 103
0.00479999999999999958 0.108996999999999997 0.0115870000000000001 111 111 111
0.00886900000000000015 0.108996999999999997 0.00886900000000000015 119 119 119
-0.00830999999999999968 0.0947560000000000069 0.00344200000000000018 71 71 71
-0.00838099999999999956 0.0987029999999999991 0.00838099999999999956 119 119 119
-0.00444700000000000043 0.101765999999999995 0.0107360000000000008 111 111 111
0 0.108996999999999997 0.0125419999999999993 127 127 127
0.0045360000000000001 0.114878999999999995 0.0109499999999999997 111 111 111
0.00838099999999999956 0.114878999999999995 0.00838099999999999956 111 111 111
-0.00807399999999999958 0.0987029999999999991 0.00334400000000000018 63 63 63
-0.00821700000000000035 0.101765999999999995 0.00821700000000000035 119 119 119
-0.00479999999999999958 0.108996999999999997 0.0115870000000000001 143 143 143
0 0.114878999999999995 0.0118519999999999997 111 111 111
0.00440399999999999993 0.115719000000000002 0.0106330000000000001 103 103 103
0.0081379999999999994 0.115719000000000002 0.0081379999999999994 95 95 95
-0.0109499999999999997 0.0987029999999999991 0.0045360000000000001 127 127 127
-0.00886900000000000015 0.108996999999999997 0.00886900000000000015 119 119 119
-0.0045360000000000001 0.114878999999999995 0.0109499999999999997 119 119 119
0 0.115719000000000002 0.0115090000000000001 103 103 103
-0.0107360000000000008 0.101765999999999995 0.00444700000000000043 127 127 127
-0.00838099999999999956 0.114878999999999995 0.00838099999999999956 119 119 119
-0.00440399999999999993 0.115719000000000002 0.0106330000000000001 119 119 119
-0.0115870000000000001 0.108996999999999997 0.00479999999999999958 127 127 127
-0.0081379999999999994 0.115719000000000002 0.0081379999999999994 119 119 119
-0.0109499999999999997 0.114878999999999995 0.0045360000000000001 127 127 127
0 0.116024000000000002 0.00498299999999999958 0 0 0
-0.00190700000000000006 0.116024000000000002 0.00460300000000000032 7 7 7
0 0.116024000000000002 0 7 7 7
0.00190700000000000006 0.116024000000000002 0.00460300000000000032 23 23 23
0 0.116024000000000002 0 7 7 7
-0.00352300000000000009 0.116024000000000002 0.00352300000000000009 15 15 15
0 0.116024000000000002 0 7 7 7
0.00352300000000000009 0.116024000000000002 0.00352300000000000009 39 39 39
0 0.116024000000000002 0 7 7 7
0.0106330000000000001 0.115719000000000002 0.00440399999999999993 135 135 135
-0.00460300000000000032 0.116024000000000002 0.00190700000000000006 15 15 15
0 0.116024000000000002 0 7 7 7
-0.0106330000000000001 0.115719000000000002 0.00440399999999999993 111 111 111
0.00460300000000000032 0.116024000000000002 0.00190700000000000006 31 31 31
0 0.116024000000000002 0 7 7 7
0.00498299999999999958 0.116024000000000002 0 23 23 23
-0.00498299999999999958 0.116024000000000002 0 15 15 15
0 0.116024000000000002 0 7 7 7
0.0115090000000000001 0.115719000000000002 0 143 143 143
-0.0118519999999999997 0.114878999999999995 0 119 119 119
-0.0115090000000000001 0.115719000000000002 0 111 111 111
-0.0125419999999999993 0.108996999999999997 0 135 135 135
-0.00460300000000000032 0.116024000000000002 -0.00190700000000000006 15 15 15
0 0.116024000000000002 0 7 7 7
-0.0116209999999999994 0.101765999999999995 0 119 119 119
-0.0118519999999999997 0.0987029999999999991 0 119 119 119
-0.00873900000000000024 0.0987029999999999991 0 87 87 87
-0.00899400000000000026 0.0947560000000000069 0 79 79 79
-0.0120579999999999993 0.0867959999999999982 0 55 55 55
-0.0151229999999999993 0.0788350000000000023 0 0 0 0
-0.0209540000000000004 0.0665869999999999934 0 0 0 0
-0.0256919999999999996 0.0591860000000000025 0 0 0 0
-0.0274210000000000009 0.0493250000000000008 0.011358 7 7 7
-0.0289050000000000001 0.0430289999999999978 0.0119729999999999993 7 7 7
-0.0317069999999999991 0.0340490000000000029 0 23 23 23
-0.0312860000000000013 0.0430289999999999978 0 7 7 7
-0.0296800000000000015 0.0493250000000000008 0 7 7 7
-0.0237360000000000002 0.0591860000000000025 -0.00983200000000000046 0 0 0
-0.0193590000000000012 0.0665869999999999934 -0.00801900000000000009 0 0 0
-0.0139710000000000008 0.0788350000000000023 -0.00578699999999999961 7 7 7
-0.0111400000000000006 0.0867959999999999982 -0.00461500000000000018 71 71 71
-0.00830999999999999968 0.0947560000000000069 -0.00344200000000000018 79 79 79
-0.00807399999999999958 0.0987029999999999991 -0.00334400000000000018 79 79 79
-0.0109499999999999997 0.0987029999999999991 -0.0045360000000000001 159 159 159
-0.0107360000000000008 0.101765999999999995 -0.00444700000000000043 159 159 159
-0.0115870000000000001 0.108996999999999997 -0.00479999999999999958 167 167 167
-0.0109499999999999997 0.114878999999999995 -0.0045360000000000001 167 167 167
-0.0106330000000000001 0.115719000000000002 -0.00440399999999999993 159 159 159
-0.00352300000000000009 0.116024000000000002 -0.00352300000000000009 7 7 7
0 0.116024000000000002 0 7 7 7
-0.0063600000000000002 0.0947560000000000069 -0.0063600000000000002 63 63 63
-0.0061789999999999996 0.0987029999999999991 -0.0061789999999999996 63 63 63
-0.00852699999999999986 0.0867959999999999982 -0.00852699999999999986 55 55 55
-0.00838099999999999956 0.0987029999999999991 -0.00838099999999999956 103 103 103
-0.0106929999999999994 0.0788350000000000023 -0.0106929999999999994 7 7 7
-0.00821700000000000035 0.101765999999999995 -0.00821700000000000035 111 111 111
-0.0148170000000000003 0.0665869999999999934 -0.0148170000000000003 0 0 0
-0.00886900000000000015 0.108996999999999997 -0.00886900000000000015 135 135 135
-0.00838099999999999956 0.114878999999999995 -0.00838099999999999956 127 127 127
-0.0081379999999999994 0.115719000000000002 -0.0081379999999999994 103 103 103
-0.0181669999999999991 0.0591860000000000025 -0.0181669999999999991 0 0 0
-0.0274210000000000009 0.0493250000000000008 -0.011358 0 0 0
-0.0209869999999999987 0.0493250000000000008 -0.0209869999999999987 0 0 0
-0.0221230000000000003 0.0430289999999999978 -0.0221230000000000003 0 0 0
-0.0289050000000000001 0.0430289999999999978 -0.0119729999999999993 0 0 0
-0.022419999999999999 0.0340490000000000029 -0.022419999999999999 15 15 15
-0.0292929999999999996 0.0340490000000000029 -0.0121340000000000007 7 7 7
-0.0292929999999999996 0.0252800000000000004 -0.0121340000000000007 23 23 23
-0.022419999999999999 0.0252800000000000004 -0.022419999999999999 55 55 55
-0.0317069999999999991 0.0252800000000000004 0 47 47 47
-0.0292929999999999996 0.0165119999999999989 -0.0121340000000000007 71 71 71
-0.022419999999999999 0.0165119999999999989 -0.022419999999999999 95 95 95
-0.0292929999999999996 0.0165119999999999989 0.0121340000000000007 103 103 103
-0.022419999999999999 0.00774400000000000002 0.022419999999999999 175 175 175
-0.0317069999999999991 0.0165119999999999989 0 79 79 79
-0.0292929999999999996 0.00774400000000000002 0.0121340000000000007 167 167 167
-0.022419999999999999 -0.00102399999999999995 0.022419999999999999 207 207 207
-0.0292929999999999996 0.00774400000000000002 -0.0121340000000000007 111 111 111
-0.022419999999999999 0.00774400000000000002 -0.022419999999999999 127 127 127
-0.0317069999999999991 0.00774400000000000002 0 111 111 111
-0.0292929999999999996 -0.00102399999999999995 0.0121340000000000007 191 191 191
-0.022419999999999999 -0.00979200000000000036 0.022419999999999999 207 207 207
-0.0292929999999999996 -0.00102399999999999995 -0.0121340000000000007 135 135 135
-0.022419999999999999 -0.00102399999999999995 -0.022419999999999999 151 151 151
-0.0317069999999999991 -0.00102399999999999995 0 151 151 151
-0.0292929999999999996 -0.00979200000000000036 0.0121340000000000007 191 191 191
-0.022419999999999999 -0.0185600000000000001 0.022419999999999999 167 167 167
-0.0292929999999999996 -0.00979200000000000036 -0.0121340000000000007 103 103 103
-0.022419999999999999 -0.00979200000000000036 -0.022419999999999999 135 135 135
-0.0317069999999999991 -0.00979200000000000036 0 127 127 127
-0.0292929999999999996 -0.0185600000000000001 0.0121340000000000007 151 151 151
-0.0292929999999999996 -0.0185600000000000001 -0.0121340000000000007 71 71 71
-0.022419999999999999 -0.0185600000000000001 -0.022419999999999999 95 95 95
-0.0221590000000000016 -0.0261629999999999988 -0.0221590000000000016 79 79 79
-0.0317069999999999991 -0.0185600000000000001 0 111 111 111
-0.0289529999999999996 -0.0261629999999999988 -0.0119930000000000002 71 71 71
-0.0214780000000000006 -0.0359490000000000018 -0.0214780000000000006 31 31 31
-0.0289529999999999996 -0.0261629999999999988 0.0119930000000000002 111 111 111
-0.0313379999999999978 -0.0261629999999999988 0 95 95 95
-0.0280630000000000011 -0.0359490000000000018 -0.0116240000000000007 39 39 39
-0.0207969999999999995 -0.0457349999999999979 -0.0207969999999999995 39 39 39
-0.0303749999999999992 -0.0359490000000000018 0 55 55 55
-0.0271729999999999992 -0.0457349999999999979 -0.0112560000000000004 39 39 39
-0.0201169999999999995 -0.0555210000000000009 -0.0201169999999999995 31 31 31
-0.0294120000000000006 -0.0457349999999999979 0 47 47 47
-0.0262830000000000008 -0.0555210000000000009 -0.0108870000000000008 31 31 31
-0.00190700000000000006 0.116024000000000002 -0.00460300000000000032 15 15 15
0 0.116024000000000002 0 7 7 7
0 0.116024000000000002 -0.00498299999999999958 39 39 39
-0.00440399999999999993 0.115719000000000002 -0.0106330000000000001 103 103 103
0 0.115719000000000002 -0.0115090000000000001 103 103 103
0.00190700000000000006 0.116024000000000002 -0.00460300000000000032 31 31 31
0 0.116024000000000002 0 7 7 7
-0.0081379999999999994 0.115719000000000002 -0.0081379999999999994 103 103 103
-0.0045360000000000001 0.114878999999999995 -0.0109499999999999997 103 103 103
-0.00838099999999999956 0.114878999999999995 -0.00838099999999999956 127 127 127
0 0.114878999999999995 -0.0118519999999999997 119 119 119
-0.00479999999999999958 0.108996999999999997 -0.0115870000000000001 119 119 119
-0.00886900000000000015 0.108996999999999997 -0.00886900000000000015 135 135 135
0 0.108996999999999997 -0.0125419999999999993 127 127 127
-0.00444700000000000043 0.101765999999999995 -0.0107360000000000008 95 95 95
-0.00821700000000000035 0.101765999999999995 -0.00821700000000000035 111 111 111
0 0.101765999999999995 -0.0116209999999999994 111 111 111
-0.0045360000000000001 0.0987029999999999991 -0.0109499999999999997 95 95 95
-0.00838099999999999956 0.0987029999999999991 -0.00838099999999999956 103 103 103
0 0.0987029999999999991 -0.0118519999999999997 119 119 119
-0.00334400000000000018 0.0987029999999999991 -0.00807399999999999958 71 71 71
-0.0061789999999999996 0.0987029999999999991 -0.0061789999999999996 63 63 63
0 0.0987029999999999991 -0.00873900000000000024 87 87 87
-0.00344200000000000018 0.0947560000000000069 -0.00830999999999999968 71 71 71
-0.0063600000000000002 0.0947560000000000069 -0.0063600000000000002 63 63 63
0 0.0947560000000000069 -0.00899400000000000026 71 71 71
-0.00461500000000000018 0.0867959999999999982 -0.0111400000000000006 63 63 63
-0.00852699999999999986 0.0867959999999999982 -0.00852699999999999986 55 55 55
0 0.0867959999999999982 -0.0120579999999999993 63 63 63
-0.00578699999999999961 0.0788350000000000023 -0.0139710000000000008 7 7 7
-0.0106929999999999994 0.0788350000000000023 -0.0106929999999999994 7 7 7
0 0.0788350000000000023 -0.0151229999999999993 0 0 0
-0.00801900000000000009 0.0665869999999999934 -0.0193590000000000012 0 0 0
-0.0148170000000000003 0.0665869999999999934 -0.0148170000000000003 0 0 0
0 0.0665869999999999934 -0.0209540000000000004 0 0 0
-0.00983200000000000046 0.0591860000000000025 -0.0237360000000000002 0 0 0
-0.0181669999999999991 0.0591860000000000025 -0.0181669999999999991 0 0 0
-0.0209869999999999987 0.0493250000000000008 -0.0209869999999999987 0 0 0
0 0.0591860000000000025 -0.0256919999999999996 0 0 0
-0.011358 0.0493250000000000008 -0.0274210000000000009 0 0 0
-0.0119729999999999993 0.0430289999999999978 -0.0289050000000000001 0 0 0
-0.0221230000000000003 0.0430289999999999978 -0.0221230000000000003 0 0 0
-0.0121340000000000007 0.0340490000000000029 -0.0292929999999999996 15 15 15
-0.022419999999999999 0.0340490000000000029 -0.022419999999999999 15 15 15
-0.022419999999999999 0.0252800000000000004 -0.022419999999999999 55 55 55
-0.0121340000000000007 0.0252800000000000004 -0.0292929999999999996 47 47 47
-0.022419999999999999 0.0165119999999999989 -0.022419999999999999 95 95 95
0 0.0340490000000000029 -0.0317069999999999991 15 15 15
0 0.0430289999999999978 -0.0312860000000000013 7 7 7
0 0.0493250000000000008 -0.0296800000000000015 7 7 7
0.00983200000000000046 0.0591860000000000025 -0.0237360000000000002 0 0 0
-0.0121340000000000007 0.0165119999999999989 -0.0292929999999999996 95 95 95
-0.022419999999999999 0.00774400000000000002 -0.022419999999999999 127 127 127
0 0.0252800000000000004 -0.0317069999999999991 47 47 47
0.0121340000000000007 0.0340490000000000029 -0.0292929999999999996 7 7 7
0.0119729999999999993 0.0430289999999999978 -0.0289050000000000001 7 7 7
-0.0121340000000000007 0.00774400000000000002 -0.0292929999999999996 143 143 143
-0.022419999999999999 -0.00102399999999999995 -0.022419999999999999 151 151 151
0 0.0165119999999999989 -0.0317069999999999991 79 79 79
0.0121340000000000007 0.0252800000000000004 -0.0292929999999999996 15 15 15
0.022419999999999999 0.0340490000000000029 -0.022419999999999999 23 23 23
0.022419999999999999 0.0252800000000000004 -0.022419999999999999 23 23 23
0.0121340000000000007 0.0165119999999999989 -0.0292929999999999996 79 79 79
0.022419999999999999 0.0165119999999999989 -0.022419999999999999 71 71 71
0.011358 0.0493250000000000008 -0.0274210000000000009 7 7 7
0.0221230000000000003 0.0430289999999999978 -0.0221230000000000003 7 7 7
0 0.00774400000000000002 -0.0317069999999999991 159 159 159
0.0121340000000000007 0.00774400000000000002 -0.0292929999999999996 143 143 143
0.022419999999999999 0.00774400000000000002 -0.022419999999999999 167 167 167
0.0209869999999999987 0.0493250000000000008 -0.0209869999999999987 0 0 0
0.0181669999999999991 0.0591860000000000025 -0.0181669999999999991 0 0 0
0.0237360000000000002 0.0591860000000000025 -0.00983200000000000046 0 0 0
-0.0121340000000000007 -0.00102399999999999995 -0.0292929999999999996 175 175 175
-0.022419999999999999 -0.00979200000000000036 -0.022419999999999999 135 135 135
0.0193590000000000012 0.0665869999999999934 -0.00801900000000000009 0 0 0
0.00801900000000000009 0.0665869999999999934 -0.0193590000000000012 0 0 0
0 -0.00102399999999999995 -0.0317069999999999991 199 199 199
-0.0121340000000000007 -0.00979200000000000036 -0.0292929999999999996 151 151 151
0.0148170000000000003 0.0665869999999999934 -0.0148170000000000003 0 0 0
0.00578699999999999961 0.0788350000000000023 -0.0139710000000000008 0 0 0
0.0121340000000000007 -0.00102399999999999995 -0.0292929999999999996 231 231 231
0.022419999999999999 -0.00102399999999999995 -0.022419999999999999 223 223 223
0 -0.00979200000000000036 -0.0317069999999999991 191 191 191
0.0121340000000000007 -0.00979200000000000036 -0.0292929999999999996 239 239 239
0.022419999999999999 -0.00979200000000000036 -0.022419999999999999 255 255 255
0 -0.0185600000000000001 -0.0317069999999999991 183 183 183
0.0121340000000000007 -0.0185600000000000001 -0.0292929999999999996 223 223 223
0.022419999999999999 -0.0185600000000000001 -0.022419999999999999 215 215 215
0.0221590000000000016 -0.0261629999999999988 -0.0221590000000000016 151 151 151
0.00460300000000000032 0.116024000000000002 -0.00190700000000000006 23 23 23
0 0.116024000000000002 0 7 7 7
0.0106330000000000001 0.115719000000000002 -0.00440399999999999993 135 135 135
0.0081379999999999994 0.115719000000000002 -0.0081379999999999994 95 95 95
0.00352300000000000009 0.116024000000000002 -0.00352300000000000009 23 23 23
0 0.116024000000000002 0 7 7 7
0.0109499999999999997 0.114878999999999995 -0.0045360000000000001 135 135 135
0.00838099999999999956 0.114878999999999995 -0.00838099999999999956 103 103 103
0.00440399999999999993 0.115719000000000002 -0.0106330000000000001 95 95 95
0 0.116024000000000002 0 7 7 7
0.0045360000000000001 0.114878999999999995 -0.0109499999999999997 103 103 103
0.00886900000000000015 0.108996999999999997 -0.00886900000000000015 111 111 111
0.00479999999999999958 0.108996999999999997 -0.0115870000000000001 103 103 103
0.0118519999999999997 0.114878999999999995 0 151 151 151
0.0115870000000000001 0.108996999999999997 -0.00479999999999999958 143 143 143
0.00821700000000000035 0.101765999999999995 -0.00821700000000000035 87 87 87
0.00444700000000000043 0.101765999999999995 -0.0107360000000000008 103 103 103
0.0109499999999999997 0.114878999999999995 0.0045360000000000001 151 151 151
0.0081379999999999994 0.115719000000000002 0.0081379999999999994 95 95 95
0.00838099999999999956 0.114878999999999995 0.00838099999999999956 111 111 111
0.0125419999999999993 0.108996999999999997 0 159 159 159
0.0115870000000000001 0.108996999999999997 0.00479999999999999958 159 159 159
0.00886900000000000015 0.108996999999999997 0.00886900000000000015 119 119 119
0.0107360000000000008 0.101765999999999995 -0.00444700000000000043 111 111 111
0.0045360000000000001 0.0987029999999999991 -0.0109499999999999997 95 95 95
0.00838099999999999956 0.0987029999999999991 -0.00838099999999999956 87 87 87
0.0107360000000000008 0.101765999999999995 0.00444700000000000043 135 135 135
0.00821700000000000035 0.101765999999999995 0.00821700000000000035 103 103 103
0.0116209999999999994 0.101765999999999995 0 143 143 143
0.00334400000000000018 0.0987029999999999991 -0.00807399999999999958 63 63 63
0.0109499999999999997 0.0987029999999999991 -0.0045360000000000001 119 119 119
0.0061789999999999996 0.0987029999999999991 -0.0061789999999999996 55 55 55
0.0109499999999999997 0.0987029999999999991 0.0045360000000000001 127 127 127
0.00838099999999999956 0.0987029999999999991 0.00838099999999999956 95 95 95
0.0118519999999999997 0.0987029999999999991 0 151 151 151
0.00344200000000000018 0.0947560000000000069 -0.00830999999999999968 87 87 87
0.00807399999999999958 0.0987029999999999991 -0.00334400000000000018 47 47 47
0.0063600000000000002 0.0947560000000000069 -0.0063600000000000002 63 63 63
0.00807399999999999958 0.0987029999999999991 0.00334400000000000018 87 87 87
0.0061789999999999996 0.0987029999999999991 0.0061789999999999996 87 87 87
0.00873900000000000024 0.0987029999999999991 0 71 71 71
0.00461500000000000018 0.0867959999999999982 -0.0111400000000000006 39 39 39
0.00830999999999999968 0.0947560000000000069 -0.00344200000000000018 47 47 47
0.00852699999999999986 0.0867959999999999982 -0.00852699999999999986 39 39 39
0.0106929999999999994 0.0788350000000000023 -0.0106929999999999994 0 0 0
0.00830999999999999968 0.0947560000000000069 0.00344200000000000018 87 87 87
0.00899400000000000026 0.0947560000000000069 0 79 79 79
0.0111400000000000006 0.0867959999999999982 -0.00461500000000000018 39 39 39
0.0139710000000000008 0.0788350000000000023 -0.00578699999999999961 0 0 0
0.0120579999999999993 0.0867959999999999982 0 63 63 63
0.0151229999999999993 0.0788350000000000023 0 0 0 0
3 0 1 2 0
3 0 2 3 0
3 4 0 3 0
3 3 2 5 0
3 4 3 6 0
3 7 4 6 0
3 3 5 8 0
3 6 3 8 0
3 8 5 9 0
3 7 6 10 0
3 11 7 10 0
3 6 8 12 0
3 10 6 12 0
3 8 9 13 0
3 12 8 13 0
3 13 9 14 0
3 11 10 15 0
3 16 11 15 0
3 10 12 17 0
3 15 10 17 0
3 12 13 18 0
3 17 12 18 0
3 16 15 19 0
3 20 16 19 0
3 15 17 21 0
3 19 15 21 0
3 20 19 22 0
3 23 20 22 0
3 13 14 24 0
3 18 13 24 0
3 17 18 25 0
3 21 17 25 0
3 19 21 26 0
3 22 19 26 0
3 23 22 27 0
3 28 23 27 0
3 18 24 29 0
3 25 18 29 0
3 21 25 30 0
3 26 21 30 0
3 22 26 31 0
3 27 22 31 0
3 28 27 32 0
3 33 28 32 0
3 25 29 34 0
3 30 25 34 0
3 26 30 35 0
3 31 26 35 0
3 27 31 36 0
3 32 27 36 0
3 30 34 37 0
3 35 30 37 0
3 31 35 38 0
3 36 31 38 0
3 35 37 39 0
3 38 35 39 0
3 33 32 40 0
3 32 36 41 0
3 40 32 41 0
3 36 38 42 0
3 41 36 42 0
3 38 39 43 0
3 42 38 43 0
3 33 40 44 0
3 33 44 45 0
3 45 44 46 0
3 45 46 47 0
3 47 46 48 0
3 47 48 49 0
3 49 48 50 0
3 49 50 51 0
3 51 50 52 0
3 51 52 53 0
3 53 52 54 0
3 53 54 55 0
3 54 56 55 0
3 54 57 56 0
3 58 56 57 0
3 52 59 54 0
3 59 57 54 0
3 50 60 52 0
3 52 60 59 0
3 48 61 50 0
3 50 61 60 0
3 46 62 48 0
3 48 62 61 0
3 58 57 63 0
3 64 58 63 0
3 59 65 57 0
3 63 57 65 0
3 60 66 59 0
3 66 65 59 0
3 61 67 60 0
3 60 67 66 0
3 64 63 68 0
3 68 69 64 0
3 63 65 70 0
3 68 63 70 0
3 66 71 65 0
3 70 65 71 0
3 68 72 69 0
3 72 73 69 0
3 68 70 74 0
3 74 72 68 0
3 72 75 73 0
3 75 76 73 0
3 61 77 67 0
3 62 77 61 0
3 67 78 66 0
3 78 71 66 0
3 70 71 79 0
3 74 70 79 0
3 74 80 72 0
3 80 75 72 0
3 75 81 76 0
3 81 82 76 0
3 77 83 67 0
3 67 83 78 0
3 77 84 83 0
3 85 84 77 0
3 85 86 84 0
3 62 85 77 0
3 87 86 85 0
3 87 88 86 0
3 89 85 62 0
3 89 87 85 0
3 46 89 62 0
3 44 89 46 0
3 44 90 89 0
3 90 87 89 0
3 40 90 44 0
3 91 88 87 0
3 90 91 87 0
3 91 92 88 0
3 40 93 90 0
3 93 91 90 0
3 40 41 93 0
3 94 92 91 0
3 93 94 91 0
3 94 95 92 0
3 94 96 95 0
3 93 41 97 0
3 93 97 94 0
3 94 97 96 0
3 41 42 97 0
3 97 98 96 0
3 97 42 98 0
3 99 96 98 0
3 42 43 98 0
3 100 98 43 0
3 99 98 100 0
3 100 43 101 0
3 101 43 39 0
3 101 39 102 0
3 102 39 37 0
3 102 37 103 0
3 103 37 34 0
3 103 34 104 0
3 104 34 29 0
3 104 29 105 0
3 105 29 24 0
3 105 24 106 0
3 106 24 14 0
3 107 100 101 0
3 108 101 102 0
3 107 101 108 0
3 109 102 103 0
3 108 102 109 0
3 110 103 104 0
3 109 103 110 0
3 111 104 105 0
3 110 104 111 0
3 112 105 106 0
3 111 105 112 0
3 113 100 107 0
3 113 99 100 0
3 114 107 108 0
3 115 108 109 0
3 114 108 115 0
3 116 109 110 0
3 115 109 116 0
3 117 110 111 0
3 116 110 117 0
3 118 111 112 0
3 117 111 118 0
3 119 113 107 0
3 119 107 114 0
3 120 114 115 0
3 121 114 120 0
3 121 119 114 0
3 120 115 122 0
3 122 115 116 0
3 122 116 123 0
3 123 116 117 0
3 123 117 124 0
3 124 117 118 0
3 124 118 125 0
3 126 119 121 0
3 125 118 127 0
3 125 127 128 0
3 118 112 127 0
3 126 129 119 0
3 129 113 119 0
3 128 127 130 0
3 128 130 131 0
3 127 112 132 0
3 127 132 130 0
3 112 106 132 0
3 131 130 133 0
3 131 133 134 0
3 130 135 133 0
3 130 132 135 0
3 132 136 135 0
3 132 106 136 0
3 106 14 136 0
3 137 134 133 0
3 138 136 14 0
3 137 139 134 0
3 134 139 140 0
3 134 140 141 0
3 140 142 141 0
3 138 14 143 0
3 14 144 143 0
3 14 145 144 0
3 144 145 146 0
3 140 147 142 0
3 148 142 147 0
3 148 149 142 0
3 150 149 148 0
3 151 147 140 0
3 151 148 147 0
3 152 140 139 0
3 151 140 152 0
3 151 153 148 0
3 150 148 154 0
3 153 154 148 0
3 155 151 152 0
3 155 153 151 0
3 152 139 156 0
3 155 152 157 0
3 157 152 156 0
3 158 156 139 0
3 158 139 137 0
3 155 159 153 0
3 153 160 154 0
3 159 160 153 0
3 161 155 157 0
3 161 159 155 0
3 157 156 162 0
3 163 156 158 0
3 163 162 156 0
3 161 157 164 0
3 164 157 162 0
3 161 165 159 0
3 159 166 160 0
3 165 166 159 0
3 167 161 164 0
3 167 165 161 0
3 168 154 160 0
3 169 160 166 0
3 169 168 160 0
3 168 170 154 0
3 170 150 154 0
3 164 162 171 0
3 167 164 172 0
3 172 164 171 0
3 173 171 162 0
3 173 162 163 0
3 167 174 165 0
3 165 175 166 0
3 174 175 165 0
3 176 167 172 0
3 176 174 167 0
3 177 166 175 0
3 177 169 166 0
3 172 171 178 0
3 179 172 178 0
3 176 172 179 0
3 180 176 179 0
3 181 178 171 0
3 179 178 181 0
3 181 171 173 0
3 176 182 174 0
3 180 182 176 0
3 174 183 175 0
3 182 183 174 0
3 184 175 183 0
3 182 184 183 0
3 184 177 175 0
3 185 179 181 0
3 180 179 185 0
3 186 181 173 0
3 185 181 186 0
3 187 184 182 0
3 180 187 182 0
3 188 177 184 0
3 187 188 184 0
3 186 173 189 0
3 189 173 163 0
3 188 190 177 0
3 190 169 177 0
3 189 163 191 0
3 191 163 158 0
3 190 192 169 0
3 192 168 169 0
3 191 158 193 0
3 193 158 137 0
3 192 194 168 0
3 194 170 168 0
3 186 189 195 0
3 189 191 196 0
3 189 196 195 0
3 191 193 197 0
3 191 197 196 0
3 186 195 198 0
3 185 186 198 0
3 185 198 199 0
3 180 185 199 0
3 193 137 200 0
3 193 200 138 0
3 193 138 197 0
3 137 201 200 0
3 138 200 201 0
3 137 202 201 0
3 138 201 203 0
3 197 138 143 0
3 196 197 204 0
3 197 143 204 0
3 196 204 205 0
3 195 196 205 0
3 206 204 143 0
3 206 143 144 0
3 195 205 207 0
3 198 195 207 0
3 208 205 204 0
3 208 204 206 0
3 198 207 209 0
3 199 198 209 0
3 210 207 205 0
3 210 205 208 0
3 211 209 207 0
3 199 209 211 0
3 211 207 210 0
3 212 199 211 0
3 180 199 212 0
3 213 211 210 0
3 212 211 213 0
3 214 210 208 0
3 213 210 214 0
3 215 208 206 0
3 214 208 215 0
3 180 212 216 0
3 180 216 187 0
3 212 213 217 0
3 212 217 216 0
3 213 214 218 0
3 213 218 217 0
3 187 216 219 0
3 187 219 188 0
3 216 217 220 0
3 216 220 219 0
3 217 221 220 0
3 219 220 221 0
3 217 218 221 0
3 188 219 222 0
3 219 221 222 0
3 188 222 190 0
3 214 223 218 0
3 214 215 223 0
3 218 224 221 0
3 222 221 224 0
3 218 223 224 0
3 190 222 225 0
3 222 224 225 0
3 190 225 192 0
3 223 226 224 0
3 225 224 226 0
3 192 225 227 0
3 225 226 227 0
3 192 227 194 0
3 215 228 223 0
3 223 228 226 0
3 227 226 229 0
3 228 229 226 0
3 194 227 230 0
3 227 229 230 0
3 215 231 228 0
3 215 206 231 0
3 231 206 144 0
3 228 232 229 0
3 231 232 228 0
3 231 144 233 0
3 231 233 232 0
3 144 146 233 0
3 232 233 146 0
3 232 146 234 0
3 235 232 234 0
3 235 229 232 0
3 230 229 235 0
3 230 235 236 0
3 194 230 237 0
3 194 237 170 0
3 230 238 237 0
3 170 237 238 0
3 230 239 238 0
3 170 238 240 0
3 170 241 150 0
3 242 150 241 0
3 242 243 150 0
3 242 241 244 0
3 244 241 245 0
3 242 246 243 0
3 246 247 243 0
3 248 242 244 0
3 248 246 242 0
3 244 245 249 0
3 249 245 250 0
3 246 251 247 0
3 251 252 247 0
3 248 253 246 0
3 253 251 246 0
3 248 244 254 0
3 254 244 249 0
3 249 250 255 0
3 255 250 256 0
3 255 256 257 0
3 251 258 252 0
3 258 259 252 0
3 258 260 259 0
3 261 249 255 0
3 254 249 261 0
3 262 255 257 0
3 261 255 262 0
3 262 257 263 0
3 264 248 254 0
3 264 253 248 0
3 253 265 251 0
3 265 258 251 0
3 266 260 258 0
3 265 266 258 0
3 266 267 260 0
3 268 254 261 0
3 264 254 268 0
3 269 261 262 0
3 268 261 269 0
3 270 262 263 0
3 269 262 270 0
3 270 263 271 0
3 272 265 253 0
3 264 272 253 0
3 273 266 265 0
3 272 273 265 0
3 274 267 266 0
3 273 274 266 0
3 274 275 267 0
3 276 264 268 0
3 276 272 264 0
3 277 268 269 0
3 276 268 277 0
3 278 270 271 0
3 278 271 279 0
3 280 269 270 0
3 277 269 280 0
3 280 270 278 0
3 281 273 272 0
3 276 281 272 0
3 282 275 274 0
3 282 283 275 0
3 284 274 273 0
3 281 284 273 0
3 284 282 274 0
3 285 278 279 0
3 285 279 286 0
3 287 280 278 0
3 287 278 285 0
3 288 281 276 0
3 288 276 277 0
3 289 277 280 0
3 289 280 287 0
3 288 277 289 0
3 290 284 281 0
3 288 290 281 0
3 291 282 284 0
3 290 291 284 0
3 292 285 286 0
3 292 286 293 0
3 294 287 285 0
3 294 285 292 0
3 295 288 289 0
3 295 290 288 0
3 296 289 287 0
3 296 287 294 0
3 295 289 296 0
3 297 292 293 0
3 297 293 298 0
3 295 299 290 0
3 299 291 290 0
3 300 294 292 0
3 300 292 297 0
3 301 295 296 0
3 301 299 295 0
3 302 296 294 0
3 302 294 300 0
3 301 296 302 0
3 303 297 298 0
3 303 298 304 0
3 305 300 297 0
3 305 297 303 0
3 306 302 300 0
3 306 300 305 0
3 307 301 302 0
3 307 302 306 0
3 301 308 299 0
3 307 308 301 0
3 309 303 304 0
3 309 304 310 0
3 309 310 311 0
3 312 305 303 0
3 312 303 309 0
3 309 311 313 0
3 312 309 313 0
3 313 311 314 0
3 315 306 305 0
3 315 305 312 0
3 313 314 316 0
3 316 314 317 0
3 312 313 318 0
3 315 312 318 0
3 318 313 316 0
3 319 306 315 0
3 319 320 306 0
3 319 315 321 0
3 315 318 321 0
3 319 321 322 0
3 316 317 323 0
3 323 317 324 0
3 318 316 325 0
3 321 318 325 0
3 325 316 323 0
3 322 321 326 0
3 321 325 326 0
3 322 326 327 0
3 323 324 328 0
3 328 324 329 0
3 325 323 330 0
3 326 325 330 0
3 330 323 328 0
3 327 326 331 0
3 326 330 331 0
3 327 331 332 0
3 328 329 333 0
3 333 329 334 0
3 330 328 335 0
3 331 330 335 0
3 335 328 333 0
3 332 331 336 0
3 331 335 336 0
3 332 336 337 0
3 335 333 338 0
3 336 335 338 0
3 337 336 339 0
3 336 338 339 0
3 337 339 340 0
3 333 334 341 0
3 338 333 341 0
3 339 338 342 0
3 338 341 342 0
3 340 339 343 0
3 339 342 343 0
3 340 343 344 0
3 334 345 341 0
3 334 346 345 0
3 341 347 342 0
3 341 345 347 0
3 342 348 343 0
3 342 347 348 0
3 349 345 346 0
3 349 346 350 0
3 351 347 345 0
3 351 345 349 0
3 352 349 350 0
3 352 350 353 0
3 343 348 354 0
3 343 354 355 0
3 356 348 347 0
3 356 347 351 0
3 357 351 349 0
3 357 349 352 0
3 353 358 352 0
3 353 359 358 0
3 360 355 354 0
3 361 355 360 0
3 362 354 348 0
3 362 348 356 0
3 363 356 351 0
3 363 351 357 0
3 352 364 357 0
3 352 358 364 0
3 359 365 358 0
3 359 366 365 0
3 361 360 367 0
3 368 361 367 0
3 369 362 356 0
3 369 356 363 0
3 357 370 363 0
3 357 364 370 0
3 358 371 364 0
3 358 365 371 0
3 366 372 365 0
3 366 373 372 0
3 363 374 369 0
3 363 370 374 0
3 364 375 370 0
3 364 371 375 0
3 365 376 371 0
3 365 372 376 0
3 373 377 372 0
3 373 378 377 0
3 379 369 374 0
3 362 369 379 0
3 370 380 374 0
3 370 375 380 0
3 371 381 375 0
3 371 376 381 0
3 372 382 376 0
3 372 377 382 0
3 378 383 377 0
3 378 384 383 0
3 379 374 385 0
3 385 374 380 0
3 375 386 380 0
3 375 381 386 0
3 376 387 381 0
3 376 382 387 0
3 377 388 382 0
3 377 383 388 0
3 384 389 383 0
3 384 390 389 0
3 385 380 391 0
3 391 380 386 0
3 381 392 386 0
3 381 387 392 0
3 382 393 387 0
3 382 388 393 0
3 383 394 388 0
3 383 389 394 0
3 390 395 389 0
3 390 396 395 0
3 391 386 397 0
3 397 386 392 0
3 387 398 392 0
3 387 393 398 0
3 388 399 393 0
3 388 394 399 0
3 389 400 394 0
3 389 395 400 0
3 396 401 395 0
3 396 402 401 0
3 397 392 403 0
3 403 392 398 0
3 393 404 398 0
3 393 399 404 0
3 394 405 399 0
3 394 400 405 0
3 395 406 400 0
3 395 401 406 0
3 402 407 401 0
3 402 408 407 0
3 403 398 409 0
3 409 398 404 0
3 399 410 404 0
3 399 405 410 0
3 400 411 405 0
3 400 406 411 0
3 401 412 406 0
3 401 407 412 0
3 413 407 408 0
3 413 408 414 0
3 409 404 415 0
3 415 404 410 0
3 405 416 410 0
3 405 411 416 0
3 406 417 411 0
3 406 412 417 0
3 418 412 407 0
3 418 407 413 0
3 415 410 419 0
3 419 410 416 0
3 411 420 416 0
3 411 417 420 0
3 421 417 412 0
3 421 412 418 0
3 419 416 422 0
3 422 416 420 0
3 423 420 417 0
3 423 417 421 0
3 422 420 424 0
3 423 424 420 0
3 425 418 413 0
3 426 421 418 0
3 426 418 425 0
3 425 427 426 0
3 425 413 428 0
3 428 429 425 0
3 428 413 414 0
3 430 421 426 0
3 430 423 421 0
3 426 431 430 0
3 428 414 432 0
3 432 433 428 0
3 432 414 434 0
3 435 423 430 0
3 430 436 435 0
3 435 437 423 0
3 423 437 424 0
3 432 434 438 0
3 438 439 432 0
3 440 433 438 0
3 441 437 435 0
3 435 442 441 0
3 438 434 443 0
3 438 443 440 0
3 437 444 424 0
3 441 445 437 0
3 437 445 444 0
3 446 424 444 0
3 446 422 424 0
3 447 445 441 0
3 441 448 447 0
3 449 422 446 0
3 449 419 422 0
3 450 419 449 0
3 450 415 419 0
3 451 415 450 0
3 451 409 415 0
3 452 409 451 0
3 452 403 409 0
3 453 403 452 0
3 453 397 403 0
3 454 397 453 0
3 454 391 397 0
3 455 391 454 0
3 455 385 391 0
3 456 385 455 0
3 456 379 385 0
3 457 379 456 0
3 362 379 457 0
3 362 457 458 0
3 362 458 354 0
3 360 354 458 0
3 459 360 458 0
3 367 360 459 0
3 457 460 458 0
3 459 458 460 0
3 457 456 461 0
3 457 461 460 0
3 462 456 455 0
3 461 456 462 0
3 463 455 454 0
3 462 455 463 0
3 463 454 464 0
3 464 454 453 0
3 464 453 465 0
3 465 453 452 0
3 465 452 466 0
3 466 452 451 0
3 466 451 467 0
3 467 451 450 0
3 467 450 468 0
3 468 450 449 0
3 468 449 469 0
3 469 449 446 0
3 469 446 470 0
3 470 446 444 0
3 470 444 471 0
3 445 471 444 0
3 445 472 471 0
3 447 472 445 0
3 473 472 447 0
3 447 474 473 0
3 475 466 467 0
3 475 467 476 0
3 476 467 468 0
3 477 466 475 0
3 476 468 478 0
3 477 465 466 0
3 478 468 469 0
3 479 465 477 0
3 478 469 480 0
3 479 464 465 0
3 480 469 470 0
3 481 464 479 0
3 480 470 482 0
3 481 463 464 0
3 482 470 471 0
3 482 471 483 0
3 472 483 471 0
3 472 484 483 0
3 485 463 481 0
3 485 462 463 0
3 486 462 485 0
3 486 485 487 0
3 461 462 486 0
3 486 487 488 0
3 461 486 489 0
3 486 488 489 0
3 461 489 460 0
3 490 489 488 0
3 491 460 489 0
3 490 491 489 0
3 491 459 460 0
3 492 491 490 0
3 492 490 493 0
3 494 459 491 0
3 494 491 492 0
3 367 459 494 0
3 495 492 493 0
3 495 493 496 0
3 497 367 494 0
3 368 367 497 0
3 498 368 497 0
3 499 494 492 0
3 497 494 499 0
3 499 492 495 0
3 498 497 500 0
3 500 497 499 0
3 501 498 500 0
3 502 495 496 0
3 502 496 503 0
3 504 499 495 0
3 500 499 504 0
3 504 495 502 0
3 501 500 505 0
3 505 500 504 0
3 506 501 505 0
3 507 502 503 0
3 507 503 508 0
3 509 504 502 0
3 505 504 509 0
3 509 502 507 0
3 506 505 510 0
3 510 505 509 0
3 511 506 510 0
3 512 507 508 0
3 512 508 513 0
3 514 509 507 0
3 510 509 514 0
3 514 507 512 0
3 511 510 515 0
3 515 510 514 0
3 516 512 513 0
3 516 513 517 0
3 516 517 518 0
3 519 514 512 0
3 519 512 516 0
3 515 514 519 0
3 516 518 520 0
3 519 516 520 0
3 520 518 521 0
3 511 515 522 0
3 511 522 307 0
3 307 522 308 0
3 515 519 523 0
3 519 520 523 0
3 515 523 522 0
3 520 521 524 0
3 523 520 524 0
3 524 521 525 0
3 522 523 526 0
3 522 526 308 0
3 523 524 526 0
3 524 525 527 0
3 526 524 527 0
3 527 525 528 0
3 308 526 529 0
3 526 527 529 0
3 308 529 299 0
3 299 529 291 0
3 527 528 530 0
3 529 527 530 0
3 529 530 291 0
3 530 528 283 0
3 291 530 282 0
3 530 283 282 0
3 531 532 533 0
3 533 534 531 0
3 533 535 534 0
3 536 535 533 0
3 533 537 536 0
3 531 534 538 0
3 531 538 473 0
3 473 448 531 0
3 473 538 472 0
3 538 534 539 0
3 538 539 540 0
3 534 535 541 0
3 534 541 539 0
3 542 540 539 0
3 542 543 540 0
3 544 539 541 0
3 544 542 539 0
3 545 543 542 0
3 545 546 543 0
3 547 542 544 0
3 547 545 542 0
3 548 546 545 0
3 548 549 546 0
3 550 545 547 0
3 550 548 545 0
3 551 549 548 0
3 551 552 549 0
3 553 548 550 0
3 553 551 548 0
3 554 552 551 0
3 554 555 552 0
3 556 551 553 0
3 556 554 551 0
3 557 555 554 0
3 557 558 555 0
3 559 554 556 0
3 559 557 554 0
3 560 558 557 0
3 560 561 558 0
3 562 557 559 0
3 562 560 557 0
3 563 561 560 0
3 563 564 561 0
3 565 560 562 0
3 565 563 560 0
3 566 564 563 0
3 566 567 564 0
3 568 567 566 0
3 569 566 563 0
3 569 563 565 0
3 568 566 570 0
3 570 566 569 0
3 568 570 571 0
3 568 571 572 0
3 573 572 571 0
3 573 574 572 0
3 575 574 573 0
3 575 573 576 0
3 577 575 576 0
3 578 573 571 0
3 576 573 578 0
3 570 579 571 0
3 578 571 579 0
3 570 569 580 0
3 570 580 579 0
3 581 569 565 0
3 580 569 581 0
3 577 576 582 0
3 583 577 582 0
3 576 578 584 0
3 582 576 584 0
3 585 578 579 0
3 584 578 585 0
3 580 586 579 0
3 585 579 586 0
3 583 582 587 0
3 588 583 587 0
3 582 584 589 0
3 587 582 589 0
3 584 585 590 0
3 589 584 590 0
3 590 585 591 0
3 590 591 592 0
3 78 585 586 0
3 593 590 592 0
3 589 590 593 0
3 593 592 594 0
3 580 595 586 0
3 580 581 595 0
3 78 586 596 0
3 595 596 586 0
3 78 596 71 0
3 79 71 596 0
3 597 589 593 0
3 587 589 597 0
3 598 593 594 0
3 597 593 598 0
3 598 594 599 0
3 595 600 596 0
3 79 596 600 0
3 595 581 601 0
3 595 601 600 0
3 602 79 600 0
3 602 600 601 0
3 74 79 602 0
3 602 80 74 0
3 603 587 597 0
3 588 587 603 0
3 604 588 603 0
3 602 605 80 0
3 601 605 602 0
3 601 581 606 0
3 581 565 606 0
3 606 565 562 0
3 603 597 607 0
3 607 597 598 0
3 604 603 608 0
3 608 603 607 0
3 126 604 608 0
3 126 608 129 0
3 601 606 609 0
3 601 609 605 0
3 606 562 610 0
3 609 606 610 0
3 610 562 559 0
3 607 598 611 0
3 611 598 599 0
3 611 599 612 0
3 608 607 613 0
3 129 608 613 0
3 613 607 611 0
3 614 611 612 0
3 613 611 614 0
3 614 612 615 0
3 129 613 616 0
3 616 613 614 0
3 129 616 113 0
3 616 99 113 0
3 617 614 615 0
3 616 614 617 0
3 616 617 99 0
3 617 615 618 0
3 617 619 99 0
3 617 618 619 0
3 620 621 440 0
3 440 622 620 0
3 440 443 622 0
3 620 622 623 0
3 620 623 624 0
3 624 625 620 0
3 443 626 622 0
3 622 627 623 0
3 622 626 627 0
3 624 623 628 0
3 628 623 627 0
3 624 628 536 0
3 536 629 624 0
3 536 628 535 0
3 535 628 630 0
3 628 627 630 0
3 535 630 541 0
3 631 630 627 0
3 631 627 626 0
3 632 541 630 0
3 631 632 630 0
3 632 544 541 0
3 443 633 626 0
3 434 633 443 0
3 631 626 634 0
3 634 626 633 0
3 635 632 631 0
3 635 631 634 0
3 636 544 632 0
3 635 636 632 0
3 636 547 544 0
3 434 637 633 0
3 638 637 434 0
3 638 639 637 0
3 634 633 640 0
3 640 633 637 0
3 641 637 639 0
3 640 637 641 0
3 641 639 642 0
3 635 634 643 0
3 643 634 640 0
3 644 547 636 0
3 644 550 547 0
3 645 636 635 0
3 645 635 643 0
3 645 644 636 0
3 646 641 642 0
3 646 642 647 0
3 648 640 641 0
3 643 640 648 0
3 648 641 646 0
3 649 550 644 0
3 649 553 550 0
3 645 643 650 0
3 650 643 648 0
3 651 644 645 0
3 651 649 644 0
3 651 645 650 0
3 652 646 647 0
3 652 647 653 0
3 654 648 646 0
3 650 648 654 0
3 654 646 652 0
3 655 553 649 0
3 655 556 553 0
3 651 650 656 0
3 656 650 654 0
3 657 649 651 0
3 657 655 649 0
3 657 651 656 0
3 658 652 653 0
3 658 653 659 0
3 660 654 652 0
3 656 654 660 0
3 660 652 658 0
3 661 556 655 0
3 661 559 556 0
3 610 559 661 0
3 657 656 662 0
3 662 656 660 0
3 663 655 657 0
3 663 661 655 0
3 663 657 662 0
3 664 610 661 0
3 664 661 663 0
3 609 610 664 0
3 665 658 659 0
3 665 659 82 0
3 81 665 82 0
3 666 660 658 0
3 662 660 666 0
3 666 658 665 0
3 663 662 667 0
3 664 663 667 0
3 667 662 666 0
3 609 664 668 0
3 664 667 668 0
3 609 668 605 0
3 669 666 665 0
3 667 666 669 0
3 669 665 81 0
3 668 667 669 0
3 605 668 670 0
3 668 669 670 0
3 670 669 81 0
3 605 670 80 0
3 670 81 75 0
3 80 670 75 0
3 80 670 75 0
