%YAML 1.1
%TAG !u! tag:unity3d.com,2011:
--- !u!65 &2574153202441252270
BoxCollider:
  m_ObjectHideFlags: 0
  m_CorrespondingSourceObject: {fileID: 0}
  m_PrefabInstance: {fileID: 0}
  m_PrefabAsset: {fileID: 0}
  m_GameObject: {fileID: 5104072361666701144}
  m_Material: {fileID: 0}
  m_IsTrigger: 0
  m_Enabled: 1
  serializedVersion: 2
  m_Size: {x: 0.00095270155, y: 0.03999999, z: 0.038251374}
  m_Center: {x: 0.009523621, y: -2.0881744e-18, z: 0.0033880866}
--- !u!65 &3091685661481518433
BoxCollider:
  m_ObjectHideFlags: 0
  m_CorrespondingSourceObject: {fileID: 0}
  m_PrefabInstance: {fileID: 0}
  m_PrefabAsset: {fileID: 0}
  m_GameObject: {fileID: 5104072361666701144}
  m_Material: {fileID: 0}
  m_IsTrigger: 0
  m_Enabled: 1
  serializedVersion: 2
  m_Size: {x: 0.02, y: 0.03999999, z: 0.001012121}
  m_Center: {x: 0, y: -3.714558e-21, z: 0.00002533458}
--- !u!65 &7420223685409558226
BoxCollider:
  m_ObjectHideFlags: 0
  m_CorrespondingSourceObject: {fileID: 0}
  m_PrefabInstance: {fileID: 0}
  m_PrefabAsset: {fileID: 0}
  m_GameObject: {fileID: 5104072361666701144}
  m_Material: {fileID: 0}
  m_IsTrigger: 0
  m_Enabled: 1
  serializedVersion: 2
  m_Size: {x: 0.02, y: 0.0010313226, z: 0.038251366}
  m_Center: {x: 0, y: 0.019484464, z: 0.0033880963}
--- !u!65 &3905574131486766396
BoxCollider:
  m_ObjectHideFlags: 0
  m_CorrespondingSourceObject: {fileID: 0}
  m_PrefabInstance: {fileID: 0}
  m_PrefabAsset: {fileID: 0}
  m_GameObject: {fileID: 5104072361666701144}
  m_Material: {fileID: 0}
  m_IsTrigger: 0
  m_Enabled: 1
  serializedVersion: 2
  m_Size: {x: 0.02, y: 0.001164545, z: 0.03825139}
  m_Center: {x: 0, y: -0.019417832, z: 0.003388095}
--- !u!1001 &5104072361666798072
PrefabInstance:
  m_ObjectHideFlags: 0
  serializedVersion: 2
  m_Modification:
    m_TransformParent: {fileID: 0}
    m_Modifications:
    - target: {fileID: 100000, guid: 2c1bdf41880242c42a1d45d3d5103b31, type: 3}
      propertyPath: m_Name
      value: table Variant
      objectReference: {fileID: 0}
    - target: {fileID: 400000, guid: 2c1bdf41880242c42a1d45d3d5103b31, type: 3}
      propertyPath: m_LocalPosition.x
      value: 0
      objectReference: {fileID: 0}
    - target: {fileID: 400000, guid: 2c1bdf41880242c42a1d45d3d5103b31, type: 3}
      propertyPath: m_LocalPosition.y
      value: 0
      objectReference: {fileID: 0}
    - target: {fileID: 400000, guid: 2c1bdf41880242c42a1d45d3d5103b31, type: 3}
      propertyPath: m_LocalPosition.z
      value: 0
      objectReference: {fileID: 0}
    - target: {fileID: 400000, guid: 2c1bdf41880242c42a1d45d3d5103b31, type: 3}
      propertyPath: m_LocalRotation.x
      value: -0.7071068
      objectReference: {fileID: 0}
    - target: {fileID: 400000, guid: 2c1bdf41880242c42a1d45d3d5103b31, type: 3}
      propertyPath: m_LocalRotation.y
      value: 0
      objectReference: {fileID: 0}
    - target: {fileID: 400000, guid: 2c1bdf41880242c42a1d45d3d5103b31, type: 3}
      propertyPath: m_LocalRotation.z
      value: -0
      objectReference: {fileID: 0}
    - target: {fileID: 400000, guid: 2c1bdf41880242c42a1d45d3d5103b31, type: 3}
      propertyPath: m_LocalRotation.w
      value: 0.7071067
      objectReference: {fileID: 0}
    - target: {fileID: 400000, guid: 2c1bdf41880242c42a1d45d3d5103b31, type: 3}
      propertyPath: m_RootOrder
      value: 0
      objectReference: {fileID: 0}
    - target: {fileID: 400000, guid: 2c1bdf41880242c42a1d45d3d5103b31, type: 3}
      propertyPath: m_LocalEulerAnglesHint.x
      value: 0
      objectReference: {fileID: 0}
    - target: {fileID: 400000, guid: 2c1bdf41880242c42a1d45d3d5103b31, type: 3}
      propertyPath: m_LocalEulerAnglesHint.y
      value: 0
      objectReference: {fileID: 0}
    - target: {fileID: 400000, guid: 2c1bdf41880242c42a1d45d3d5103b31, type: 3}
      propertyPath: m_LocalEulerAnglesHint.z
      value: 0
      objectReference: {fileID: 0}
    m_RemovedComponents: []
  m_SourcePrefab: {fileID: 100100000, guid: 2c1bdf41880242c42a1d45d3d5103b31, type: 3}
--- !u!1 &5104072361666701144 stripped
GameObject:
  m_CorrespondingSourceObject: {fileID: 100000, guid: 2c1bdf41880242c42a1d45d3d5103b31,
    type: 3}
  m_PrefabInstance: {fileID: 5104072361666798072}
  m_PrefabAsset: {fileID: 0}
